# Blender v2.78 (sub 0) OBJ File: ''
# www.blender.org
mtllib charAccMonicle.mtl
o copy_charAccMonicle.001
v -1.500006 5.999996 -0.500000
v 0.499992 4.999992 -0.500000
v -1.500006 4.999992 -0.500000
v -1.500006 7.999994 -0.500000
v 0.499992 5.999996 -0.500000
v -1.500006 5.999996 0.499994
v -1.500006 4.999992 0.499994
v 0.499992 4.999992 0.499994
v 2.500000 2.937500 0.499993
v 1.499996 -0.000008 0.499992
v 2.500000 -0.000008 0.499992
v 1.499996 7.000000 -0.500000
v 2.500000 7.000000 -0.500000
v 1.499996 5.999996 -0.500000
v 2.500000 7.000000 0.499995
v 1.499996 7.000000 0.499995
v 1.499996 5.999996 0.499994
v 0.499992 5.999996 0.499994
v 1.499996 7.999994 0.499995
v 0.499992 7.999994 0.499995
v 1.499996 -0.000008 -0.500002
v 2.500000 -0.000008 -0.500002
v -2.500000 5.999996 -0.500000
v -1.500006 8.999998 -0.499999
v 0.499992 8.999998 -0.499999
v -2.500000 7.999994 -0.500000
v -1.500006 7.999994 0.499995
v -2.500000 5.999996 0.499994
v 0.499992 8.999998 0.499995
v -1.500006 8.999998 0.499995
v -2.500000 7.999994 0.499995
v 0.499992 7.999994 -0.500000
v 1.499996 7.999994 -0.500000
vt 0.0882 0.2623
vt 0.2353 0.3443
vt 0.0882 0.3443
vt 0.0882 0.0984
vt 0.2353 0.2623
vt 0.4853 0.5082
vt 0.4853 0.4262
vt 0.6324 0.4262
vt 0.7794 0.2572
vt 0.7059 0.0164
vt 0.7794 0.0164
vt 0.3088 0.1803
vt 0.3824 0.1803
vt 0.3088 0.2623
vt 0.7794 0.5902
vt 0.7059 0.5902
vt 0.7059 0.5082
vt 0.6324 0.5082
vt 0.7059 0.6721
vt 0.6324 0.6721
vt 0.9118 0.0164
vt 0.9853 0.0164
vt 0.9853 0.5082
vt 0.8088 0.2572
vt 0.8824 0.0164
vt 0.8824 0.5902
vt 0.0147 0.2623
vt 0.0882 0.0164
vt 0.2353 0.0164
vt 0.0147 0.0984
vt 0.4853 0.6721
vt 0.4118 0.5082
vt 0.6324 0.7541
vt 0.4853 0.7541
vt 0.4118 0.6721
vt 0.1912 0.7869
vt 0.1912 0.9508
vt 0.1176 0.9508
vt 0.1176 0.7869
vt 0.3824 0.7541
vt 0.3088 0.7541
vt 0.2353 0.0984
vt 0.3088 0.0984
vt 0.8824 0.8525
vt 0.8824 0.9344
vt 0.8088 0.9344
vt 0.8088 0.8525
vt 0.2941 0.9508
vt 0.2206 0.9508
vt 0.2206 0.7869
vt 0.2941 0.7869
vt 0.5735 0.9016
vt 0.5735 0.9836
vt 0.5000 0.9836
vt 0.5000 0.9016
vt 0.6029 0.9836
vt 0.6029 0.9016
vt 0.6765 0.9016
vt 0.6765 0.9836
vt 0.0882 0.9508
vt 0.0147 0.9508
vt 0.0147 0.7869
vt 0.0882 0.7869
vt 0.7794 0.7869
vt 0.7794 0.8689
vt 0.7059 0.8689
vt 0.7059 0.7869
vt 0.5735 0.7869
vt 0.5735 0.8689
vt 0.5000 0.8689
vt 0.5000 0.7869
vt 0.8088 0.8197
vt 0.8088 0.7377
vt 0.8824 0.7377
vt 0.8824 0.8197
vt 0.8088 0.0164
vt 0.9118 0.5082
vt 0.6765 0.7869
vt 0.6765 0.8689
vt 0.6029 0.8689
vt 0.6029 0.7869
vt 0.4706 0.7869
vt 0.4706 0.8689
vt 0.3971 0.8689
vt 0.3971 0.7869
vt 0.7794 0.9016
vt 0.7794 0.9836
vt 0.7059 0.9836
vt 0.7059 0.9016
vt 0.8824 0.6230
vt 0.8824 0.7049
vt 0.8088 0.7049
vt 0.8088 0.6230
vt 0.3971 0.9836
vt 0.3971 0.9016
vt 0.4706 0.9016
vt 0.4706 0.9836
vt 0.8088 0.5902
vn 0.0000 0.0000 -1.0000
vn 0.0000 -0.0000 1.0000
vn -1.0000 -0.0000 0.0000
vn 1.0000 -0.0000 0.0000
vn 0.0000 -1.0000 0.0000
vn 0.0000 1.0000 0.0000
usemtl palette.002
s off
f 1/1/1 2/2/1 3/3/1
f 4/4/1 5/5/1 1/1/1
f 6/6/2 7/7/2 8/8/2
f 9/9/2 10/10/2 11/11/2
f 12/12/1 13/13/1 14/14/1
f 12/12/1 14/14/1 5/5/1
f 15/15/2 16/16/2 17/17/2
f 17/17/2 16/16/2 18/18/2
f 19/19/2 20/20/2 16/16/2
f 1/1/1 5/5/1 2/2/1
f 4/4/1 12/12/1 5/5/1
f 20/20/2 6/6/2 18/18/2
f 18/18/2 6/6/2 8/8/2
f 15/15/2 17/17/2 9/9/2
f 17/21/3 14/22/3 21/23/3
f 9/24/4 22/25/4 13/26/4
f 23/27/1 4/4/1 1/1/1
f 24/28/1 25/29/1 4/4/1
f 26/30/1 4/4/1 23/27/1
f 6/6/2 27/31/2 28/32/2
f 29/33/2 30/34/2 27/31/2
f 27/31/2 31/35/2 28/32/2
f 20/20/2 27/31/2 6/6/2
f 26/36/3 23/37/3 28/38/3 31/39/3
f 9/9/2 17/17/2 10/10/2
f 22/40/1 21/41/1 14/14/1 13/13/1
f 32/42/1 33/43/1 12/12/1
f 16/16/2 20/20/2 18/18/2
f 4/4/1 32/42/1 12/12/1
f 4/4/1 25/29/1 32/42/1
f 20/20/2 29/33/2 27/31/2
f 28/44/5 23/45/5 1/46/5 6/47/5
f 7/48/5 3/49/5 2/50/5 8/51/5
f 1/52/3 3/53/3 7/54/3 6/55/3
f 26/56/6 31/57/6 27/58/6 4/59/6
f 24/60/6 30/61/6 29/62/6 25/63/6
f 24/64/3 4/65/3 27/66/3 30/67/3
f 10/68/5 21/69/5 22/70/5 11/71/5
f 12/72/6 16/73/6 15/74/6 13/75/6
f 9/24/4 11/76/4 22/25/4
f 10/77/3 17/21/3 21/23/3
f 2/78/4 5/79/4 18/80/4 8/81/4
f 18/82/5 5/83/5 14/84/5 17/85/5
f 12/86/4 33/87/4 19/88/4 16/89/4
f 32/90/4 25/91/4 29/92/4 20/93/4
f 32/94/6 20/95/6 19/96/6 33/97/6
f 15/98/4 9/24/4 13/26/4
