# Blender v2.78 (sub 0) OBJ File: ''
# www.blender.org
mtllib propFountain.mtl
o copy_propFountain.001
v -6.000010 2.999988 -6.000010
v -5.000000 -0.000009 -6.000010
v -6.000010 -0.000009 -6.000010
v -6.000010 -0.000009 -5.000000
v -8.000014 2.999987 -3.000014
v -7.000004 -0.000010 -3.000014
v -8.000014 -0.000010 -3.000014
v -3.000014 2.999988 -6.000010
v -5.000000 2.999988 -7.000002
v -5.000000 2.999988 -6.000010
v -5.000000 1.999995 -5.000000
v -6.000010 1.999995 -5.000000
v -6.000010 1.999993 -3.000014
v -6.000010 2.999987 -3.000014
v -6.000010 2.388891 -5.000000
v -6.000010 2.999988 -5.000000
v -5.000000 1.999995 -6.000010
v -5.000000 2.388891 -6.000010
v -7.000004 2.999986 0.590279
v -8.000014 2.999985 2.999999
v -5.000000 2.999986 -1.000010
v -5.000000 2.999986 -2.000003
v -5.000000 1.999993 -2.000003
v -7.000004 2.999988 -5.000000
v -7.000004 2.999987 -3.000013
v -5.000000 4.999990 -1.000008
v -4.000007 2.999986 -1.000010
v -3.000014 -0.000008 -7.000004
v -3.000014 2.999988 -8.000012
v -3.000014 -0.000008 -8.000014
v 0.451389 2.999988 -7.000002
v -3.000014 2.999988 -7.000002
v -1.000010 2.999988 -5.000000
v 1.999987 1.999995 -5.000000
v -2.000003 1.999995 -5.000000
v -2.000003 2.999988 -5.000000
v -3.000014 1.999995 -6.000010
v -1.000010 2.999988 -4.000007
v -1.000010 4.999992 -4.999998
v 0.999993 2.999988 -5.000000
v -3.000014 2.388891 -7.000002
v -0.208333 1.999995 -7.000002
v -3.000014 1.999993 -3.000014
v -3.000014 2.999988 -4.000007
v -3.000014 1.999994 -4.000007
v -4.000007 2.999987 -3.000014
v -4.000007 1.999993 -3.000014
v -3.000014 6.000000 -3.000012
v -2.000003 4.999990 -3.000012
v -3.000014 2.999987 -3.000014
v -2.000003 6.000000 -3.000012
v -1.000010 4.999990 -3.000012
v -2.000003 4.999990 -4.000005
v -2.000003 2.999988 -4.000007
v -3.000014 6.000000 -2.000001
v -3.000014 2.999986 -2.000003
v -5.000000 -0.000008 -7.000004
v -4.000007 4.999990 -1.000008
v -1.000010 4.999990 -4.000005
v -2.000003 1.999994 -4.000007
v -6.000010 -0.000012 5.999994
v -6.000010 1.347220 5.277778
v -6.000010 -0.000012 5.000000
v -7.000004 2.999985 2.999999
v -7.000004 2.388887 2.999999
v -7.000004 1.999992 2.999997
v -7.000004 2.999984 5.000000
v -6.000010 1.999992 2.999997
v -7.000004 1.999993 -0.208333
v -6.000010 2.999985 2.999999
v -4.000007 1.999992 1.999987
v -5.000000 1.999993 0.999994
v -6.000010 1.999991 5.000000
v -6.000010 2.388887 5.000000
v -5.000000 1.999991 5.999996
v -5.000000 2.999984 6.999988
v -5.000000 2.388887 5.999994
v -5.000000 1.999991 5.000000
v -5.000000 2.999984 5.000000
v -6.000010 2.999984 5.000000
v -6.000010 2.999984 5.999994
v -5.000000 2.999984 5.999994
v -3.000014 2.999984 5.999994
v -4.722222 1.999991 5.999994
v -6.000010 2.111109 5.999994
v 2.999997 2.999984 7.999998
v -3.000014 -0.000013 7.999996
v 2.999997 -0.000013 7.999996
v -4.000007 2.999986 1.999987
v -3.000014 1.999992 1.999987
v -3.000014 1.999992 2.999997
v -3.000014 2.999985 2.999999
v -4.000007 2.999986 0.999994
v -4.000007 4.999990 0.000002
v -4.000007 2.999986 0.000000
v -4.000007 6.999994 0.000002
v -2.000003 4.999990 1.999988
v -3.000014 6.000000 1.999989
v -2.000003 2.999986 1.999987
v -2.000003 6.000000 1.999989
v -1.000010 2.999984 3.999991
v -2.000003 1.999991 3.999991
v 1.999987 1.999991 3.999991
v -1.000010 2.999985 2.999999
v -2.000003 2.999985 2.999999
v -2.000003 2.999984 3.999991
v -2.000003 1.999992 2.999997
v -1.000010 4.999990 1.999988
v -1.000010 4.999990 2.999999
v -2.000003 4.999990 2.999999
v 0.999993 4.999990 3.999992
v -1.000010 4.999990 3.999992
v 0.999993 2.999984 3.999991
v -3.000014 6.000000 0.999995
v -3.000014 2.999986 0.999994
v -3.000014 2.999984 7.999998
v -3.000014 2.999984 6.999988
v -3.000014 2.388887 6.999988
v -0.208333 1.999991 6.999988
v -3.000014 1.999991 5.999994
v -3.000014 1.999991 6.999988
v -4.000007 1.999993 0.999994
v -7.000004 -0.000011 2.999997
v -5.000000 -0.000012 5.999993
v -3.000014 -0.000013 6.999987
v -7.000004 -0.000012 5.000000
v -4.000007 9.999990 -1.000006
v -3.000014 9.999990 -1.000006
v -4.000007 6.999994 -1.000008
v -2.000003 6.999994 -1.000008
v -2.916667 9.541667 0.000004
v -4.000007 9.999990 0.000004
v -2.000003 6.999994 0.000002
v -2.000003 7.999988 -3.000012
v -1.000010 7.999988 -3.000012
v -1.000010 7.805556 -3.611109
v -1.000010 8.777778 -2.777775
v -1.000010 9.999992 -3.000010
v -2.000003 11.000000 -1.000006
v -2.000003 7.999988 -2.000001
v -2.000003 6.999994 -2.000001
v -2.000003 6.000000 -2.000001
v -2.000003 11.000000 0.000004
v -1.000010 7.999988 -2.000001
v -1.000010 11.000000 -1.000006
v -1.000010 11.999994 -1.999999
v -1.000010 11.000000 -1.999999
v 0.999993 11.000000 -1.999999
v -2.000003 11.000000 -1.999999
v -2.000003 6.999994 0.999995
v -4.000007 6.999994 0.999995
v -2.000003 7.999986 1.999989
v -2.000003 7.999987 0.999996
v -1.000010 7.999986 1.999989
v -1.000010 8.777778 2.222225
v -1.000010 9.999990 1.999990
v -1.000010 7.999987 0.999996
v -2.000003 6.000000 0.999995
v -1.000010 11.000000 0.999997
v -1.000010 11.999994 0.999997
v -1.000010 11.000000 0.000004
v 0.999993 11.000000 0.999997
v -1.000010 11.000000 1.999990
v 2.999997 2.999988 -7.000002
v 2.999997 2.999988 -8.000012
v 5.000000 2.999988 -7.000002
v 2.999997 2.388891 -7.000002
v 0.999993 2.999988 -4.000007
v 0.999993 4.999992 -4.999998
v 2.999997 1.999995 -6.000010
v 2.999997 2.999988 -6.000010
v 0.999993 4.999990 -4.000005
v 1.999987 4.999990 -4.000005
v 1.999987 6.000000 -3.000012
v 1.999987 4.999990 -3.000012
v 0.999993 4.999990 -3.000012
v 0.999993 7.999988 -3.000012
v 1.999987 2.999988 -4.000007
v 2.999997 2.999988 -4.000007
v 2.999997 1.999994 -4.000007
v 1.999987 1.999994 -4.000007
v 2.999997 2.999987 -3.000014
v 2.999997 1.999993 -3.000014
v 3.999990 1.999993 -3.000014
v 3.999990 2.999987 -3.000014
v 2.999997 6.000000 -3.000012
v 1.999987 6.000000 -2.000001
v 2.999997 2.999986 -2.000003
v 2.999997 6.000000 -2.000001
v 3.999990 2.999986 -2.000003
v 1.999987 2.999987 -3.000014
v 5.000000 -0.000009 -6.000010
v 5.000000 -0.000008 -7.000004
v 5.277778 1.763891 -6.000010
v 5.999994 -0.000009 -6.000010
v 7.999996 2.999985 2.999999
v 7.999996 -0.000010 -3.000014
v 7.999996 2.999987 -3.000014
v 6.999987 2.999988 -5.000000
v 5.999993 2.999988 -5.000000
v 5.999994 2.999987 -3.000014
v 5.999993 2.388891 -5.000000
v 5.000000 1.999995 -5.000000
v 5.999994 1.999995 -5.000000
v 5.000000 2.388891 -6.000010
v 5.000000 1.999995 -6.000010
v 5.999994 2.999988 -6.000010
v 5.000000 2.999988 -5.000000
v 5.999993 2.111113 -6.000010
v 5.000000 2.999986 -1.000010
v 5.000000 1.999993 -2.000003
v 5.000000 2.999986 -2.000003
v 6.999987 2.999987 -3.000013
v 6.999987 2.999986 0.590279
v 6.999987 2.388890 -3.000013
v 6.999987 1.999993 -0.208333
v 5.000000 1.999993 0.999994
v 5.999994 1.999993 -3.000014
v 2.999997 -0.000008 -7.000004
v 5.000000 2.999988 -6.000010
v 3.999990 1.999993 -2.000003
v 5.999993 1.999995 -4.722221
v 1.999987 2.999984 3.999991
v 1.999987 1.999992 2.999997
v 1.999987 2.999985 2.999999
v 0.999993 2.999985 2.999999
v 1.999987 4.999990 1.999988
v 1.999987 6.000000 1.999989
v 0.999993 4.999990 1.999988
v 3.999990 2.999986 1.999987
v 2.999997 1.999992 1.999987
v 3.999990 1.999992 1.999987
v 2.999997 2.999985 2.999999
v 2.999997 1.999992 2.999997
v 2.999997 6.000000 1.999989
v 2.999997 2.999986 0.999994
v 2.999997 6.000000 0.999995
v 3.999990 2.999986 0.999994
v 3.999990 2.999986 0.000000
v 3.999990 4.999990 0.000002
v 3.999990 6.999994 0.999995
v 1.999987 4.999990 2.999999
v 2.999997 2.999986 1.999987
v 1.999987 2.999986 1.999987
v -0.138889 2.999984 6.999988
v 2.999997 1.999991 5.999994
v 5.000000 1.999991 5.000000
v 2.999997 1.999991 6.999988
v 2.999997 2.388887 6.999988
v 2.999997 2.999984 6.999988
v 5.000000 2.999984 6.999988
v 2.999997 2.999984 5.999994
v 5.000000 -0.000013 6.999987
v 5.000000 -0.000012 5.999994
v 5.000000 1.277776 5.999993
v 6.999987 2.999984 5.000000
v 5.999994 -0.000012 5.000000
v 6.999987 -0.000012 5.000000
v 5.999994 1.999992 2.999997
v 6.999987 2.999985 2.999999
v 6.999987 1.999992 2.999997
v 6.999987 2.388887 2.999999
v 5.999993 2.111109 5.277779
v 5.999994 1.999991 5.000000
v 5.999993 2.388887 5.000000
v 5.000000 2.388887 5.999994
v 5.000000 2.999984 5.999994
v 5.999994 2.999984 5.999994
v 5.000000 2.999984 5.000000
v 6.999987 -0.000011 2.999997
v 2.999997 -0.000013 6.999987
v 5.000000 1.999991 5.999996
v 5.999994 -0.000012 5.999994
v 5.999994 2.999985 2.999999
v 5.999993 2.999984 5.000000
v 0.999993 9.999992 -3.000010
v 0.999993 9.999992 -4.000005
v 3.999990 6.999994 -2.000001
v 1.999987 6.999994 -2.000001
v 1.999987 6.999994 -1.000008
v 3.999990 9.999990 0.000004
v 1.999987 6.999994 0.000002
v 3.999990 6.999994 0.000002
v 3.999990 6.999994 -1.000008
v 2.999997 9.999990 -1.000006
v 2.999997 11.000000 0.000004
v 1.999987 11.000000 0.000004
v 2.999997 9.999990 0.000003
v 1.999987 11.000000 -1.000006
v 0.999993 7.999988 -2.000001
v 1.999987 11.999993 0.000004
v 1.999987 11.999994 -1.000006
v 0.999993 11.999994 0.000004
v 0.999993 11.000000 -1.000006
v 1.999987 7.999988 -2.000001
v 1.999987 11.000000 -1.999999
v 1.999987 7.999986 1.999989
v 1.999987 6.999994 0.999995
v 1.999987 7.999987 0.999996
v 1.999987 6.000000 0.999995
v 1.999987 11.000000 0.999997
v 0.999993 11.000000 1.999990
v 0.999993 9.999990 1.999990
v 2.999997 -0.000008 -8.000014
v -1.000010 9.999992 -4.000005
v 0.999993 4.999990 2.999999
v 0.999993 7.999986 1.999989
v -1.000010 11.999994 0.000004
v -7.000004 -0.000009 -5.000000
v -5.000000 2.999988 -5.000000
v -7.000004 1.999993 -3.000014
v -7.000004 2.388890 -3.000013
v -7.000004 2.388889 0.590278
v -5.000000 2.999986 0.000000
v -5.000000 4.999990 0.000002
v -3.000014 1.999995 -7.000002
v -0.208333 2.388891 -7.000002
v -4.000007 2.999986 -2.000003
v -4.000007 1.999993 -2.000003
v -2.000003 2.999987 -3.000014
v -4.000007 6.999994 -2.000001
v -8.000014 -0.000011 2.999997
v -5.000000 -0.000013 6.999987
v -5.000000 2.999986 0.999994
v -3.000014 2.999986 1.999987
v 0.138889 2.388887 6.999988
v -3.000014 9.999990 0.000003
v -3.000014 11.000000 -1.000006
v -3.000014 11.000000 0.000004
v -1.000010 11.000002 -3.000010
v 0.999993 11.000002 -3.000010
v -2.000003 11.999993 -1.000006
v -2.000003 11.999993 0.000004
v -1.000010 11.999994 -1.000006
v -1.000010 9.999990 3.000001
v 0.999993 9.999990 3.000001
v -2.000003 11.000000 0.999997
v 2.999997 1.999995 -7.000002
v 1.999987 2.999988 -5.000000
v 3.999990 4.999990 -1.000008
v 3.999990 2.999986 -1.000010
v 5.999993 -0.000009 -5.000000
v 6.999987 -0.000009 -5.000000
v 7.999996 -0.000011 2.999997
v 5.000000 2.999986 0.000000
v 6.999987 1.999993 -3.000014
v 6.999987 2.388889 0.590278
v 5.000000 4.999990 -1.000008
v 5.000000 4.999990 0.000002
v 6.999987 -0.000010 -3.000014
v 3.999990 1.999993 0.999994
v 5.000000 2.999986 0.999994
v 5.277778 2.111109 5.999994
v 1.999987 7.999988 -3.000012
v 3.999990 9.999990 -1.000006
v 0.277778 11.999993 -0.277774
v 0.999993 11.999994 -1.000006
v 0.999993 11.999994 -1.999999
v 0.999993 11.000000 0.000004
v 2.999997 11.000000 -1.000006
v 0.999993 7.999987 0.999996
v 0.999993 11.999994 0.999997
vt 0.7853 0.4896
vt 0.8115 0.5677
vt 0.7853 0.5677
vt 0.3403 0.8021
vt 0.3665 0.7240
vt 0.3665 0.8021
vt 0.7958 0.3854
vt 0.8220 0.4635
vt 0.7958 0.4635
vt 0.9058 0.3594
vt 0.9319 0.4115
vt 0.9058 0.4115
vt 0.3194 0.3177
vt 0.3194 0.3437
vt 0.2670 0.3437
vt 0.9319 0.3490
vt 0.9159 0.2969
vt 0.9319 0.2969
vt 0.7592 0.9219
vt 0.7592 0.8958
vt 0.7693 0.8958
vt 0.7487 0.3596
vt 0.7225 0.4531
vt 0.7225 0.2969
vt 0.3351 0.5990
vt 0.3613 0.5990
vt 0.3613 0.6250
vt 0.3298 0.8750
vt 0.3037 0.9271
vt 0.3037 0.8750
vt 0.0785 0.8646
vt 0.1047 0.9167
vt 0.0785 0.9167
vt 0.7853 0.2500
vt 0.8115 0.1719
vt 0.8115 0.2500
vt 0.7487 0.6680
vt 0.7225 0.5781
vt 0.7487 0.5781
vt 0.5864 0.0833
vt 0.6126 0.0052
vt 0.6126 0.1094
vt 0.5864 0.1094
vt 0.3194 0.1354
vt 0.3455 0.2656
vt 0.3194 0.2396
vt 0.7958 0.8958
vt 0.8220 0.8437
vt 0.8220 0.8958
vt 0.5340 0.0833
vt 0.5864 0.0312
vt 0.6335 0.9687
vt 0.6073 0.9847
vt 0.6073 0.9687
vt 0.3717 0.1929
vt 0.9058 0.9896
vt 0.9319 0.9635
vt 0.9319 0.9896
vt 0.4084 0.9740
vt 0.3822 0.9479
vt 0.4084 0.9479
vt 0.2670 0.2656
vt 0.2932 0.2656
vt 0.2670 0.2917
vt 0.6754 0.2240
vt 0.6492 0.1979
vt 0.6754 0.1458
vt 0.6492 0.2240
vt 0.6230 0.1979
vt 0.0419 0.8646
vt 0.0681 0.8646
vt 0.0681 0.9167
vt 0.8691 0.6406
vt 0.8953 0.6927
vt 0.8691 0.6927
vt 0.6859 0.2344
vt 0.7120 0.2344
vt 0.6859 0.3125
vt 0.7120 0.7708
vt 0.6597 0.6927
vt 0.7120 0.6927
vt 0.1047 0.8646
vt 0.7958 0.8437
vt 0.2932 0.2396
vt 0.6859 0.7812
vt 0.6670 0.8163
vt 0.6597 0.7812
vt 0.8115 0.0833
vt 0.7853 0.0833
vt 0.8115 0.0674
vt 0.3560 0.6615
vt 0.3037 0.6354
vt 0.3560 0.6513
vt 0.3560 0.6354
vt 0.1099 0.3437
vt 0.1939 0.3698
vt 0.1099 0.3698
vt 0.1414 0.9167
vt 0.1152 0.9167
vt 0.1152 0.8646
vt 0.9686 0.1875
vt 0.9948 0.1875
vt 0.9686 0.2034
vt 0.1361 0.2917
vt 0.1623 0.3177
vt 0.6597 0.8333
vt 0.6597 0.8435
vt 0.8325 0.7187
vt 0.8586 0.7448
vt 0.8325 0.7289
vt 0.9421 0.1146
vt 0.9319 0.1406
vt 0.9319 0.1146
vt 0.9058 0.8594
vt 0.9058 0.8333
vt 0.9319 0.8333
vt 0.1309 0.8542
vt 0.1047 0.8542
vt 0.1309 0.8383
vt 0.8325 0.7448
vt 0.9215 0.4896
vt 0.9215 0.5417
vt 0.9055 0.4896
vt 0.0314 0.3105
vt 0.0576 0.3177
vt 0.0314 0.3177
vt 0.6859 0.8362
vt 0.6859 0.8594
vt 0.1728 0.3802
vt 0.0942 0.5365
vt 0.0942 0.3802
vt 0.1780 0.9896
vt 0.1518 0.9896
vt 0.1518 0.9635
vt 0.1099 0.2656
vt 0.0419 0.9271
vt 0.0681 0.9271
vt 0.0419 0.9531
vt 0.3822 0.3802
vt 0.4084 0.3281
vt 0.4084 0.3802
vt 0.4084 0.2760
vt 0.6230 0.4010
vt 0.5969 0.4271
vt 0.6230 0.3490
vt 0.6230 0.4271
vt 0.5602 0.3125
vt 0.5340 0.3385
vt 0.5340 0.2344
vt 0.8586 0.9687
vt 0.8325 0.9687
vt 0.8325 0.9427
vt 0.0419 0.9635
vt 0.0681 0.9635
vt 0.0681 0.9896
vt 0.6492 0.4010
vt 0.8691 0.3594
vt 0.8953 0.3594
vt 0.8691 0.4115
vt 0.6126 0.2604
vt 0.6126 0.3125
vt 0.5602 0.2604
vt 0.6859 0.6042
vt 0.7120 0.6823
vt 0.6859 0.6823
vt 0.2304 0.8021
vt 0.2565 0.8021
vt 0.2565 0.8542
vt 0.7958 0.6667
vt 0.8220 0.6667
vt 0.8220 0.6826
vt 0.0052 0.1929
vt 0.0314 0.2656
vt 0.0052 0.2656
vt 0.1623 0.2917
vt 0.8953 0.5417
vt 0.8953 0.4968
vt 0.3560 0.7135
vt 0.8325 0.6667
vt 0.8220 0.7448
vt 0.7958 0.7448
vt 0.8220 0.6927
vt 0.3037 0.7135
vt 0.1414 0.8646
vt 0.0838 0.2396
vt 0.6597 0.4896
vt 0.6859 0.4896
vt 0.6597 0.5677
vt 0.7120 0.5677
vt 0.6252 0.6964
vt 0.5969 0.7083
vt 0.6492 0.6302
vt 0.6492 0.2760
vt 0.6230 0.2760
vt 0.4084 0.4688
vt 0.3924 0.4637
vt 0.3822 0.3906
vt 0.4142 0.4890
vt 0.4084 0.5208
vt 0.4712 0.6094
vt 0.4712 0.5052
vt 0.4974 0.5833
vt 0.6859 0.2240
vt 0.6859 0.1979
vt 0.7120 0.1979
vt 0.6492 0.7344
vt 0.4346 0.4688
vt 0.9424 0.3594
vt 0.9686 0.3333
vt 0.9686 0.3594
vt 0.5602 0.8333
vt 0.5340 0.8854
vt 0.5340 0.8333
vt 0.4974 0.5052
vt 0.4346 0.5469
vt 0.8586 0.4896
vt 0.8848 0.4896
vt 0.8586 0.5417
vt 0.1309 0.6250
vt 0.1571 0.6250
vt 0.1571 0.6510
vt 0.6492 0.4792
vt 0.6230 0.4792
vt 0.1832 0.6510
vt 0.4916 0.2297
vt 0.4974 0.1979
vt 0.5236 0.2500
vt 0.6597 0.6042
vt 0.6597 0.5781
vt 0.4712 0.3281
vt 0.4974 0.3281
vt 0.9424 0.3229
vt 0.9424 0.2969
vt 0.9686 0.3229
vt 0.7225 0.8333
vt 0.7487 0.8333
vt 0.7487 0.8854
vt 0.4974 0.1719
vt 0.5236 0.1719
vt 0.7487 0.7344
vt 0.7225 0.7344
vt 0.0052 0.6875
vt 0.0576 0.6875
vt 0.0052 0.7034
vt 0.1937 0.8646
vt 0.2199 0.8646
vt 0.2199 0.9167
vt 0.3455 0.1094
vt 0.9424 0.7969
vt 0.9686 0.7969
vt 0.9686 0.8128
vt 0.7592 0.8333
vt 0.7853 0.8333
vt 0.7592 0.8854
vt 0.6492 0.0573
vt 0.6492 0.0833
vt 0.6230 0.0833
vt 0.4974 0.1615
vt 0.4712 0.1615
vt 0.4974 0.0833
vt 0.8691 0.6302
vt 0.8953 0.5781
vt 0.8953 0.6302
vt 0.9581 0.1771
vt 0.9319 0.1771
vt 0.9319 0.1510
vt 0.5707 0.9948
vt 0.5707 0.9687
vt 0.5969 0.9948
vt 0.2670 0.0833
vt 0.2932 0.1094
vt 0.2670 0.1094
vt 0.9686 0.1146
vt 0.9948 0.1146
vt 0.9686 0.1406
vt 0.6754 0.0573
vt 0.6754 0.1354
vt 0.8953 0.9167
vt 0.8691 0.9167
vt 0.8691 0.8906
vt 0.7487 0.1719
vt 0.7749 0.1719
vt 0.7749 0.2500
vt 0.4084 0.5833
vt 0.4346 0.6615
vt 0.4084 0.6615
vt 0.7487 0.2500
vt 0.8953 0.8906
vt 0.6492 0.1354
vt 0.8586 0.6562
vt 0.8325 0.6562
vt 0.8325 0.5781
vt 0.8293 0.5218
vt 0.8482 0.5677
vt 0.8220 0.5677
vt 0.1832 0.3802
vt 0.2618 0.5365
vt 0.1832 0.5365
vt 0.6859 0.9219
vt 0.6597 0.9219
vt 0.6597 0.8698
vt 0.9526 0.7240
vt 0.9424 0.7500
vt 0.9424 0.7240
vt 0.9215 0.2188
vt 0.9215 0.2708
vt 0.9055 0.2708
vt 0.1414 0.7760
vt 0.1675 0.7760
vt 0.1414 0.7920
vt 0.9058 0.6875
vt 0.9159 0.7135
vt 0.9058 0.7135
vt 0.9319 0.7969
vt 0.9319 0.8229
vt 0.9058 0.7969
vt 0.8482 0.4896
vt 0.8482 0.5127
vt 0.2199 0.5729
vt 0.1937 0.5469
vt 0.2199 0.5469
vt 0.7592 0.2969
vt 0.7853 0.2969
vt 0.7853 0.3904
vt 0.5340 0.7448
vt 0.5602 0.7448
vt 0.5340 0.7607
vt 0.6859 0.8698
vt 0.6440 0.9687
vt 0.6702 0.9687
vt 0.6440 0.9847
vt 0.1939 0.0052
vt 0.2408 0.0573
vt 0.1623 0.0573
vt 0.2670 0.0312
vt 0.0576 0.7656
vt 0.0052 0.7656
vt 0.3194 0.0573
vt 0.3455 0.0573
vt 0.4188 0.9010
vt 0.4188 0.8490
vt 0.4348 0.9010
vt 0.2408 0.0833
vt 0.1937 0.9167
vt 0.2932 0.1354
vt 0.8953 0.2188
vt 0.8953 0.2636
vt 0.5602 0.2344
vt 0.9686 0.0677
vt 0.9948 0.0417
vt 0.9948 0.0677
vt 0.9686 0.8333
vt 0.9424 0.8594
vt 0.9424 0.8333
vt 0.6230 0.5417
vt 0.6230 0.5677
vt 0.5969 0.5417
vt 0.9948 0.2500
vt 0.9686 0.2240
vt 0.9948 0.2240
vt 0.9319 0.2135
vt 0.9581 0.1875
vt 0.9581 0.2135
vt 0.7225 0.8229
vt 0.7487 0.7448
vt 0.7487 0.8229
vt 0.4607 0.1875
vt 0.4346 0.1875
vt 0.4346 0.1354
vt 0.7120 0.4531
vt 0.6859 0.4271
vt 0.7120 0.3490
vt 0.6859 0.3490
vt 0.8691 0.2969
vt 0.8953 0.3490
vt 0.8691 0.3490
vt 0.1937 0.9271
vt 0.2199 0.9531
vt 0.1937 0.9531
vt 0.8482 0.0938
vt 0.8220 0.1458
vt 0.8220 0.0938
vt 0.7487 0.0052
vt 0.7749 0.0870
vt 0.7487 0.1615
vt 0.0314 0.1094
vt 0.0576 0.0573
vt 0.0838 0.1354
vt 0.7958 0.6562
vt 0.8220 0.6302
vt 0.8220 0.6403
vt 0.8220 0.6562
vt 0.0052 0.1094
vt 0.9215 0.1458
vt 0.8953 0.0938
vt 0.9215 0.0938
vt 0.8586 0.4635
vt 0.8325 0.4635
vt 0.8325 0.4303
vt 0.8325 0.7552
vt 0.8586 0.8333
vt 0.8325 0.8333
vt 0.1099 0.0312
vt 0.1361 0.0833
vt 0.7592 0.4531
vt 0.7853 0.4531
vt 0.5236 0.6458
vt 0.4712 0.6719
vt 0.4712 0.6617
vt 0.4712 0.6458
vt 0.8293 0.1950
vt 0.8220 0.1979
vt 0.8220 0.1878
vt 0.9686 0.7135
vt 0.9584 0.6875
vt 0.9686 0.6875
vt 0.8586 0.3854
vt 0.8325 0.4013
vt 0.8325 0.3854
vt 0.7592 0.9323
vt 0.7853 0.9583
vt 0.7592 0.9583
vt 0.4712 0.7240
vt 0.8220 0.5781
vt 0.8325 0.4115
vt 0.8482 0.1719
vt 0.8482 0.2500
vt 0.5236 0.7240
vt 0.8586 0.8437
vt 0.8325 0.8958
vt 0.8325 0.8437
vt 0.4974 0.0313
vt 0.4712 0.0313
vt 0.5707 0.8854
vt 0.5707 0.8333
vt 0.5969 0.8333
vt 0.5340 0.6562
vt 0.5864 0.7344
vt 0.5340 0.7344
vt 0.5969 0.8854
vt 0.7120 0.0833
vt 0.6859 0.0052
vt 0.7382 0.0052
vt 0.3822 0.5573
vt 0.3822 0.5833
vt 0.5602 0.6302
vt 0.5864 0.6302
vt 0.5602 0.6562
vt 0.7382 0.1094
vt 0.5236 0.0833
vt 0.5602 0.1198
vt 0.5864 0.1198
vt 0.5602 0.1458
vt 0.7487 0.9323
vt 0.7487 0.9583
vt 0.7225 0.9583
vt 0.5864 0.3490
vt 0.5602 0.4271
vt 0.5602 0.3490
vt 0.1204 0.6250
vt 0.0942 0.6510
vt 0.0942 0.6250
vt 0.0681 0.6510
vt 0.8691 0.4219
vt 0.8953 0.4740
vt 0.8691 0.4740
vt 0.6597 0.4531
vt 0.6597 0.4271
vt 0.0942 0.5469
vt 0.0681 0.5469
vt 0.4974 0.4948
vt 0.4974 0.4688
vt 0.5236 0.4948
vt 0.2723 0.3802
vt 0.3508 0.3802
vt 0.3508 0.5365
vt 0.5340 0.4896
vt 0.5864 0.6198
vt 0.5340 0.6198
vt 0.4084 0.0833
vt 0.3822 0.1875
vt 0.3822 0.0833
vt 0.4712 0.3385
vt 0.4974 0.3385
vt 0.4974 0.4167
vt 0.1832 0.5469
vt 0.9686 0.2969
vt 0.9058 0.2969
vt 0.9058 0.3490
vt 0.8586 0.3229
vt 0.8325 0.3750
vt 0.8325 0.2969
vt 0.8586 0.3128
vt 0.0314 0.7760
vt 0.0314 0.8542
vt 0.0052 0.8021
vt 0.0052 0.7920
vt 0.3298 0.9271
vt 0.3665 0.8750
vt 0.3665 0.9271
vt 0.3403 0.9271
vt 0.3563 0.8750
vt 0.7853 0.8958
vt 0.7853 0.9219
vt 0.8115 0.5055
vt 0.8115 0.5156
vt 0.9581 0.1042
vt 0.9479 0.0781
vt 0.9581 0.0781
vt 0.0052 0.7760
vt 0.3403 0.8750
vt 0.8586 0.2969
vt 0.3403 0.7500
vt 0.3403 0.7399
vt 0.3455 0.3177
vt 0.3403 0.7240
vt 0.4712 0.9115
vt 0.4712 0.8854
vt 0.4974 0.8854
vt 0.4974 0.9115
vt 0.9319 0.1042
vt 0.9319 0.0781
vt 0.8115 0.4896
vt 0.1937 0.6354
vt 0.2039 0.6354
vt 0.2039 0.7289
vt 0.1937 0.7081
vt 0.2199 0.6354
vt 0.2199 0.7289
vt 0.8220 0.4013
vt 0.8220 0.4115
vt 0.7487 0.4531
vt 0.1832 0.6875
vt 0.1832 0.7656
vt 0.1309 0.7034
vt 0.1309 0.6875
vt 0.8220 0.3854
vt 0.1309 0.7135
vt 0.2827 0.6250
vt 0.3089 0.5990
vt 0.0052 0.5365
vt 0.0838 0.3802
vt 0.0838 0.5365
vt 0.2408 0.3177
vt 0.2670 0.3698
vt 0.7958 0.9427
vt 0.8220 0.9427
vt 0.8220 0.9687
vt 0.7958 0.9528
vt 0.3351 0.5469
vt 0.3089 0.5469
vt 0.7958 0.9687
vt 0.9215 0.1563
vt 0.8953 0.2083
vt 0.8953 0.1563
vt 0.2565 0.6354
vt 0.2565 0.7081
vt 0.2464 0.7081
vt 0.2464 0.6354
vt 0.7853 0.1979
vt 0.7853 0.1878
vt 0.2304 0.7253
vt 0.2304 0.6354
vt 0.6597 0.7549
vt 0.6597 0.7448
vt 0.7853 0.1719
vt 0.6073 0.9948
vt 0.6335 0.9948
vt 0.6597 0.7708
vt 0.2723 0.5365
vt 0.5340 0.0312
vt 0.0052 0.9531
vt 0.0052 0.9271
vt 0.0314 0.9271
vt 0.0314 0.9531
vt 0.3717 0.2656
vt 0.9319 0.3594
vt 0.1152 0.9531
vt 0.1152 0.9271
vt 0.1414 0.9271
vt 0.1414 0.9531
vt 0.9319 0.6771
vt 0.9058 0.6771
vt 0.9058 0.6510
vt 0.9319 0.6510
vt 0.9319 0.2240
vt 0.9581 0.2240
vt 0.9581 0.2500
vt 0.9319 0.2500
vt 0.4607 0.2760
vt 0.4607 0.3802
vt 0.4346 0.3281
vt 0.4346 0.2760
vt 0.9058 0.9635
vt 0.3822 0.9740
vt 0.7120 0.3125
vt 0.6492 0.1458
vt 0.6492 0.2865
vt 0.6492 0.3125
vt 0.6230 0.3125
vt 0.4346 0.3802
vt 0.7382 0.2240
vt 0.7382 0.1198
vt 0.8691 0.9896
vt 0.8691 0.9635
vt 0.8953 0.9635
vt 0.8953 0.9896
vt 0.8953 0.6406
vt 0.7592 0.9948
vt 0.7592 0.9688
vt 0.7853 0.9688
vt 0.7853 0.9948
vt 0.0419 0.9167
vt 0.7120 0.1198
vt 0.6230 0.2865
vt 0.9686 0.9896
vt 0.9424 0.9896
vt 0.9424 0.9635
vt 0.9686 0.9635
vt 0.9319 0.5156
vt 0.9319 0.4896
vt 0.9581 0.4896
vt 0.9581 0.5156
vt 0.9215 0.2083
vt 0.9686 0.1042
vt 0.9686 0.0781
vt 0.9948 0.0781
vt 0.9948 0.1042
vt 0.2408 0.2917
vt 0.0052 0.8542
vt 0.8586 0.3750
vt 0.1309 0.7656
vt 0.2199 0.9635
vt 0.2199 0.9896
vt 0.1937 0.9896
vt 0.1937 0.9635
vt 0.8586 0.2188
vt 0.8848 0.2188
vt 0.8848 0.2708
vt 0.8586 0.2708
vt 0.2039 0.7917
vt 0.1937 0.7917
vt 0.0052 0.3802
vt 0.8115 0.0052
vt 0.7853 0.0052
vt 0.1309 0.7760
vt 0.1047 0.7760
vt 0.8586 0.6667
vt 0.2199 0.7917
vt 0.8115 0.0573
vt 0.7487 0.2969
vt 0.9948 0.2135
vt 0.9686 0.2135
vt 0.2827 0.5990
vt 0.8953 0.4896
vt 0.1309 0.8281
vt 0.6597 0.8594
vt 0.2304 0.9167
vt 0.2565 0.8646
vt 0.2565 0.9167
vt 0.7958 0.3229
vt 0.7958 0.3128
vt 0.8220 0.3200
vt 0.7068 0.9323
vt 0.7068 0.9583
vt 0.6806 0.9583
vt 0.6806 0.9424
vt 0.6806 0.9323
vt 0.9581 0.1146
vt 0.9581 0.1406
vt 0.9319 0.8594
vt 0.7958 0.2969
vt 0.8220 0.2969
vt 0.9686 0.5521
vt 0.9686 0.5260
vt 0.9948 0.5260
vt 0.9948 0.5521
vt 0.1728 0.5365
vt 0.9319 0.9271
vt 0.9319 0.9531
vt 0.9058 0.9531
vt 0.9058 0.9271
vt 0.4084 0.9115
vt 0.4084 0.9375
vt 0.3822 0.9375
vt 0.3822 0.9115
vt 0.1780 0.9635
vt 0.9581 0.0677
vt 0.9319 0.0677
vt 0.9319 0.0417
vt 0.9581 0.0417
vt 0.8586 0.0938
vt 0.8848 0.0938
vt 0.8848 0.1458
vt 0.8586 0.1458
vt 0.7853 0.8229
vt 0.7592 0.7448
vt 0.7853 0.7448
vt 0.8586 0.9427
vt 0.5602 0.3385
vt 0.0419 0.9896
vt 0.8953 0.8802
vt 0.8691 0.8281
vt 0.8953 0.8281
vt 0.5707 0.9219
vt 0.5707 0.8958
vt 0.5969 0.8958
vt 0.5969 0.9219
vt 0.1099 0.2396
vt 0.7592 0.8229
vt 0.5969 0.3490
vt 0.8953 0.4115
vt 0.8691 0.8802
vt 0.1518 0.9531
vt 0.1518 0.9271
vt 0.1780 0.9271
vt 0.1780 0.9531
vt 0.0681 0.9531
vt 0.1361 0.2656
vt 0.2304 0.8542
vt 0.2932 0.7190
vt 0.2932 0.7917
vt 0.2830 0.7917
vt 0.2830 0.7099
vt 0.2670 0.7917
vt 0.2670 0.7172
vt 0.7749 0.1615
vt 0.7749 0.5417
vt 0.7749 0.5518
vt 0.7225 0.4896
vt 0.7749 0.5677
vt 0.7225 0.5677
vt 0.2304 0.9896
vt 0.2304 0.9635
vt 0.2565 0.9795
vt 0.2565 0.9896
vt 0.7225 0.9948
vt 0.7225 0.9688
vt 0.7487 0.9688
vt 0.7487 0.9948
vt 0.2565 0.9635
vt 0.2304 0.8646
vt 0.7068 0.9948
vt 0.6806 0.9948
vt 0.6806 0.9687
vt 0.7068 0.9687
vt 0.8220 0.3750
vt 0.7958 0.3750
vt 0.8691 0.7031
vt 0.8953 0.7031
vt 0.8793 0.7552
vt 0.8691 0.7552
vt 0.7749 0.4896
vt 0.4346 0.1979
vt 0.4084 0.1979
vt 0.8953 0.7552
vt 0.0576 0.3437
vt 0.5340 0.9583
vt 0.5340 0.9323
vt 0.5602 0.9323
vt 0.5602 0.9583
vt 0.5969 0.6302
vt 0.6073 0.8333
vt 0.6335 0.8333
vt 0.6335 0.8854
vt 0.6073 0.8854
vt 0.5236 0.5833
vt 0.5236 0.6354
vt 0.4974 0.6354
vt 0.4974 0.6094
vt 0.6230 0.7083
vt 0.9319 0.0313
vt 0.9319 0.0052
vt 0.9581 0.0052
vt 0.9581 0.0313
vt 0.8953 0.0052
vt 0.9215 0.0052
vt 0.9215 0.0573
vt 0.8953 0.0573
vt 0.3822 0.5208
vt 0.7225 0.9219
vt 0.7225 0.8958
vt 0.7487 0.8958
vt 0.7487 0.9219
vt 0.7120 0.4635
vt 0.7853 0.0937
vt 0.8115 0.0937
vt 0.8115 0.1458
vt 0.7853 0.1458
vt 0.9424 0.9531
vt 0.9424 0.9271
vt 0.9686 0.9271
vt 0.9686 0.9531
vt 0.5864 0.2240
vt 0.5602 0.2240
vt 0.5602 0.1979
vt 0.5864 0.1979
vt 0.9581 0.5521
vt 0.9319 0.5521
vt 0.9319 0.5260
vt 0.9581 0.5260
vt 0.9686 0.5781
vt 0.9686 0.6042
vt 0.9424 0.6042
vt 0.9424 0.5781
vt 0.9424 0.6146
vt 0.9686 0.6146
vt 0.9686 0.6406
vt 0.9424 0.6406
vt 0.3403 0.8646
vt 0.3403 0.8125
vt 0.3665 0.8125
vt 0.3665 0.8646
vt 0.9424 0.3333
vt 0.4084 0.5469
vt 0.9319 0.6146
vt 0.9319 0.6406
vt 0.9058 0.6406
vt 0.9058 0.6146
vt 0.6230 0.7344
vt 0.6859 0.4635
vt 0.8482 0.0833
vt 0.8220 0.0833
vt 0.8220 0.0052
vt 0.8482 0.0052
vt 0.1571 0.6771
vt 0.1309 0.6771
vt 0.7120 0.5781
vt 0.8848 0.5417
vt 0.1047 0.9896
vt 0.0785 0.9896
vt 0.0785 0.9635
vt 0.1047 0.9635
vt 0.4712 0.1979
vt 0.2199 0.8021
vt 0.2199 0.8542
vt 0.1937 0.8021
vt 0.9424 0.4479
vt 0.9424 0.4219
vt 0.9686 0.4219
vt 0.9686 0.4479
vt 0.0576 0.6771
vt 0.0052 0.6771
vt 0.0052 0.5469
vt 0.4974 0.2500
vt 0.1937 0.8542
vt 0.8586 0.1563
vt 0.8848 0.1563
vt 0.8848 0.2083
vt 0.8586 0.2083
vt 0.8220 0.8333
vt 0.7958 0.8333
vt 0.7958 0.7552
vt 0.8220 0.7552
vt 0.1571 0.5469
vt 0.8848 0.0052
vt 0.8848 0.0573
vt 0.8586 0.0573
vt 0.8586 0.0052
vt 0.4712 0.7865
vt 0.4974 0.7344
vt 0.4974 0.8125
vt 0.4712 0.7966
vt 0.5864 0.0052
vt 0.2565 0.7917
vt 0.2464 0.7917
vt 0.2304 0.7917
vt 0.0052 0.7135
vt 0.4712 0.8125
vt 0.9686 0.8229
vt 0.9424 0.8229
vt 0.9948 0.0052
vt 0.9948 0.0312
vt 0.9686 0.0312
vt 0.9686 0.0052
vt 0.3717 0.1094
vt 0.1780 0.8646
vt 0.1518 0.9167
vt 0.1518 0.8646
vt 0.9058 0.7500
vt 0.9058 0.7240
vt 0.9319 0.7240
vt 0.9319 0.7500
vt 0.9948 0.1406
vt 0.8325 0.9062
vt 0.8586 0.9062
vt 0.8586 0.9323
vt 0.8325 0.9323
vt 0.5969 0.9687
vt 0.4084 0.1354
vt 0.4346 0.0833
vt 0.4084 0.1875
vt 0.4450 0.9375
vt 0.4188 0.9375
vt 0.4188 0.9115
vt 0.4450 0.9115
vt 0.8953 0.2708
vt 0.9581 0.1510
vt 0.7853 0.8854
vt 0.8691 0.5781
vt 0.1414 0.8542
vt 0.1675 0.8542
vt 0.2618 0.3802
vt 0.8586 0.5940
vt 0.8586 0.6042
vt 0.8220 0.5156
vt 0.8220 0.5055
vt 0.8220 0.4896
vt 0.1414 0.8021
vt 0.3121 0.0312
vt 0.3194 0.0312
vt 0.8586 0.5781
vt 0.9319 0.7135
vt 0.9319 0.6875
vt 0.9058 0.8229
vt 0.3298 0.7789
vt 0.3037 0.7862
vt 0.3037 0.7760
vt 0.3298 0.8021
vt 0.3037 0.8021
vt 0.9686 0.7240
vt 0.9686 0.7500
vt 0.2199 0.5990
vt 0.1937 0.6250
vt 0.7693 0.7344
vt 0.7592 0.7344
vt 0.7592 0.6617
vt 0.7693 0.6409
vt 0.5602 0.8229
vt 0.5340 0.7708
vt 0.7853 0.7344
vt 0.7853 0.6409
vt 0.6702 0.9948
vt 0.6440 0.9948
vt 0.0681 0.6875
vt 0.1204 0.7034
vt 0.1204 0.7135
vt 0.1204 0.6875
vt 0.2670 0.0052
vt 0.2723 0.5729
vt 0.2723 0.5990
vt 0.4450 0.8490
vt 0.4450 0.9010
vt 0.6440 0.9323
vt 0.6702 0.9323
vt 0.6702 0.9583
vt 0.6440 0.9583
vt 0.1780 0.9167
vt 0.5707 0.9583
vt 0.5707 0.9323
vt 0.5969 0.9323
vt 0.5969 0.9583
vt 0.9058 0.4479
vt 0.9058 0.4219
vt 0.9319 0.4219
vt 0.9319 0.4479
vt 0.4974 0.8750
vt 0.4712 0.8750
vt 0.4712 0.8229
vt 0.4974 0.8229
vt 0.3037 0.8125
vt 0.3298 0.8125
vt 0.3298 0.8646
vt 0.3037 0.8646
vt 0.3037 0.7240
vt 0.3298 0.7240
vt 0.4712 0.7344
vt 0.0052 0.9896
vt 0.0052 0.9635
vt 0.0314 0.9635
vt 0.0314 0.9896
vt 0.5340 0.8229
vt 0.1204 0.7656
vt 0.5340 0.9948
vt 0.5340 0.9687
vt 0.5602 0.9687
vt 0.5602 0.9948
vt 0.4188 0.9740
vt 0.4188 0.9479
vt 0.4450 0.9479
vt 0.4450 0.9740
vt 0.0681 0.7656
vt 0.7958 0.5781
vt 0.9686 0.0417
vt 0.9686 0.8594
vt 0.8953 0.2969
vt 0.3822 0.9010
vt 0.4084 0.8490
vt 0.4084 0.9010
vt 0.1414 0.9635
vt 0.1414 0.9896
vt 0.1152 0.9896
vt 0.1152 0.9635
vt 0.4712 0.9219
vt 0.4974 0.9219
vt 0.4974 0.9479
vt 0.4712 0.9479
vt 0.9686 0.2500
vt 0.1099 0.1094
vt 0.2199 0.9271
vt 0.6492 0.5677
vt 0.6492 0.4896
vt 0.4607 0.0833
vt 0.7958 0.9323
vt 0.7958 0.9062
vt 0.8220 0.9062
vt 0.8220 0.9323
vt 0.1099 0.1354
vt 0.9319 0.1875
vt 0.7225 0.7448
vt 0.3822 0.8490
vt 0.8482 0.1458
vt 0.5340 0.9219
vt 0.5340 0.8958
vt 0.5602 0.8958
vt 0.5602 0.9219
vt 0.1361 0.1094
vt 0.2932 0.6354
vt 0.2830 0.6354
vt 0.6230 0.4896
vt 0.2670 0.6354
vt 0.7749 0.0052
vt 0.3822 0.6719
vt 0.4346 0.6878
vt 0.4346 0.6979
vt 0.9948 0.1510
vt 0.9948 0.1771
vt 0.9686 0.1771
vt 0.9686 0.1670
vt 0.4346 0.6719
vt 0.7592 0.5781
vt 0.7693 0.5781
vt 0.9686 0.1510
vt 0.2199 0.6250
vt 0.5969 0.7969
vt 0.6230 0.7448
vt 0.6230 0.8229
vt 0.5969 0.8070
vt 0.7853 0.5781
vt 0.9948 0.5156
vt 0.9686 0.5156
vt 0.9686 0.4896
vt 0.9948 0.5055
vt 0.5969 0.8229
vt 0.1099 0.0052
vt 0.8586 0.8958
vt 0.9948 0.4896
vt 0.8220 0.1719
vt 0.0870 0.7992
vt 0.0942 0.7920
vt 0.0942 0.8021
vt 0.8586 0.7711
vt 0.8586 0.7812
vt 0.7853 0.9323
vt 0.0681 0.7760
vt 0.0942 0.7760
vt 0.8586 0.7552
vt 0.3298 0.9375
vt 0.3298 0.9635
vt 0.3037 0.9534
vt 0.3037 0.9375
vt 0.3037 0.9635
vt 0.9424 0.7135
vt 0.9424 0.6875
vt 0.8953 0.9531
vt 0.8691 0.9531
vt 0.8691 0.9271
vt 0.8953 0.9271
vt 0.3822 0.7500
vt 0.4346 0.7500
vt 0.1623 0.0833
vt 0.6335 0.9323
vt 0.6335 0.9583
vt 0.6073 0.9583
vt 0.6073 0.9323
vt 0.0154 0.9167
vt 0.0052 0.8646
vt 0.0314 0.8646
vt 0.0314 0.9167
vt 0.0052 0.9167
vt 0.8953 0.1458
vt 0.0314 0.0573
vt 0.8220 0.2500
vt 0.5969 0.7448
vt 0.0942 0.8209
vt 0.0942 0.8542
vt 0.0681 0.8542
vt 0.8953 0.8177
vt 0.8691 0.8177
vt 0.8793 0.7656
vt 0.8953 0.7656
vt 0.8691 0.7656
vt 0.5340 0.4792
vt 0.5340 0.4271
vt 0.5602 0.4531
vt 0.5602 0.4792
vt 0.0576 0.0312
vt 0.9058 0.9167
vt 0.9058 0.8906
vt 0.9319 0.8906
vt 0.9319 0.9167
vt 0.6230 0.0052
vt 0.6492 0.0052
vt 0.4084 0.0052
vt 0.4346 0.0052
vt 0.5864 0.4531
vt 0.5864 0.4896
vt 0.4346 0.5573
vt 0.2565 0.9531
vt 0.2304 0.9531
vt 0.2304 0.9271
vt 0.2565 0.9271
vt 0.6859 0.0833
vt 0.9424 0.7865
vt 0.9424 0.7604
vt 0.9686 0.7604
vt 0.9686 0.7865
vt 0.5675 0.1646
vt 0.5864 0.1458
vt 0.9686 0.3698
vt 0.9686 0.3958
vt 0.9424 0.3958
vt 0.9424 0.3698
vt 0.9319 0.7865
vt 0.9058 0.7865
vt 0.9058 0.7604
vt 0.9319 0.7604
vt 0.9686 0.6771
vt 0.9424 0.6771
vt 0.9424 0.6510
vt 0.9686 0.6510
vt 0.6335 0.9219
vt 0.6073 0.9219
vt 0.6073 0.8958
vt 0.6335 0.8958
vt 0.7225 0.9323
vt 0.3822 0.7604
vt 0.4084 0.7604
vt 0.4084 0.8385
vt 0.3822 0.8385
vt 0.4974 0.0052
vt 0.5236 0.0052
vt 0.9058 0.5781
vt 0.9319 0.5781
vt 0.9319 0.6042
vt 0.9058 0.6042
vt 0.0942 0.6771
vt 0.1204 0.6771
vt 0.7120 0.1094
vt 0.4974 0.9844
vt 0.4712 0.9844
vt 0.4712 0.9583
vt 0.4974 0.9583
vt 0.4712 0.4688
vt 0.6230 0.6198
vt 0.5969 0.6198
vt 0.0576 0.5469
vt 0.5236 0.4167
vt 0.9424 0.9167
vt 0.9424 0.8906
vt 0.9686 0.8906
vt 0.9686 0.9167
vt 0.8953 0.4219
vt 0.3665 0.9375
vt 0.3665 0.9635
vt 0.3403 0.9635
vt 0.3403 0.9375
vt 0.4188 0.7604
vt 0.4450 0.7604
vt 0.4450 0.8385
vt 0.4188 0.8385
vt 0.6126 0.1979
vt 0.6126 0.1458
vt 0.5340 0.1979
vt 0.5602 0.8854
vt 0.5340 0.1458
vt 0.7225 0.8854
vt 0.4084 0.3906
vt 0.3822 0.2760
vn 0.0000 0.0000 -1.0000
vn -1.0000 -0.0000 0.0000
vn 0.0000 1.0000 0.0000
vn 1.0000 0.0000 0.0000
vn 0.0000 0.0000 1.0000
usemtl palette.050
s off
f 1/1/1 2/2/1 3/3/1
f 4/4/2 1/5/2 3/6/2
f 5/7/1 6/8/1 7/9/1
f 8/10/3 9/11/3 10/12/3
f 11/13/3 12/14/3 13/15/3
f 14/16/4 15/17/4 16/18/4
f 11/19/4 17/20/4 18/21/4
f 19/22/3 5/23/3 20/24/3
f 21/25/2 22/26/2 23/27/2
f 14/28/3 24/29/3 25/30/3
f 26/31/1 27/32/1 21/33/1
f 28/34/2 29/35/2 30/36/2
f 31/37/3 29/38/3 32/39/3
f 33/40/1 34/41/1 35/42/1
f 36/43/1 33/40/1 35/42/1
f 34/44/3 37/45/3 35/46/3
f 38/47/2 39/48/2 33/49/2
f 39/50/1 40/51/1 33/40/1
f 8/52/4 41/53/4 32/54/4
f 34/44/3 42/55/3 37/45/3
f 43/56/2 44/57/2 45/58/2
f 46/59/1 43/60/1 47/61/1
f 43/62/3 45/63/3 47/64/3
f 48/65/1 49/66/1 50/67/1
f 49/66/1 51/68/1 52/69/1
f 49/70/2 53/71/2 54/72/2
f 53/73/1 38/74/1 54/75/1
f 55/76/2 48/77/2 56/78/2
f 9/79/1 28/80/1 57/81/1
f 45/63/3 37/45/3 11/13/3
f 26/31/1 58/82/1 27/32/1
f 59/83/2 39/48/2 38/47/2
f 60/84/3 35/46/3 45/63/3
f 61/85/2 62/86/2 63/87/2
f 64/88/5 20/89/5 65/90/5
f 66/91/2 67/92/2 65/93/2
f 67/92/2 64/94/2 65/93/2
f 68/95/3 69/96/3 66/97/3
f 70/98/3 64/99/3 67/100/3
f 64/101/1 70/102/1 65/103/1
f 71/104/3 72/105/3 68/95/3
f 73/106/2 62/86/2 74/107/2
f 75/108/2 76/109/2 77/110/2
f 74/111/1 78/112/1 73/113/1
f 79/114/3 80/115/3 81/116/3
f 80/117/5 67/118/5 74/119/5
f 76/109/2 82/120/2 77/110/2
f 82/121/1 83/122/1 77/123/1
f 84/124/3 78/125/3 75/126/3
f 85/127/2 81/128/2 62/86/2
f 86/129/5 87/130/5 88/131/5
f 89/132/5 71/133/5 90/134/5
f 91/135/3 71/104/3 68/95/3
f 91/136/2 92/137/2 90/138/2
f 93/139/2 94/140/2 95/141/2
f 93/139/2 96/142/2 94/140/2
f 97/143/5 98/144/5 99/145/5
f 100/146/5 98/144/5 97/143/5
f 101/147/5 102/148/5 103/149/5
f 104/150/3 105/151/3 106/152/3
f 106/153/2 105/154/2 107/155/2
f 100/146/5 97/143/5 108/156/5
f 109/157/5 110/158/5 104/159/5
f 111/160/5 112/161/5 113/162/5
f 114/163/5 93/164/5 115/165/5
f 110/166/2 97/167/2 99/168/2
f 116/169/2 117/170/2 118/171/2
f 119/172/3 120/173/3 121/174/3
f 71/104/3 122/175/3 72/105/3
f 83/122/1 120/176/1 84/177/1
f 120/173/3 78/125/3 84/124/3
f 123/178/2 67/92/2 66/91/2
f 63/87/2 62/86/2 73/106/2
f 124/179/2 76/109/2 75/108/2
f 125/180/2 87/181/2 121/182/2
f 126/183/2 67/92/2 123/178/2
f 80/184/3 70/98/3 67/100/3
f 91/135/3 68/95/3 120/173/3
f 102/185/3 91/135/3 120/173/3
f 120/173/3 68/95/3 78/125/3
f 127/186/1 128/187/1 129/188/1
f 128/187/1 130/189/1 129/188/1
f 131/190/5 132/191/5 133/192/5
f 134/193/1 135/194/1 51/68/1
f 135/195/2 136/196/2 59/197/2
f 137/198/2 138/199/2 136/196/2
f 130/200/2 139/201/2 140/202/2
f 141/203/1 142/204/1 55/205/1
f 143/206/5 131/190/5 133/192/5
f 144/207/2 138/199/2 137/198/2
f 144/207/2 137/198/2 135/195/2
f 145/208/2 146/209/2 147/210/2
f 146/211/1 148/212/1 147/213/1
f 139/201/2 149/214/2 140/202/2
f 144/207/2 147/215/2 138/199/2
f 150/216/3 133/217/3 151/218/3
f 152/219/2 153/220/2 150/221/2
f 154/222/5 152/223/5 100/146/5
f 133/224/2 150/221/2 153/220/2
f 155/225/2 156/226/2 157/227/2
f 158/228/5 150/229/5 114/163/5
f 109/230/2 155/225/2 108/231/2
f 159/232/2 160/233/2 161/234/2
f 160/235/5 159/236/5 162/237/5
f 156/226/2 163/238/2 159/239/2
f 156/226/2 159/239/2 157/227/2
f 164/240/3 165/241/3 31/37/3
f 164/242/1 166/243/1 167/244/1
f 168/245/4 40/246/4 169/247/4
f 170/248/3 42/55/3 34/44/3
f 171/249/2 164/250/2 167/251/2
f 172/252/1 173/253/1 168/254/1
f 174/255/1 175/256/1 176/257/1
f 176/258/4 172/259/4 177/260/4
f 175/261/4 178/262/4 173/263/4
f 179/264/1 180/265/1 181/266/1
f 182/267/4 183/268/4 179/269/4
f 184/270/3 180/271/3 183/272/3
f 182/273/1 185/274/1 183/275/1
f 175/256/1 186/276/1 182/277/1
f 186/278/3 174/279/3 187/280/3
f 174/255/1 186/276/1 175/256/1
f 188/281/4 182/282/4 186/283/4
f 189/284/1 190/285/1 188/286/1
f 186/283/4 189/287/4 188/281/4
f 189/288/3 186/278/3 187/280/3
f 175/256/1 182/277/1 191/289/1
f 192/290/4 193/291/4 166/292/4
f 194/293/1 195/294/1 192/295/1
f 196/296/4 197/297/4 198/298/4
f 199/299/3 200/300/3 201/301/3
f 202/302/5 203/303/5 204/304/5
f 201/305/2 200/306/2 202/307/2
f 200/308/1 199/309/1 202/310/1
f 203/311/2 205/312/2 206/313/2
f 200/314/3 207/315/3 208/316/3
f 207/317/1 209/318/1 194/293/1
f 210/319/4 211/320/4 212/321/4
f 198/322/3 213/323/3 214/324/3
f 213/325/1 198/326/1 215/327/1
f 213/328/3 199/299/3 201/301/3
f 213/329/5 201/330/5 215/331/5
f 216/332/3 211/333/3 217/334/3
f 216/332/3 218/335/3 211/333/3
f 166/243/1 193/336/1 219/337/1
f 203/338/3 206/339/3 170/248/3
f 220/340/5 171/341/5 205/342/5
f 218/335/3 203/338/3 184/270/3
f 221/343/3 211/333/3 184/270/3
f 172/344/4 168/245/4 169/247/4
f 203/338/3 34/44/3 180/271/3
f 180/271/3 34/44/3 181/345/3
f 218/346/2 201/305/2 222/347/2
f 223/348/5 113/162/5 103/149/5
f 223/349/4 224/350/4 225/351/4
f 223/352/3 226/353/3 113/354/3
f 227/355/5 228/356/5 229/357/5
f 230/358/5 231/359/5 232/360/5
f 233/361/5 224/362/5 234/363/5
f 235/364/4 236/365/4 237/366/4
f 238/367/4 239/368/4 240/369/4
f 241/370/5 237/371/5 238/372/5
f 237/371/5 236/373/5 238/372/5
f 242/374/5 226/375/5 225/376/5
f 233/377/4 231/378/4 243/379/4
f 242/380/4 244/381/4 227/382/4
f 86/383/3 245/384/3 116/385/3
f 246/386/3 247/387/3 103/388/3
f 86/389/4 248/390/4 249/391/4
f 86/389/4 249/391/4 250/392/4
f 248/393/3 246/386/3 119/172/3
f 251/394/3 252/395/3 250/396/3
f 253/397/4 254/398/4 255/399/4
f 256/400/5 257/401/5 258/402/5
f 259/403/3 232/404/3 247/387/3
f 196/405/3 214/324/3 260/406/3
f 256/407/4 261/408/4 262/409/4
f 256/407/4 262/409/4 260/410/4
f 216/332/3 217/334/3 259/403/3
f 263/411/4 264/412/4 265/413/4
f 247/414/1 265/415/1 264/416/1
f 251/417/4 266/418/4 267/419/4
f 268/420/3 269/421/3 267/422/3
f 256/407/4 270/423/4 261/408/4
f 86/389/4 271/424/4 248/390/4
f 253/397/4 255/399/4 272/425/4
f 268/426/4 273/427/4 263/411/4
f 258/428/4 270/423/4 256/407/4
f 256/429/3 274/430/3 275/431/3
f 276/432/4 172/259/4 277/433/4
f 278/434/3 279/435/3 280/436/3
f 281/437/5 282/438/5 283/439/5
f 284/440/3 278/434/3 280/436/3
f 285/441/1 284/442/1 280/443/1
f 279/444/1 189/284/1 187/445/1
f 286/446/5 287/447/5 288/448/5
f 289/449/1 285/441/1 280/443/1
f 290/450/4 177/260/4 276/432/4
f 291/451/3 292/452/3 293/453/3
f 292/454/1 289/455/1 294/456/1
f 289/457/4 295/458/4 296/459/4
f 297/460/4 298/461/4 299/462/4
f 298/461/4 282/463/4 299/462/4
f 241/464/3 282/465/3 298/466/3
f 298/467/5 300/468/5 237/371/5
f 301/469/4 299/462/4 287/470/4
f 302/471/4 303/472/4 162/473/4
f 165/474/1 304/475/1 30/476/1
f 246/386/3 103/388/3 102/185/3
f 305/477/1 172/478/1 59/479/1
f 284/480/4 190/481/4 278/482/4
f 154/222/5 100/146/5 108/156/5
f 306/483/4 229/484/4 307/485/4
f 153/220/2 143/486/2 133/224/2
f 161/234/2 160/233/2 308/487/2
f 299/462/4 282/463/4 287/470/4
f 12/488/4 15/17/4 14/16/4 13/489/4
f 12/490/1 309/491/1 24/492/1 15/493/1
f 9/494/2 57/495/2 17/496/2 18/497/2
f 14/28/3 16/498/3 24/29/3
f 17/499/5 37/500/5 8/501/5 18/502/5
f 18/21/4 10/503/4 310/504/4 11/19/4
f 1/1/1 18/505/1 17/506/1
f 11/507/5 15/508/5 12/509/5
f 18/497/2 10/510/2 9/494/2
f 8/501/5 10/511/5 18/502/5
f 24/492/1 16/512/1 15/493/1
f 12/513/2 15/514/2 1/5/2
f 11/13/3 37/45/3 17/515/3
f 15/514/2 16/516/2 1/5/2
f 1/517/3 16/518/3 310/519/3 10/520/3
f 15/508/5 11/507/5 310/521/5 16/522/5
f 1/1/1 10/523/1 18/505/1
f 311/524/4 312/525/4 313/526/4 69/527/4
f 312/525/4 25/528/4 19/529/4 313/526/4
f 5/7/1 312/530/1 311/531/1
f 19/22/3 25/532/3 5/23/3
f 24/533/2 309/534/2 312/535/2 25/536/2
f 5/7/1 25/537/1 312/530/1
f 311/538/2 312/535/2 309/534/2
f 21/25/2 23/27/2 72/539/2 314/540/2
f 7/541/2 20/542/2 5/543/2
f 13/15/3 23/544/3 47/64/3
f 311/545/3 69/96/3 23/544/3 13/15/3
f 311/546/5 13/547/5 14/548/5 312/549/5
f 26/550/2 21/25/2 314/540/2 315/551/2
f 14/548/5 25/552/5 312/549/5
f 72/105/3 23/544/3 69/96/3
f 95/553/5 315/554/5 314/555/5
f 316/556/5 42/557/5 317/558/5 41/559/5
f 316/560/2 41/561/2 29/35/2
f 41/559/5 317/558/5 31/562/5 32/563/5
f 9/79/1 41/564/1 316/565/1
f 41/561/2 32/566/2 29/35/2
f 316/567/4 41/53/4 8/52/4 37/568/4
f 9/79/1 32/569/1 41/564/1
f 45/63/3 35/46/3 37/45/3
f 29/570/1 165/474/1 30/476/1
f 39/50/1 169/571/1 40/51/1
f 46/572/3 318/573/3 56/574/3 50/575/3
f 37/45/3 42/55/3 316/576/3
f 8/10/3 32/577/3 9/11/3
f 60/578/1 45/579/1 44/580/1 54/581/1
f 46/582/2 47/583/2 319/584/2 318/585/2
f 44/586/3 50/587/3 320/588/3 54/589/3
f 321/590/2 318/591/2 58/592/2 129/593/2
f 43/56/2 50/594/2 44/57/2
f 46/59/1 50/595/1 43/60/1
f 56/78/2 48/77/2 50/596/2
f 50/67/1 49/66/1 320/597/1
f 142/598/3 51/599/3 48/600/3
f 48/65/1 51/68/1 49/66/1
f 27/601/2 58/592/2 318/591/2
f 96/142/2 129/593/2 58/592/2 94/140/2
f 321/602/1 55/205/1 318/603/1
f 53/604/3 49/605/3 52/606/3 59/607/3
f 53/73/1 59/608/1 38/74/1
f 22/609/3 21/610/3 27/611/3 318/612/3
f 320/613/2 49/70/2 54/72/2
f 318/603/1 55/205/1 56/614/1
f 55/615/3 142/598/3 48/600/3
f 319/616/1 23/617/1 22/618/1 318/619/1
f 26/620/3 315/621/3 94/622/3 58/623/3
f 94/624/5 315/554/5 95/553/5
f 36/625/3 54/626/3 38/627/3 33/628/3
f 319/629/3 47/64/3 23/544/3
f 2/630/2 17/496/2 57/495/2
f 309/491/1 12/490/1 4/631/1
f 4/4/2 12/513/2 1/5/2
f 1/1/1 17/506/1 2/2/1
f 28/34/2 316/560/2 29/35/2
f 9/79/1 316/565/1 28/80/1
f 5/7/1 311/531/1 6/8/1
f 6/632/2 311/538/2 309/534/2
f 47/64/3 11/13/3 13/15/3
f 36/633/2 35/634/2 60/635/2 54/636/2
f 39/637/3 59/638/3 172/639/3 169/640/3
f 69/527/4 313/526/4 65/641/4 66/642/4
f 47/64/3 45/63/3 11/13/3
f 322/643/2 20/542/2 7/541/2
f 123/644/5 20/89/5 322/645/5
f 63/646/5 67/118/5 126/647/5
f 323/648/2 76/109/2 124/179/2
f 313/526/4 19/529/4 64/649/4 65/641/4
f 66/650/5 65/90/5 20/89/5
f 64/651/3 19/22/3 20/24/3
f 68/652/1 66/653/1 65/103/1 70/102/1
f 72/539/2 324/654/2 314/540/2
f 84/177/1 75/655/1 77/123/1 83/122/1
f 68/95/3 72/105/3 69/96/3
f 73/656/5 74/119/5 67/118/5
f 80/657/2 74/107/2 62/86/2 81/128/2
f 76/658/3 83/659/3 82/660/3
f 75/661/5 77/662/5 85/663/5
f 78/664/4 79/665/4 82/666/4 77/667/4
f 77/667/4 75/668/4 78/664/4
f 78/112/1 74/111/1 80/669/1 79/670/1
f 82/671/3 79/114/3 81/116/3
f 85/663/5 77/662/5 82/672/5 81/673/5
f 93/674/3 89/675/3 325/676/3 115/677/3
f 86/129/5 116/678/5 87/130/5
f 93/679/2 122/680/2 71/681/2 89/682/2
f 91/683/5 107/684/5 105/685/5 92/686/5
f 325/687/5 89/132/5 90/134/5
f 114/688/3 98/689/3 100/690/3 158/691/3
f 109/692/3 112/693/3 111/694/3 306/695/3
f 115/696/2 98/697/2 114/698/2
f 101/699/3 104/150/3 106/152/3
f 101/147/5 106/700/5 102/148/5
f 102/701/2 106/153/2 107/155/2
f 104/702/2 112/703/2 109/704/2
f 325/705/3 92/706/3 105/707/3 99/708/3
f 102/185/3 107/709/3 91/135/3
f 325/710/2 98/697/2 115/696/2
f 99/145/5 98/144/5 325/711/5
f 104/159/5 110/158/5 105/712/5
f 101/713/2 112/703/2 104/702/2
f 113/162/5 112/161/5 101/147/5
f 97/714/3 110/715/3 109/716/3 108/717/3
f 90/138/2 92/137/2 325/718/2
f 91/135/3 90/719/3 71/104/3
f 105/720/2 110/166/2 99/168/2
f 116/169/2 118/171/2 121/182/2 87/181/2
f 119/721/1 121/722/1 118/723/1 326/724/1
f 326/724/1 118/723/1 117/725/1 245/726/1
f 116/385/3 245/384/3 117/727/3
f 121/728/5 118/729/5 323/730/5
f 323/730/5 118/729/5 117/731/5 76/732/5
f 120/733/4 83/734/4 118/735/4 121/736/4
f 314/737/3 324/738/3 93/739/3 95/740/3
f 117/741/4 118/735/4 83/734/4
f 117/742/3 83/659/3 76/658/3
f 119/172/3 102/185/3 120/173/3
f 119/172/3 246/386/3 102/185/3
f 72/743/5 122/744/5 93/745/5 324/746/5
f 85/663/5 61/747/5 124/748/5 75/661/5
f 123/644/5 66/650/5 20/89/5
f 63/646/5 73/656/5 67/118/5
f 61/85/2 85/127/2 62/86/2
f 68/749/4 70/750/4 74/751/4 73/752/4
f 125/753/5 121/728/5 323/730/5
f 127/754/2 129/593/2 96/142/2 132/755/2
f 80/756/4 74/751/4 70/750/4
f 73/757/3 78/125/3 68/95/3
f 127/758/3 132/759/3 327/760/3 128/761/3
f 133/192/5 132/191/5 96/762/5
f 130/763/3 141/764/3 321/765/3
f 321/602/1 141/203/1 55/205/1
f 129/766/3 130/763/3 321/765/3
f 134/767/2 51/768/2 142/769/2 141/770/2
f 131/190/5 327/771/5 132/191/5
f 134/772/3 140/773/3 144/774/3 135/775/3
f 141/770/2 140/202/2 134/767/2
f 305/776/3 138/777/3 276/778/3 277/779/3
f 59/197/2 136/196/2 305/780/2
f 130/200/2 140/202/2 141/770/2
f 136/196/2 138/199/2 305/780/2
f 328/781/3 329/782/3 143/783/3 139/784/3
f 128/187/1 139/785/1 130/189/1
f 136/196/2 135/195/2 137/198/2
f 330/786/3 147/787/3 148/788/3 331/789/3
f 149/790/3 139/791/3 145/792/3 147/793/3
f 332/794/3 333/795/3 308/796/3 334/797/3
f 332/798/2 139/799/2 143/800/2 333/801/2
f 145/802/1 139/803/1 332/804/1 334/805/1
f 143/806/5 161/807/5 308/808/5 333/809/5
f 276/810/1 138/811/1 330/812/1 331/813/1
f 145/208/2 334/814/2 146/209/2
f 138/199/2 147/215/2 330/815/2
f 328/816/2 128/817/2 327/818/2 329/819/2
f 329/820/5 327/771/5 131/190/5 143/206/5
f 328/821/1 139/785/1 128/187/1
f 144/822/1 140/823/1 149/824/1 147/825/1
f 150/221/2 158/826/2 100/827/2 152/219/2
f 150/229/5 151/828/5 114/163/5
f 151/218/3 133/217/3 96/829/3
f 153/830/3 152/831/3 154/832/3 157/833/3
f 156/226/2 155/225/2 109/230/2 335/834/2
f 335/835/3 336/836/3 156/837/3
f 143/838/3 337/839/3 159/840/3 161/841/3
f 336/842/5 335/843/5 109/844/5
f 157/227/2 154/845/2 155/225/2
f 336/836/3 303/846/3 156/837/3
f 154/845/2 108/231/2 155/225/2
f 159/847/3 163/848/3 302/849/3 162/850/3
f 153/851/5 157/852/5 159/853/5 337/854/5
f 153/220/2 337/855/2 143/486/2
f 156/856/5 303/857/5 302/858/5 163/859/5
f 338/860/4 304/861/4 165/862/4 167/863/4
f 31/37/3 165/241/3 29/38/3
f 40/51/1 339/864/1 34/41/1
f 42/557/5 338/865/5 167/866/5 317/558/5
f 317/558/5 167/866/5 164/867/5 31/562/5
f 338/868/1 167/244/1 166/243/1
f 164/869/4 167/863/4 165/862/4
f 167/251/2 338/870/2 170/871/2 171/249/2
f 34/44/3 203/338/3 170/248/3
f 172/872/3 176/873/3 175/874/3 173/875/3
f 170/248/3 338/876/3 42/55/3
f 171/877/3 166/878/3 164/879/3
f 182/880/3 188/881/3 190/882/3 185/883/3
f 184/270/3 203/338/3 180/271/3
f 183/275/1 185/274/1 184/884/1
f 184/885/4 185/886/4 190/887/4 221/888/4
f 179/269/4 183/268/4 180/889/4
f 340/890/4 284/480/4 283/891/4 240/369/4
f 340/890/4 341/892/4 190/481/4
f 284/480/4 340/890/4 190/481/4
f 178/893/3 191/894/3 182/895/3 179/896/3
f 202/307/2 204/897/2 222/347/2 201/305/2
f 178/898/1 179/264/1 181/266/1
f 168/254/1 173/253/1 178/899/1
f 175/261/4 191/900/4 178/262/4
f 342/901/1 199/309/1 343/902/1
f 196/296/4 344/903/4 197/297/4
f 166/292/4 205/904/4 206/905/4
f 206/906/1 205/907/1 194/293/1
f 194/293/1 205/907/1 220/908/1 207/317/1
f 204/909/1 202/310/1 199/309/1
f 222/910/3 204/911/3 203/338/3
f 220/912/4 205/904/4 166/292/4
f 220/913/2 205/312/2 203/311/2 208/914/2
f 208/316/3 207/315/3 220/915/3
f 209/916/4 202/917/4 204/918/4
f 209/916/4 207/919/4 200/920/4 202/917/4
f 203/303/5 202/302/5 200/921/5 208/922/5
f 211/320/4 210/319/4 345/923/4 217/924/4
f 215/925/2 346/926/2 216/927/2 347/928/2
f 198/326/1 197/929/1 346/930/1 215/327/1
f 213/931/2 215/925/2 347/928/2 214/932/2
f 218/933/5 346/934/5 215/331/5 201/330/5
f 199/935/4 215/936/4 346/937/4
f 213/938/4 215/936/4 199/935/4
f 216/332/3 346/939/3 218/335/3
f 210/319/4 348/940/4 349/941/4 345/923/4
f 170/942/5 206/943/5 205/342/5 171/341/5
f 190/944/3 341/945/3 210/946/3 212/947/3
f 220/948/3 166/878/3 171/877/3
f 211/333/3 218/335/3 184/270/3
f 211/949/1 221/950/1 190/951/1 212/952/1
f 340/953/3 240/954/3 349/955/3 348/956/3
f 210/957/1 341/958/1 340/959/1 348/960/1
f 239/961/5 345/962/5 349/963/5 240/964/5
f 342/965/4 195/966/4 209/916/4 204/918/4
f 304/861/4 338/860/4 219/967/4
f 219/337/1 338/868/1 166/243/1
f 166/292/4 206/905/4 192/290/4
f 192/295/1 206/906/1 194/293/1
f 342/901/1 204/909/1 199/309/1
f 40/968/3 168/969/3 178/970/3 339/971/3
f 194/293/1 209/318/1 195/294/1
f 350/972/1 346/930/1 197/929/1
f 199/935/4 346/937/4 350/973/4
f 34/974/4 339/975/4 178/976/4 181/977/4
f 236/978/3 243/979/3 230/980/3 238/981/3
f 199/935/4 350/973/4 343/982/4
f 218/335/3 222/910/3 203/338/3
f 86/389/4 88/983/4 271/424/4
f 223/349/4 103/984/4 224/350/4
f 223/352/3 225/985/3 226/353/3
f 242/374/5 306/986/5 226/375/5
f 111/987/4 226/988/4 306/989/4
f 351/990/4 238/991/4 230/992/4 232/993/4
f 300/994/3 228/995/3 235/996/3 237/997/3
f 230/358/5 243/998/5 231/359/5
f 247/387/3 232/404/3 234/999/3
f 233/377/4 234/1000/4 231/378/4
f 235/1001/5 227/355/5 243/1002/5
f 240/369/4 283/891/4 241/1003/4 238/367/4
f 235/1001/5 228/356/5 227/355/5
f 229/1004/3 306/1005/3 242/1006/3 227/1007/3
f 103/388/3 234/999/3 224/1008/3
f 233/361/5 225/1009/5 224/362/5
f 235/364/4 243/1010/4 236/365/4
f 111/987/4 113/1011/4 226/988/4
f 242/380/4 225/1012/4 244/381/4
f 244/1013/3 225/1014/3 233/1015/3 243/1016/3
f 234/999/3 232/404/3 231/1017/3
f 248/1018/1 119/721/1 326/724/1 249/1019/1
f 243/1002/5 227/355/5 244/1020/5
f 249/1019/1 326/724/1 245/726/1 250/1021/1
f 86/383/3 250/1022/3 245/384/3
f 251/1023/5 249/1024/5 248/1025/5
f 252/1026/2 246/1027/2 248/1028/2 249/1029/2
f 251/1023/5 250/1030/5 249/1024/5
f 347/928/2 216/927/2 261/1031/2 262/1032/2
f 249/1029/2 250/1033/2 252/1026/2
f 352/1034/4 217/924/4 345/923/4
f 196/405/3 198/322/3 214/324/3
f 261/1035/5 344/1036/5 196/1037/5 262/1038/5
f 214/932/2 347/928/2 262/1032/2 260/1039/2
f 261/1040/1 259/1041/1 274/1042/1 262/1043/1
f 196/1037/5 260/1044/5 262/1038/5
f 261/1045/3 216/332/3 259/403/3
f 272/425/4 266/418/4 251/417/4 253/397/4
f 256/429/3 260/1046/3 274/430/3
f 274/1042/1 260/1047/1 262/1043/1
f 259/403/3 217/334/3 232/404/3
f 265/413/4 275/1048/4 268/426/4 263/411/4
f 353/1049/5 266/1050/5 272/1051/5
f 256/400/5 265/1052/5 264/1053/5
f 268/420/3 275/1054/3 269/421/3
f 266/1050/5 353/1049/5 268/1055/5 267/1056/5
f 256/400/5 275/1057/5 265/1052/5
f 269/1058/2 247/1059/2 266/1060/2 267/1061/2
f 247/1059/2 272/1062/2 266/1060/2
f 265/415/1 247/414/1 269/1063/1 275/1064/1
f 239/1065/3 238/1066/3 352/1067/3 345/1068/3
f 253/1069/5 251/1023/5 271/1070/5
f 232/404/3 217/334/3 351/1071/3
f 351/1072/5 217/1073/5 352/1074/5 238/1075/5
f 266/1076/1 246/1077/1 252/1078/1 267/1079/1
f 246/1077/1 266/1076/1 272/1080/1
f 251/394/3 267/1081/3 252/395/3
f 246/386/3 272/1082/3 247/387/3
f 257/1083/4 264/412/4 263/411/4 273/427/4
f 344/1036/5 261/1035/5 270/1084/5
f 251/1023/5 248/1025/5 271/1070/5
f 255/1085/5 254/1086/5 353/1049/5 272/1051/5
f 256/400/5 264/1053/5 257/401/5
f 254/1086/5 273/1087/5 268/1055/5 353/1049/5
f 274/1088/2 259/1089/2 265/1090/2 275/1091/2
f 247/387/3 234/999/3 103/388/3
f 264/1092/2 265/1090/2 259/1089/2
f 174/1093/4 354/1094/4 279/1095/4 187/1096/4
f 247/387/3 264/1097/3 259/403/3
f 177/1098/3 290/1099/3 295/1100/3 354/1101/3
f 295/458/4 279/1095/4 354/1094/4
f 174/255/1 176/257/1 177/1102/1 354/1103/1
f 284/480/4 355/1104/4 281/1105/4 283/891/4
f 279/1095/4 295/458/4 280/1106/4
f 276/432/4 177/260/4 172/259/4
f 305/477/1 277/1107/1 172/478/1
f 289/457/4 280/1106/4 295/458/4
f 279/444/1 278/1108/1 189/284/1
f 355/1109/3 285/1110/3 288/1111/3 281/1112/3
f 285/441/1 355/1113/1 284/442/1
f 281/437/5 288/448/5 282/438/5
f 148/1114/3 294/1115/3 289/1116/3 296/1117/3
f 288/448/5 287/447/5 282/438/5
f 356/1118/3 293/453/3 357/1119/3
f 148/1120/4 358/1121/4 357/1122/4 294/1123/4
f 293/453/3 292/452/3 357/1119/3
f 289/1124/4 292/1125/4 291/1126/4 287/1127/4
f 359/1128/5 287/1129/5 291/1130/5 293/1131/5
f 289/1132/3 287/1133/3 286/1134/3 360/1135/3
f 294/456/1 357/1136/1 292/454/1
f 295/1137/1 290/1138/1 148/1139/1 296/1140/1
f 331/1141/4 148/1142/4 276/432/4
f 288/1143/4 285/1144/4 360/1145/4 286/1146/4
f 300/1147/4 298/461/4 297/460/4 228/1148/4
f 148/1142/4 290/450/4 276/432/4
f 289/449/1 360/1149/1 285/441/1
f 361/1150/3 307/1151/3 297/1152/3 299/1153/3
f 307/485/4 303/472/4 336/1154/4 306/483/4
f 297/1155/5 307/1156/5 228/356/5
f 306/1157/5 336/842/5 109/844/5
f 303/472/4 307/485/4 361/1158/4
f 359/1159/3 162/1160/3 301/1161/3 287/1162/3
f 241/370/5 298/467/5 237/371/5
f 241/464/3 283/1163/3 282/465/3
f 359/1164/4 293/1165/4 362/1166/4 162/1167/4
f 361/1168/5 299/1169/5 301/1170/5 162/1171/5
f 334/797/3 308/796/3 356/1118/3 357/1119/3
f 162/473/4 303/472/4 361/1158/4
f 33/40/1 40/51/1 34/41/1
f 113/162/5 101/147/5 103/149/5
f 146/1172/3 334/797/3 357/1119/3 358/1173/3
f 308/796/3 160/1174/3 293/453/3 356/1118/3
f 146/211/1 358/1175/1 148/212/1
f 362/1176/3 293/453/3 160/1174/3
f 362/1177/5 160/235/5 162/237/5
f 52/1178/2 135/195/2 59/197/2
f 51/68/1 135/194/1 52/69/1
f 189/284/1 278/1108/1 190/285/1
f 93/139/2 151/1179/2 96/142/2
f 114/163/5 151/828/5 93/164/5
f 228/356/5 307/1156/5 229/357/5
