# Blender v2.78 (sub 0) OBJ File: ''
# www.blender.org
mtllib propCommercial4.mtl
o copy_propCommercial4.001
v -3.000014 2.999991 -5.000000
v -4.000007 -0.000005 -5.000000
v -3.000014 -0.000005 -5.000000
v -3.000014 2.999990 -3.000014
v -3.000014 -0.000007 -3.000014
v -4.000007 -0.000007 -3.000014
v -4.000007 -0.000007 -0.000000
v -4.000007 2.999990 -3.000014
v -4.000007 4.999995 -7.000002
v -4.000007 9.999996 -8.000010
v -4.000007 -0.000005 -8.000014
v -4.000007 4.999993 -1.000008
v -4.000007 5.999989 -4.999998
v -3.000014 5.999989 -4.999998
v -3.000014 5.999989 -7.000002
v -4.000007 4.000000 -1.000008
v -3.000014 5.999988 -3.000012
v -4.000007 5.999988 -3.000012
v -3.000014 5.999987 -1.000008
v -4.000007 5.999987 -1.000008
v -5.000000 4.000000 -1.000008
v -5.000000 4.000002 -7.000002
v -4.000007 2.999991 -5.000000
v -7.000004 -0.000007 1.999987
v -7.000004 2.999989 1.999987
v -7.000004 -0.000007 -0.000000
v -6.000010 2.999989 1.999987
v -6.000010 -0.000007 1.999987
v -7.000004 -0.000009 7.999996
v -7.000004 2.999988 5.999994
v -7.000004 -0.000009 5.999994
v -6.000010 2.999988 5.999994
v -6.000010 -0.000009 5.999994
v -8.000014 3.999998 6.999988
v -8.000014 5.999987 0.999995
v -8.000014 4.000000 0.999995
v -7.000004 3.999998 6.999988
v -7.000004 5.999985 6.999989
v -8.000014 5.999985 6.999989
v -7.000004 12.999990 8.000000
v -3.000014 6.999998 -7.000002
v -4.000007 6.999998 -4.999998
v -4.000007 6.999998 -7.000002
v -4.000007 7.999992 -4.999998
v -4.000007 9.000002 -4.999998
v -4.000007 9.000002 -7.000000
v -3.000014 9.000002 -7.000000
v -4.000007 7.999992 -7.000000
v -3.000014 7.999992 -7.000000
v -3.000014 7.999992 -4.999998
v -4.000007 6.999998 -3.000012
v -4.000007 7.999990 -3.000012
v -3.000014 6.999998 -3.000012
v -3.000014 6.999996 -1.000008
v -4.000007 6.999996 -1.000008
v -4.000007 7.999990 -1.000008
v -4.000007 9.999994 0.000004
v -3.000014 9.000002 -3.000012
v -3.000014 9.000000 -1.000008
v -4.000007 9.000002 -3.000012
v -4.000007 9.000000 -1.000008
v -3.000014 7.999990 -3.000012
v -3.000014 7.999990 -1.000008
v -4.583333 9.729167 0.000004
v -7.000004 12.999990 0.000004
v -7.000004 9.000000 0.999996
v -7.000004 9.999994 0.999997
v -7.000004 10.999986 5.000004
v -7.000004 10.999986 3.000001
v -7.000004 9.999992 3.000001
v -7.000004 7.999990 2.999999
v -7.000004 7.999990 0.999996
v -6.000010 8.999998 3.000000
v -6.000010 9.999992 3.000001
v -6.000010 9.000000 0.999996
v -6.000010 6.999996 2.999999
v -7.000004 6.999996 0.999995
v -7.000004 6.999996 2.999999
v -7.000004 8.999998 3.000000
v -7.000004 7.999988 6.999990
v -7.000004 6.999994 6.999989
v -7.000004 9.999992 6.999990
v -7.000004 10.999986 6.999991
v -7.000004 9.999992 5.000002
v -7.000004 8.999998 6.999990
v -6.000010 6.999994 6.999989
v -6.000010 7.999988 5.000002
v -6.000010 6.999994 5.000002
v -7.000004 11.999996 3.000001
v -7.000004 11.999998 0.999997
v -7.000004 10.999988 0.999997
v -7.000004 11.999996 6.999991
v -7.000004 11.999996 5.000004
v -5.000000 4.999995 -7.000002
v -5.000000 4.999993 -1.000008
v 7.999996 9.999994 0.000004
v 7.999996 12.999990 8.000000
v 7.999996 -0.000005 -8.000014
v 7.999996 9.999996 -8.000010
v 7.999996 12.999990 0.000004
v -7.000004 5.999987 0.999995
v -7.000004 4.000000 0.999995
v -4.000007 4.000002 -7.000002
v -4.000007 5.999989 -7.000002
v -3.000014 9.000002 -4.999998
v -3.000014 6.999998 -4.999998
v -6.000010 6.999996 0.999995
v -6.000010 7.999990 0.999996
v -6.000010 9.999994 0.999997
v -6.000010 7.999990 2.999999
v -6.000010 9.999992 5.000002
v -6.000010 8.999998 5.000002
v -6.000010 8.999998 6.999990
v -6.000010 9.999992 6.999990
v -6.000010 7.999988 6.999990
v -7.000004 7.999988 5.000002
v -7.000004 6.999994 5.000002
v -7.000004 8.999998 5.000002
v -6.000010 10.999988 0.999997
v -6.000010 11.999998 0.999997
v -6.000010 10.999986 3.000001
v -6.000010 11.999996 3.000001
v -6.000010 11.999996 5.000004
v -6.000010 10.999986 5.000004
v -6.000010 10.999986 6.999991
v -6.000010 11.999996 6.999991
v 6.640625 12.999990 6.293407
v 7.999996 -0.000009 7.999996
vt 0.0674 0.8495
vt 0.0415 0.7767
vt 0.0674 0.7767
vt 0.1140 0.8495
vt 0.1140 0.7767
vt 0.1399 0.7767
vt 0.3523 0.9951
vt 0.4301 0.9223
vt 0.4301 0.9951
vt 0.5337 0.8738
vt 0.5596 0.7524
vt 0.5596 0.9951
vt 0.3782 0.8738
vt 0.4819 0.8495
vt 0.6580 0.8592
vt 0.6580 0.9078
vt 0.6321 0.8592
vt 0.9534 0.8058
vt 0.9793 0.8058
vt 0.9534 0.8544
vt 0.3782 0.8981
vt 0.9793 0.3544
vt 0.9534 0.3544
vt 0.9793 0.3058
vt 0.3782 0.8495
vt 0.9534 0.3058
vt 0.3109 0.7136
vt 0.3368 0.7136
vt 0.3368 0.8592
vt 0.9793 0.8544
vt 0.4819 0.9223
vt 0.8549 0.6214
vt 0.8549 0.5485
vt 0.9067 0.6214
vt 0.0311 0.8495
vt 0.0052 0.7767
vt 0.0311 0.7767
vt 0.6995 0.6214
vt 0.7513 0.5485
vt 0.7513 0.6214
vt 0.0777 0.8495
vt 0.0777 0.7767
vt 0.1036 0.7767
vt 0.2228 0.4029
vt 0.2746 0.5485
vt 0.2228 0.5485
vt 0.2850 0.4029
vt 0.3109 0.4029
vt 0.3109 0.5485
vt 0.7254 0.5243
vt 0.3368 0.5583
vt 0.3109 0.7039
vt 0.3109 0.5583
vt 0.6995 0.3058
vt 0.7254 0.4757
vt 0.2228 0.5583
vt 0.3005 0.6553
vt 0.2228 0.6553
vt 0.6321 0.7524
vt 0.6580 0.7524
vt 0.6580 0.8495
vt 0.9171 0.7379
vt 0.9430 0.6893
vt 0.9430 0.7379
vt 0.4819 0.8252
vt 0.4819 0.8010
vt 0.5337 0.8252
vt 0.4819 0.7767
vt 0.5337 0.7767
vt 0.0052 0.9078
vt 0.0311 0.8592
vt 0.0311 0.9078
vt 0.9534 0.6214
vt 0.9534 0.5971
vt 0.9793 0.5971
vt 0.2591 0.8786
vt 0.2850 0.9029
vt 0.2591 0.9029
vt 0.4301 0.8252
vt 0.4301 0.8495
vt 0.4301 0.8010
vt 0.9171 0.5874
vt 0.9171 0.5388
vt 0.9430 0.5874
vt 0.3782 0.8252
vt 0.3782 0.8010
vt 0.3523 0.7524
vt 0.9171 0.6796
vt 0.9171 0.6311
vt 0.9430 0.6796
vt 0.4301 0.7767
vt 0.3782 0.7767
vt 0.9689 0.0291
vt 0.9689 0.0049
vt 0.9948 0.0049
vt 0.1503 0.8350
vt 0.1762 0.8350
vt 0.1503 0.8835
vt 0.1503 0.8932
vt 0.1762 0.9175
vt 0.1503 0.9175
vt 0.9430 0.5388
vt 0.9430 0.6311
vt 0.4371 0.3103
vt 0.4301 0.2961
vt 0.6891 0.3689
vt 0.3523 0.3689
vt 0.8808 0.4029
vt 0.8808 0.3786
vt 0.9067 0.3058
vt 0.7772 0.3544
vt 0.8290 0.3544
vt 0.8290 0.3786
vt 0.8290 0.4272
vt 0.8808 0.4272
vt 0.9171 0.4223
vt 0.9430 0.4223
vt 0.9171 0.4709
vt 0.1399 0.8592
vt 0.1140 0.9078
vt 0.1140 0.8592
vt 0.9430 0.8058
vt 0.9171 0.8544
vt 0.9171 0.8058
vt 0.7254 0.4272
vt 0.7254 0.4515
vt 0.7254 0.3786
vt 0.7254 0.3544
vt 0.7772 0.3786
vt 0.7254 0.4029
vt 0.9534 0.5388
vt 0.9793 0.5874
vt 0.9534 0.5874
vt 0.8290 0.3301
vt 0.8808 0.3301
vt 0.8808 0.3544
vt 0.7254 0.3301
vt 0.8290 0.4029
vt 0.7772 0.3301
vt 0.2487 0.8107
vt 0.2228 0.8107
vt 0.2228 0.6650
vt 0.2487 0.6650
vt 0.2642 0.1990
vt 0.3420 0.3932
vt 0.0052 0.0049
vt 0.2642 0.0049
vt 0.3523 0.0049
vt 0.8290 0.4515
vt 0.8808 0.4757
vt 0.8808 0.5243
vt 0.6218 0.7524
vt 0.6218 0.8252
vt 0.5699 0.8252
vt 0.5699 0.7524
vt 0.4819 0.9951
vt 0.1399 0.8495
vt 0.2591 0.8107
vt 0.2591 0.6650
vt 0.2850 0.6650
vt 0.2850 0.8107
vt 0.5337 0.8981
vt 0.0415 0.8495
vt 0.5337 0.8495
vt 0.6321 0.9078
vt 0.3109 0.8592
vt 0.1399 0.9417
vt 0.1140 0.9417
vt 0.1140 0.9175
vt 0.1399 0.9175
vt 0.6321 0.9175
vt 0.6580 0.9175
vt 0.6580 0.9417
vt 0.6321 0.9417
vt 0.0052 0.8495
vt 0.3005 0.5583
vt 0.1036 0.8495
vt 0.9430 0.4126
vt 0.9171 0.4126
vt 0.9171 0.3641
vt 0.9430 0.3641
vt 0.2850 0.5485
vt 0.9171 0.3058
vt 0.9430 0.3058
vt 0.9430 0.3544
vt 0.9171 0.3544
vt 0.3368 0.7039
vt 0.6321 0.8495
vt 0.3109 0.9175
vt 0.3109 0.8689
vt 0.3368 0.8689
vt 0.3368 0.9175
vt 0.3523 0.7427
vt 0.3523 0.3786
vt 0.6891 0.3786
vt 0.2746 0.4029
vt 0.5337 0.8010
vt 0.1762 0.8252
vt 0.1503 0.8252
vt 0.1503 0.7767
vt 0.1762 0.7767
vt 0.9171 0.6893
vt 0.0052 0.8592
vt 0.9793 0.6214
vt 0.9171 0.9126
vt 0.9171 0.8641
vt 0.9430 0.8641
vt 0.9430 0.9126
vt 0.2850 0.8786
vt 0.9948 0.0291
vt 0.1762 0.8932
vt 0.2591 0.9126
vt 0.2850 0.9126
vt 0.2850 0.9369
vt 0.2591 0.9369
vt 0.1762 0.8835
vt 0.9430 0.4709
vt 0.1399 0.9078
vt 0.1036 0.9417
vt 0.0777 0.9417
vt 0.0777 0.9175
vt 0.1036 0.9175
vt 0.9689 0.1748
vt 0.9948 0.1748
vt 0.9948 0.1990
vt 0.9689 0.1990
vt 0.9948 0.2670
vt 0.9689 0.2670
vt 0.9689 0.2427
vt 0.9948 0.2427
vt 0.9430 0.8544
vt 0.9430 0.5291
vt 0.9171 0.5291
vt 0.9171 0.4806
vt 0.9430 0.4806
vt 0.9430 0.7476
vt 0.9430 0.7961
vt 0.9171 0.7961
vt 0.9171 0.7476
vt 0.0674 0.8592
vt 0.0674 0.9078
vt 0.0415 0.9078
vt 0.0415 0.8592
vt 0.9793 0.4126
vt 0.9534 0.4126
vt 0.9534 0.3641
vt 0.9793 0.3641
vt 0.9793 0.5388
vt 0.9793 0.6311
vt 0.9793 0.6796
vt 0.9534 0.6796
vt 0.9534 0.6311
vt 0.9534 0.7961
vt 0.9534 0.7476
vt 0.9793 0.7476
vt 0.9793 0.7961
vt 0.0052 0.9175
vt 0.0311 0.9175
vt 0.0311 0.9417
vt 0.0052 0.9417
vt 0.0674 0.9417
vt 0.0415 0.9417
vt 0.0415 0.9175
vt 0.0674 0.9175
vt 0.9689 0.2087
vt 0.9948 0.2087
vt 0.9948 0.2330
vt 0.9689 0.2330
vt 0.9793 0.4806
vt 0.9793 0.5291
vt 0.9534 0.5291
vt 0.9534 0.4806
vt 0.9534 0.7379
vt 0.9534 0.6893
vt 0.9793 0.6893
vt 0.9793 0.7379
vt 0.2487 0.9369
vt 0.2228 0.9369
vt 0.2228 0.9126
vt 0.2487 0.9126
vt 0.7772 0.4029
vt 0.7772 0.4272
vt 0.9171 0.5971
vt 0.9430 0.5971
vt 0.9430 0.6214
vt 0.9171 0.6214
vt 0.2124 0.9175
vt 0.1865 0.9175
vt 0.1865 0.8932
vt 0.2124 0.8932
vt 0.2124 0.8252
vt 0.1865 0.8252
vt 0.1865 0.7767
vt 0.2124 0.7767
vt 0.0777 0.9078
vt 0.0777 0.8592
vt 0.1036 0.8592
vt 0.1036 0.9078
vt 0.5959 0.8350
vt 0.5959 0.8835
vt 0.5699 0.8835
vt 0.5699 0.8350
vt 0.2124 0.8835
vt 0.1865 0.8835
vt 0.1865 0.8350
vt 0.2124 0.8350
vt 0.2228 0.8786
vt 0.2487 0.8786
vt 0.2487 0.9029
vt 0.2228 0.9029
vt 0.9534 0.9126
vt 0.9534 0.8641
vt 0.9793 0.8641
vt 0.9793 0.9126
vt 0.9793 0.4223
vt 0.9793 0.4709
vt 0.9534 0.4709
vt 0.9534 0.4223
vt 0.5959 0.9175
vt 0.5699 0.9175
vt 0.5699 0.8932
vt 0.5959 0.8932
vt 0.7772 0.4515
vt 0.9689 0.1068
vt 0.9948 0.1068
vt 0.9948 0.1311
vt 0.9689 0.1311
vt 0.6995 0.2961
vt 0.6995 0.0049
vt 0.9585 0.2961
vt 0.6995 0.9223
vt 0.9067 0.6311
vt 0.9067 0.9223
vt 0.6995 0.6311
vt 0.9585 0.0049
vt 0.0052 0.7670
vt 0.2124 0.4029
vt 0.2124 0.7670
vt 0.0494 0.4359
vt 0.0052 0.4029
vt 0.3420 0.1990
vt 0.6891 0.7427
vt 0.4301 0.0049
vt 0.2850 0.8689
vt 0.2591 0.8689
vt 0.2591 0.8204
vt 0.2850 0.8204
vt 0.9948 0.0631
vt 0.9689 0.0631
vt 0.9689 0.0388
vt 0.9948 0.0388
vt 0.9689 0.1408
vt 0.9948 0.1408
vt 0.9948 0.1650
vt 0.9689 0.1650
vt 0.9948 0.0971
vt 0.9689 0.0971
vt 0.9689 0.0728
vt 0.9948 0.0728
vt 0.2487 0.8689
vt 0.2228 0.8689
vt 0.2228 0.8204
vt 0.2487 0.8204
vt 0.6891 0.2961
vt 0.8808 0.4515
vt 0.0052 0.3932
vn 0.0000 -0.0000 1.0000
vn 0.0000 0.0000 -1.0000
vn -1.0000 -0.0000 0.0000
vn 0.0000 1.0000 0.0000
vn 0.0000 -1.0000 0.0000
vn 1.0000 0.0000 0.0000
usemtl palette.036
s off
f 1/1/1 2/2/1 3/3/1
f 4/4/2 5/5/2 6/6/2
f 7/7/3 8/8/3 6/9/3
f 9/10/3 10/11/3 11/12/3
f 12/13/3 13/14/3 9/10/3
f 14/15/4 15/16/4 13/17/4
f 4/18/5 8/19/5 1/20/5
f 7/7/3 16/21/3 8/8/3
f 17/22/4 18/23/4 19/24/4
f 7/7/3 20/25/3 12/13/3
f 7/7/3 12/13/3 16/21/3
f 19/24/4 18/23/4 20/26/4
f 16/27/5 21/28/5 22/29/5
f 1/20/5 8/19/5 23/30/5
f 8/8/3 16/21/3 23/31/3
f 24/32/3 25/33/3 26/34/3
f 27/35/1 24/36/1 28/37/1
f 29/38/3 30/39/3 31/40/3
f 32/41/2 33/42/2 31/43/2
f 34/44/3 35/45/3 36/46/3
f 37/47/5 34/48/5 36/49/5
f 29/38/3 37/50/3 30/39/3
f 38/51/4 35/52/4 39/53/4
f 40/54/3 38/55/3 37/50/3
f 33/56/3 27/57/3 28/58/3
f 32/59/5 30/60/5 25/61/5
f 41/62/5 42/63/5 43/64/5
f 42/65/3 44/66/3 43/67/3
f 45/68/3 10/11/3 46/69/3
f 47/70/5 45/71/5 46/72/5
f 46/73/1 48/74/1 49/75/1
f 45/76/2 50/77/2 44/78/2
f 51/79/3 44/66/3 18/80/3
f 52/81/3 45/68/3 44/66/3
f 53/82/5 54/83/5 51/84/5
f 55/85/3 56/86/3 51/79/3
f 55/85/3 57/87/3 56/86/3
f 58/88/5 59/89/5 60/90/5
f 60/91/3 10/11/3 45/68/3
f 61/92/3 57/87/3 60/91/3
f 60/93/1 52/94/1 62/95/1
f 63/96/3 59/97/3 62/98/3
f 57/87/3 61/92/3 56/86/3
f 61/99/2 63/100/2 56/101/2
f 54/83/5 55/102/5 51/84/5
f 59/89/5 61/103/5 60/90/5
f 64/104/2 57/105/2 26/106/2
f 65/107/2 64/104/2 26/106/2
f 66/108/3 67/109/3 65/110/3
f 68/111/3 69/112/3 70/113/3
f 71/114/3 66/108/3 72/115/3
f 70/113/3 69/112/3 67/109/3
f 73/116/3 74/117/3 75/118/3
f 76/119/4 77/120/4 78/121/4
f 73/122/4 66/123/4 79/124/4
f 40/54/3 80/125/3 81/126/3
f 82/127/3 83/128/3 84/129/3
f 40/54/3 82/127/3 85/130/3
f 40/54/3 83/128/3 82/127/3
f 86/131/3 87/132/3 88/133/3
f 40/54/3 85/130/3 80/125/3
f 89/134/3 65/110/3 90/135/3
f 68/111/3 89/134/3 69/112/3
f 91/136/3 90/135/3 65/110/3
f 40/54/3 92/137/3 83/128/3
f 79/138/3 84/129/3 68/111/3
f 68/111/3 93/139/3 89/134/3
f 93/139/3 65/110/3 89/134/3
f 94/140/3 22/141/3 21/142/3 95/143/3
f 96/144/6 97/145/6 98/146/6
f 96/144/6 98/146/6 99/147/6
f 65/107/2 100/148/2 57/105/2
f 18/80/3 42/65/3 13/14/3
f 38/55/3 78/149/3 101/150/3
f 40/54/3 81/126/3 38/55/3
f 102/151/3 65/110/3 26/34/3
f 1/152/3 3/153/3 5/154/3 4/155/3
f 2/156/3 23/31/3 11/12/3
f 8/157/2 4/4/2 6/6/2
f 94/158/4 95/159/4 12/160/4 9/161/4
f 11/12/3 23/31/3 103/162/3
f 23/31/3 16/21/3 103/162/3
f 1/1/1 23/163/1 2/2/1
f 9/10/3 104/164/3 10/11/3
f 13/17/4 15/16/4 104/165/4
f 9/10/3 13/14/3 104/164/3
f 103/162/3 9/10/3 11/12/3
f 12/13/3 20/25/3 18/80/3
f 103/166/5 16/27/5 22/29/5
f 103/167/2 22/168/2 94/169/2 9/170/2
f 21/171/1 16/172/1 12/173/1 95/174/1
f 102/151/3 25/33/3 30/39/3 37/50/3
f 12/13/3 18/80/3 13/14/3
f 27/35/1 25/175/1 24/36/1
f 33/56/3 32/176/3 27/57/3
f 30/177/2 32/41/2 31/43/2
f 102/178/2 36/179/2 35/180/2 101/181/2
f 102/182/5 37/47/5 36/49/5
f 34/183/1 37/184/1 38/185/1 39/186/1
f 38/51/4 101/187/4 35/52/4
f 27/188/5 32/59/5 25/61/5
f 48/189/4 44/190/4 50/191/4 49/192/4
f 29/38/3 40/54/3 37/50/3
f 97/193/1 40/194/1 29/195/1
f 34/44/3 39/196/3 35/45/3
f 43/67/3 48/197/3 10/11/3
f 47/198/3 49/199/3 50/200/3 105/201/3
f 43/67/3 44/66/3 48/197/3
f 41/62/5 106/202/5 42/63/5
f 47/70/5 105/203/5 45/71/5
f 48/197/3 46/69/3 10/11/3
f 47/204/1 46/73/1 49/75/1
f 52/205/4 56/206/4 63/207/4 62/208/4
f 45/76/2 105/209/2 50/77/2
f 51/79/3 52/81/3 44/66/3
f 60/91/3 57/87/3 10/11/3
f 52/81/3 60/91/3 45/68/3
f 58/210/1 60/93/1 62/95/1
f 61/99/2 59/211/2 63/100/2
f 77/212/1 107/213/1 108/214/1 72/215/1
f 51/79/3 56/86/3 52/81/3
f 62/98/3 59/97/3 58/216/3
f 65/107/2 57/105/2 64/104/2
f 18/80/3 44/66/3 42/65/3
f 65/110/3 67/109/3 91/136/3
f 67/109/3 69/112/3 91/136/3
f 79/138/3 68/111/3 70/113/3
f 75/118/3 74/117/3 109/217/3
f 76/119/4 107/218/4 77/120/4
f 76/219/2 78/220/2 71/221/2 110/222/2
f 66/223/1 75/224/1 109/225/1 67/226/1
f 73/227/2 79/228/2 70/229/2 74/230/2
f 73/122/4 75/231/4 66/123/4
f 108/232/3 107/233/3 76/234/3 110/235/3
f 71/236/5 72/237/5 108/238/5 110/239/5
f 71/114/3 79/138/3 66/108/3
f 70/240/5 67/241/5 109/242/5 74/243/5
f 111/244/3 112/245/3 113/246/3 114/247/3
f 84/129/3 83/128/3 68/111/3
f 86/131/3 115/248/3 87/132/3
f 80/249/5 116/250/5 87/251/5 115/252/5
f 117/253/4 81/254/4 86/255/4 88/256/4
f 117/257/1 88/258/1 87/259/1 116/260/1
f 86/261/2 81/262/2 80/263/2 115/264/2
f 118/265/1 112/266/1 111/267/1 84/268/1
f 82/269/5 84/270/5 111/271/5 114/272/5
f 118/273/4 85/274/4 113/275/4 112/276/4
f 113/277/2 85/278/2 82/279/2 114/280/2
f 118/281/3 116/282/3 80/125/3 85/130/3
f 91/283/1 119/284/1 120/285/1 90/286/1
f 121/287/2 69/288/2 89/289/2 122/290/2
f 120/291/3 119/292/3 121/293/3 122/294/3
f 91/295/4 69/296/4 121/297/4 119/298/4
f 89/299/5 90/300/5 120/301/5 122/302/5
f 65/110/3 93/139/3 92/137/3 40/54/3
f 123/303/3 124/304/3 125/305/3 126/306/3
f 68/307/1 124/308/1 123/309/1 93/310/1
f 68/311/4 83/312/4 125/313/4 124/314/4
f 92/315/5 93/316/5 123/317/5 126/318/5
f 125/319/2 83/320/2 92/321/2 126/322/2
f 71/114/3 78/149/3 117/323/3 116/282/3
f 79/138/3 71/114/3 116/282/3 118/281/3
f 118/281/3 84/129/3 79/138/3
f 104/324/1 15/325/1 41/326/1 43/327/1
f 10/328/2 99/329/2 11/330/2
f 57/331/4 99/332/4 10/333/4
f 96/334/4 99/332/4 57/331/4
f 11/330/2 99/329/2 98/335/2
f 40/336/4 100/337/4 65/338/4
f 127/339/4 100/337/4 40/336/4
f 97/340/4 127/339/4 40/336/4
f 97/340/4 100/337/4 127/339/4
f 100/341/6 97/145/6 96/144/6
f 97/193/1 29/195/1 128/342/1
f 57/105/2 100/148/2 96/343/2
f 104/164/3 43/67/3 10/11/3
f 41/344/3 15/345/3 14/346/3 106/347/3
f 14/348/2 13/349/2 42/350/2 106/351/2
f 18/352/1 17/353/1 53/354/1 51/355/1
f 55/85/3 20/25/3 7/7/3 57/87/3
f 19/356/2 20/357/2 55/358/2 54/359/2
f 53/360/3 17/361/3 19/362/3 54/363/3
f 26/106/2 57/105/2 7/364/2
f 101/150/3 78/149/3 77/365/3
f 38/55/3 81/126/3 117/323/3
f 38/55/3 117/323/3 78/149/3
f 25/33/3 102/151/3 26/34/3
f 102/151/3 101/150/3 65/110/3
f 77/365/3 72/115/3 65/110/3
f 72/115/3 66/108/3 65/110/3
f 97/145/6 128/366/6 98/146/6
f 101/150/3 77/365/3 65/110/3
