# Blender v2.78 (sub 0) OBJ File: ''
# www.blender.org
mtllib tileStreet1.mtl
o copy_tileStreetNew1.001
v -8.000014 -0.000011 -8.000014
v -8.000014 -0.000016 7.999996
v -8.000014 0.999994 7.999996
v -8.000014 0.999998 -8.000014
v 7.999996 0.999998 -8.000014
v 7.999996 0.999994 7.999996
v 7.999996 -0.000016 7.999996
v 7.999996 -0.000011 -8.000014
vt 0.0061 0.9939
vt 0.0061 0.5061
vt 0.0366 0.5061
vt 0.0366 0.9939
vt 0.1646 0.5061
vt 0.1646 0.9939
vt 0.1341 0.9939
vt 0.1341 0.5061
vt 0.9939 0.4939
vt 0.5061 0.4939
vt 0.5061 0.0061
vt 0.9939 0.0061
vt 0.0061 0.4939
vt 0.0061 0.0061
vt 0.4939 0.0061
vt 0.4939 0.4939
vt 0.1220 0.9939
vt 0.0915 0.9939
vt 0.0915 0.5061
vt 0.1220 0.5061
vt 0.0488 0.5061
vt 0.0793 0.5061
vt 0.0793 0.9939
vt 0.0488 0.9939
vn -1.0000 0.0000 0.0000
vn 1.0000 0.0000 0.0000
vn 0.0000 -1.0000 -0.0000
vn 0.0000 1.0000 0.0000
vn 0.0000 0.0000 -1.0000
vn 0.0000 0.0000 1.0000
usemtl palette.045
s off
f 1/1/1 2/2/1 3/3/1 4/4/1
f 5/5/2 6/6/2 7/7/2 8/8/2
f 1/9/3 8/10/3 7/11/3 2/12/3
f 3/13/4 6/14/4 5/15/4 4/16/4
f 1/17/5 4/18/5 5/19/5 8/20/5
f 7/21/6 6/22/6 3/23/6 2/24/6
