# Blender v2.78 (sub 0) OBJ File: ''
# www.blender.org
mtllib propCommercial2.mtl
o copy_propCommercial2.001
v -7.000023 4.999996 -7.000021
v -8.000017 4.999996 -7.000021
v -7.000023 1.000000 -7.000023
v -8.000017 1.000000 -7.000023
v -8.000017 0.999998 -2.000009
v -7.000023 3.999978 0.999995
v -7.000023 3.999978 -1.000015
v -7.000023 -0.000019 -1.000016
v -8.000017 -0.000019 -1.000016
v -8.000017 3.999978 -1.000015
v -8.000017 4.999994 -2.000008
v -7.000023 0.999998 -2.000009
v -8.000016 6.894101 -8.000014
v -8.000017 8.999992 -7.000020
v -8.000017 12.562092 -8.000013
v -7.000023 6.999980 -1.000014
v -8.000017 6.999982 -7.000021
v -8.000017 6.999980 -1.000014
v -7.000023 9.999985 -1.000013
v -8.000017 9.999987 -7.000020
v -8.000017 9.999985 -1.000013
v -7.000023 8.999990 -1.000014
v -8.000017 8.999990 -1.000014
v -4.965278 7.371531 -8.000014
v -8.000017 -0.000017 -8.000017
v -6.302084 5.079865 -8.000014
v -8.000016 3.552085 -8.000014
v -7.000023 8.999992 -7.000020
v -7.000023 6.999982 -7.000021
v -7.000023 11.999997 -7.000019
v -7.000023 9.999987 -7.000020
v -7.000023 0.999995 7.000000
v -8.000017 0.999997 1.999987
v -8.000017 0.999995 7.000000
v -7.000023 4.999992 1.999988
v -7.000023 0.999997 1.999987
v -8.000017 4.999992 1.999988
v -8.000017 3.999978 0.999995
v -8.000017 -0.000019 0.999993
v -8.000017 -0.000021 7.999992
v -8.000017 4.999992 7.000002
v -8.000017 6.999980 0.999995
v -7.000023 4.999992 7.000002
v -7.000023 9.999985 0.999997
v -8.000017 9.999985 0.999997
v -8.000017 9.999983 7.000002
v -7.000023 8.999990 7.000002
v -7.000023 8.999990 0.999996
v -7.000023 6.999980 0.999995
v -7.000023 9.999983 7.000002
v -7.000023 11.999995 0.999997
v -8.000017 8.999990 7.000002
v -8.000017 8.999990 0.999996
v -8.000017 6.999978 7.000002
v -8.000016 9.472220 7.999995
v -8.000016 17.111115 -8.000010
v 7.999992 19.999992 -8.000011
v -8.000017 15.999992 -7.000019
v -7.000023 12.999988 -1.000012
v -7.000023 14.999996 -1.000011
v -7.000023 12.999990 -7.000019
v -8.000017 11.999995 -1.000012
v -8.000017 12.999990 -7.000019
v -8.000017 11.999997 -7.000019
v -8.000017 12.999988 -1.000012
v -8.000017 14.999996 -1.000011
v -8.000017 15.999990 -1.000011
v -8.000017 14.999998 -7.000019
v -8.000017 18.000004 -7.000017
v -8.000017 19.999992 -8.000011
v -8.000017 18.000000 -1.000010
v -7.000023 18.000000 -1.000010
v 7.000000 19.999992 -7.000017
v -7.000023 19.999992 -7.000017
v -8.000017 11.999993 7.000004
v -8.000017 11.999995 0.999997
v -7.000023 12.999988 0.999997
v -8.000017 12.999988 0.999997
v -8.000017 12.999986 7.000004
v -7.000023 12.999986 7.000004
v -7.000023 14.999996 0.999998
v -7.000023 15.999990 7.000004
v -7.000023 18.000000 0.999999
v -7.000023 15.999990 0.999999
v -8.000017 14.999994 7.000004
v -8.000017 15.999990 7.000004
v -8.000017 14.999996 0.999998
v -8.000017 15.999990 0.999999
v -8.000017 19.999985 8.000000
v -8.000017 18.000000 0.999999
v -7.000023 19.999985 7.000006
v -7.000023 18.999996 -7.000017
v -7.000023 17.999996 7.000006
v -8.000017 17.999996 7.000006
v 0.000000 18.999992 2.999986
v 0.000000 20.999981 1.000000
v 0.000000 18.999992 0.999999
v 7.999992 -0.000021 7.999992
v 7.999992 -0.000017 -8.000017
v 7.000000 18.999996 -7.000017
v 5.999983 18.999996 -6.000001
v 2.999980 18.999996 -6.000001
v 2.999980 18.999992 -5.000007
v 2.999980 20.999981 -5.000007
v 2.999980 22.000000 -5.999999
v 5.999983 22.000000 -5.999999
v 3.999996 20.999981 -4.000014
v 3.999996 18.999992 -4.000014
v 2.999980 18.999992 -4.000014
v 2.999980 21.999996 -2.999995
v 2.999980 18.999992 -2.999997
v 5.999983 18.999992 -2.999997
v 5.999983 21.999996 -2.999995
v 2.999980 20.999981 -4.000014
v 7.000000 18.999992 0.999999
v 7.000000 19.999989 1.000000
v 0.000000 20.999981 2.999986
v 2.999980 18.999992 2.999986
v 2.999980 20.999981 2.999986
v 2.999980 21.999992 5.999991
v 2.999980 21.999996 1.000001
v 2.999980 20.999981 1.000000
v 2.999980 18.999989 5.999989
v 7.000000 18.999989 5.999989
v 7.000000 21.999996 1.000001
v 7.000000 21.999992 5.999991
v 7.000000 19.999985 5.999990
v 7.000000 18.999989 7.000006
v -7.000023 18.999989 7.000006
v 7.000000 19.999985 7.000006
v 7.999992 19.999985 8.000000
v -7.000023 -0.000019 0.999993
v -7.000023 4.999994 -2.000008
v -4.392362 8.612850 -8.000014
v -7.000023 6.999978 7.000002
v -7.000023 14.999998 -7.000019
v -7.000023 11.999995 -1.000012
v -7.000023 15.999990 -1.000011
v -7.000023 15.999992 -7.000019
v -7.000023 18.000004 -7.000017
v -7.000023 11.999993 7.000004
v -7.000023 14.999994 7.000004
v 3.999996 18.999992 -5.000007
v 3.999996 20.999981 -5.000007
vt 0.7846 0.9654
vt 0.7654 0.9654
vt 0.7846 0.8885
vt 0.5962 0.8731
vt 0.6154 0.8731
vt 0.6154 0.9692
vt 0.5692 0.7885
vt 0.6077 0.7885
vt 0.6077 0.8654
vt 0.8115 0.9654
vt 0.7923 0.8885
vt 0.8115 0.8885
vt 0.4923 0.3115
vt 0.5115 0.2923
vt 0.5115 0.3692
vt 0.6808 0.9846
vt 0.6615 0.9077
vt 0.6808 0.9077
vt 0.6269 0.2559
vt 0.6077 0.2154
vt 0.6269 0.1469
vt 0.5692 0.9692
vt 0.5885 0.8731
vt 0.5885 0.9692
vt 0.9500 0.8346
vt 0.9692 0.7192
vt 0.9692 0.8346
vt 0.9500 0.9577
vt 0.9692 0.8423
vt 0.9692 0.9577
vt 0.9231 0.8423
vt 0.9423 0.8423
vt 0.9423 0.9577
vt 0.4923 0.2154
vt 0.4923 0.1962
vt 0.0622 0.6390
vt 0.0038 0.7808
vt 0.0365 0.6831
vt 0.0038 0.5392
vt 0.6269 0.3202
vt 0.6077 0.2923
vt 0.0038 0.6482
vt 0.0038 0.7125
vt 0.4923 0.3885
vt 0.6077 0.3692
vt 0.6269 0.3885
vt 0.0500 0.7885
vt 0.0885 0.9038
vt 0.0500 0.9038
vt 0.7846 0.7000
vt 0.8231 0.8154
vt 0.7846 0.8154
vt 0.8885 0.8731
vt 0.8692 0.9692
vt 0.8692 0.8731
vt 0.7769 0.7962
vt 0.7000 0.7000
vt 0.7769 0.7000
vt 0.4115 0.9692
vt 0.3923 0.9692
vt 0.4115 0.8923
vt 0.4346 0.3692
vt 0.4538 0.3115
vt 0.4538 0.3885
vt 0.9654 0.4423
vt 0.9846 0.4423
vt 0.9654 0.5192
vt 0.3192 0.3885
vt 0.3385 0.2923
vt 0.3385 0.3692
vt 0.4346 0.2923
vt 0.4538 0.2538
vt 0.8962 0.8731
vt 0.9154 0.8731
vt 0.9154 0.9692
vt 0.9577 0.4346
vt 0.9385 0.4346
vt 0.9385 0.3192
vt 0.1885 0.9038
vt 0.1885 0.7885
vt 0.2269 0.7885
vt 0.0423 0.9038
vt 0.0038 0.7885
vt 0.0423 0.7885
vt 0.3385 0.2154
vt 0.3385 0.1962
vt 0.4538 0.2154
vt 0.9500 0.5962
vt 0.9692 0.5962
vt 0.9692 0.7115
vt 0.3385 0.2538
vt 0.3192 0.2063
vt 0.0038 0.4517
vt 0.3115 0.3962
vt 0.6077 0.0808
vt 0.6269 0.0594
vt 0.1423 0.7885
vt 0.1808 0.7885
vt 0.1423 0.9038
vt 0.4923 0.1577
vt 0.6077 0.1385
vt 0.6077 0.1577
vt 0.8500 0.8615
vt 0.8308 0.9769
vt 0.8308 0.8615
vt 0.4923 0.1000
vt 0.4923 0.0808
vt 0.6077 0.1000
vt 0.9500 0.0038
vt 0.9692 0.0038
vt 0.9692 0.1192
vt 0.6077 0.0423
vt 0.6269 0.0038
vt 0.4923 0.0423
vt 0.9385 0.4423
vt 0.9577 0.4423
vt 0.9577 0.5577
vt 0.9231 0.2923
vt 0.9423 0.3115
vt 0.6538 0.2923
vt 0.4923 0.9692
vt 0.5115 0.8538
vt 0.5115 0.9692
vt 0.9423 0.7115
vt 0.9231 0.7115
vt 0.9231 0.5962
vt 0.2731 0.9038
vt 0.2346 0.7885
vt 0.2731 0.7885
vt 0.1346 0.9038
vt 0.0962 0.7885
vt 0.1346 0.7885
vt 0.3385 0.1000
vt 0.3385 0.0808
vt 0.4538 0.1000
vt 0.5192 0.9692
vt 0.5385 0.8538
vt 0.5385 0.9692
vt 0.9231 0.7192
vt 0.9423 0.7192
vt 0.9423 0.8346
vt 0.3385 0.1385
vt 0.3385 0.1577
vt 0.3192 0.0038
vt 0.4538 0.0423
vt 0.8692 0.5962
vt 0.8885 0.8654
vt 0.8692 0.8654
vt 0.0962 0.9038
vt 0.4385 0.8538
vt 0.4577 0.8538
vt 0.4577 0.9692
vt 0.3385 0.0423
vt 0.0038 0.9500
vt 0.0423 0.9115
vt 0.0423 0.9500
vt 0.7692 0.3962
vt 0.7692 0.4346
vt 0.6346 0.5885
vt 0.0038 0.0038
vt 0.3115 0.0038
vt 0.3115 0.3885
vt 0.9115 0.5885
vt 0.9308 0.3192
vt 0.9308 0.5885
vt 0.8846 0.5692
vt 0.9038 0.5885
vt 0.8269 0.5692
vt 0.8269 0.5500
vt 0.5615 0.8462
vt 0.5423 0.8077
vt 0.5615 0.7885
vt 0.6346 0.9000
vt 0.6346 0.8423
vt 0.6923 0.8423
vt 0.0962 0.9115
vt 0.0962 0.9500
vt 0.0769 0.9500
vt 0.7654 0.8808
vt 0.7654 0.8231
vt 0.8231 0.8231
vt 0.8231 0.8808
vt 0.6923 0.9000
vt 0.0769 0.9115
vt 0.9038 0.4346
vt 0.8846 0.5115
vt 0.9231 0.1385
vt 0.8308 0.7000
vt 0.8500 0.8538
vt 0.8308 0.8538
vt 0.7000 0.8692
vt 0.7385 0.8692
vt 0.7385 0.9269
vt 0.6538 0.7769
vt 0.6346 0.8346
vt 0.6346 0.7385
vt 0.6538 0.7385
vt 0.8269 0.5115
vt 0.3269 0.7885
vt 0.3846 0.7885
vt 0.3846 0.8654
vt 0.6923 0.6538
vt 0.6538 0.7308
vt 0.6731 0.6538
vt 0.7769 0.6923
vt 0.7000 0.6923
vt 0.7769 0.5962
vt 0.7000 0.5962
vt 0.3269 0.8654
vt 0.3654 0.8654
vt 0.7000 0.9269
vt 0.9038 0.3192
vt 0.8269 0.3385
vt 0.6346 0.3192
vt 0.9154 0.8654
vt 0.8962 0.8654
vt 0.8962 0.5962
vt 0.9423 0.0038
vt 0.9231 0.0231
vt 0.6346 0.0038
vt 0.9231 0.0423
vt 0.4308 0.7885
vt 0.4308 0.8846
vt 0.3923 0.8846
vt 0.3923 0.7885
vt 0.9385 0.5654
vt 0.9577 0.5654
vt 0.9385 0.5846
vt 0.6269 0.7808
vt 0.3192 0.3962
vt 0.6269 0.3962
vt 0.3115 0.7808
vt 0.5692 0.8654
vt 0.4923 0.2538
vt 0.4538 0.1577
vt 0.6346 0.3115
vt 0.0038 0.3885
vt 0.7654 0.8885
vt 0.2654 0.9115
vt 0.2846 0.9115
vt 0.2846 0.9500
vt 0.2654 0.9500
vt 0.7846 0.5962
vt 0.8615 0.5962
vt 0.7846 0.6923
vt 0.6615 0.9846
vt 0.7923 0.9654
vt 0.5962 0.9692
vt 0.6077 0.2538
vt 0.0732 0.6151
vt 0.6077 0.1962
vt 0.2577 0.9500
vt 0.2385 0.9500
vt 0.2385 0.9115
vt 0.2577 0.9115
vt 0.5692 0.8731
vt 0.9500 0.7192
vt 0.0885 0.7885
vt 0.9231 0.9577
vt 0.6346 0.9077
vt 0.6538 0.9077
vt 0.6538 0.9846
vt 0.6346 0.9846
vt 0.8615 0.6923
vt 0.9500 0.8423
vt 0.9846 0.5192
vt 0.3923 0.8923
vt 0.8885 0.9692
vt 0.4846 0.8538
vt 0.4846 0.9692
vt 0.4654 0.9692
vt 0.4654 0.8538
vt 0.2923 0.9115
vt 0.3115 0.9115
vt 0.3115 0.9500
vt 0.2923 0.9500
vt 0.2269 0.9038
vt 0.4538 0.1962
vt 0.9500 0.7115
vt 0.9577 0.3192
vt 0.2308 0.9500
vt 0.2115 0.9500
vt 0.2115 0.9115
vt 0.2308 0.9115
vt 0.8962 0.9692
vt 0.3192 0.5783
vt 0.0308 0.9577
vt 0.0500 0.9577
vt 0.0500 0.9962
vt 0.0308 0.9962
vt 0.7000 0.7962
vt 0.9692 0.1269
vt 0.9692 0.2423
vt 0.9500 0.2423
vt 0.9500 0.1269
vt 0.8231 0.7000
vt 0.9654 0.4346
vt 0.9654 0.3192
vt 0.9846 0.3192
vt 0.9846 0.4346
vt 0.8500 0.9769
vt 0.2808 0.7885
vt 0.3192 0.7885
vt 0.2808 0.9038
vt 0.9500 0.1192
vt 0.7192 0.9731
vt 0.7000 0.9731
vt 0.7000 0.9346
vt 0.7192 0.9346
vt 0.3538 0.9385
vt 0.3731 0.9385
vt 0.3731 0.9769
vt 0.3538 0.9769
vt 0.4923 0.1385
vt 0.9115 0.3192
vt 0.0038 0.3962
vt 0.1231 0.9500
vt 0.1038 0.9500
vt 0.1038 0.9115
vt 0.1231 0.9115
vt 0.4538 0.1385
vt 0.1808 0.9038
vt 0.3192 0.9038
vt 0.9385 0.5577
vt 0.9769 0.0038
vt 0.9962 0.0038
vt 0.9962 0.0423
vt 0.9769 0.0423
vt 0.0038 0.9038
vt 0.4923 0.8538
vt 0.9423 0.5962
vt 0.9231 0.8346
vt 0.7462 0.9731
vt 0.7269 0.9731
vt 0.7269 0.9346
vt 0.7462 0.9346
vt 0.4538 0.0808
vt 0.3192 0.7808
vt 0.3269 0.9385
vt 0.3462 0.9385
vt 0.3462 0.9769
vt 0.3269 0.9769
vt 0.8885 0.5962
vt 0.4385 0.9692
vt 0.6538 0.0231
vt 0.0038 0.9115
vt 0.9154 0.5962
vt 0.1500 0.9500
vt 0.1308 0.9500
vt 0.1308 0.9115
vt 0.1500 0.9115
vt 0.8269 0.5308
vt 0.8462 0.5308
vt 0.8462 0.5500
vt 0.2346 0.9038
vt 0.5192 0.8538
vt 0.5038 0.8462
vt 0.5231 0.8077
vt 0.5231 0.8462
vt 0.5038 0.7885
vt 0.0692 0.9115
vt 0.0692 0.9500
vt 0.0500 0.9115
vt 0.4962 0.8462
vt 0.4385 0.7885
vt 0.4962 0.7885
vt 0.1231 0.9769
vt 0.1038 0.9769
vt 0.1038 0.9577
vt 0.1231 0.9577
vt 0.7577 0.8615
vt 0.7000 0.8615
vt 0.7000 0.8038
vt 0.7577 0.8038
vt 0.0769 0.9577
vt 0.0769 0.9962
vt 0.0577 0.9962
vt 0.0577 0.9577
vt 0.5423 0.8462
vt 0.3269 0.8731
vt 0.3654 0.8731
vt 0.3654 0.9308
vt 0.3269 0.9308
vt 0.4385 0.8462
vt 0.0500 0.9500
vt 0.8500 0.7000
vt 0.6923 0.8346
vt 0.6923 0.7769
vt 0.8269 0.3962
vt 0.6346 0.7308
vt 0.6346 0.5962
vt 0.1846 0.9115
vt 0.2038 0.9115
vt 0.2038 0.9500
vt 0.1846 0.9500
vt 0.9038 0.3385
vt 0.6923 0.7308
vt 0.9577 0.5846
vt 0.6731 0.5962
vt 0.9846 0.5654
vt 0.9654 0.5654
vt 0.9654 0.5269
vt 0.9846 0.5269
vt 0.1577 0.9115
vt 0.1769 0.9115
vt 0.1769 0.9500
vt 0.1577 0.9500
vt 0.0231 0.9962
vt 0.0038 0.9962
vt 0.0038 0.9577
vt 0.0231 0.9577
vt 0.9692 0.2500
vt 0.9692 0.2885
vt 0.9500 0.2885
vt 0.9500 0.2500
vn 0.0000 -0.0000 1.0000
vn 0.0000 1.0000 0.0000
vn -1.0000 -0.0000 0.0000
vn 0.0000 0.0000 -1.0000
vn 0.0000 -1.0000 -0.0000
vn 1.0000 0.0000 0.0000
usemtl palette.031
s off
f 1/1/1 2/2/1 3/3/1
f 3/4/2 4/5/2 5/6/2
f 6/7/3 7/8/3 8/9/3
f 7/10/1 9/11/1 8/12/1
f 10/13/3 11/14/3 5/15/3
f 11/16/4 12/17/4 5/18/4
f 13/19/3 14/20/3 15/21/3
f 1/22/5 11/23/5 2/24/5
f 16/25/2 17/26/2 18/27/2
f 19/28/2 20/29/2 21/30/2
f 22/31/5 23/32/5 14/33/5
f 23/34/3 21/35/3 14/20/3
f 24/36/4 25/37/4 26/38/4
f 15/39/4 24/36/4 26/38/4
f 27/40/3 2/41/3 13/19/3
f 13/42/4 26/38/4 27/43/4
f 9/44/3 4/45/3 25/46/3
f 16/47/3 28/48/3 29/49/3
f 19/50/3 30/51/3 31/52/3
f 32/53/2 33/54/2 34/55/2
f 32/56/3 35/57/3 36/58/3
f 35/59/1 37/60/1 36/61/1
f 33/62/3 38/63/3 39/64/3
f 38/65/4 6/66/4 39/67/4
f 40/68/3 33/62/3 39/64/3
f 40/68/3 41/69/3 34/70/3
f 37/71/3 42/72/3 38/63/3
f 43/73/5 41/74/5 37/75/5
f 44/76/2 45/77/2 46/78/2
f 47/79/3 48/80/3 49/81/3
f 50/82/3 51/83/3 44/84/3
f 52/85/3 46/86/3 53/87/3
f 47/88/5 52/89/5 53/90/5
f 40/68/3 54/91/3 41/69/3
f 52/85/3 55/92/3 46/86/3
f 55/92/3 52/85/3 54/91/3
f 41/69/3 54/91/3 37/71/3
f 56/93/4 57/94/4 15/39/4
f 58/95/3 56/96/3 15/21/3
f 59/97/3 60/98/3 61/99/3
f 62/100/3 63/101/3 64/102/3
f 59/103/2 63/104/2 65/105/2
f 66/106/3 67/107/3 68/108/3
f 60/109/5 66/110/5 68/111/5
f 56/96/3 69/112/3 70/113/3
f 71/114/3 70/113/3 69/112/3
f 72/115/5 71/116/5 69/117/5
f 73/118/2 57/119/2 74/120/2
f 51/121/5 75/122/5 76/123/5
f 77/124/2 78/125/2 79/126/2
f 80/127/3 81/128/3 77/129/3
f 82/130/3 83/131/3 84/132/3
f 85/133/3 86/134/3 87/135/3
f 81/136/5 85/137/5 87/138/5
f 84/139/2 88/140/2 86/141/2
f 55/92/3 79/142/3 75/143/3
f 89/144/3 86/134/3 85/133/3
f 89/144/3 85/133/3 79/142/3
f 90/145/3 89/144/3 71/114/3
f 91/146/6 92/147/6 74/148/6
f 82/130/3 93/149/3 83/131/3
f 93/150/5 94/151/5 90/152/5
f 94/153/3 89/144/3 90/145/3
f 95/154/3 96/155/3 97/156/3
f 95/157/2 97/158/2 92/159/2
f 89/144/3 94/153/3 86/134/3
f 98/160/6 99/161/6 57/162/6
f 73/163/1 92/164/1 100/165/1
f 101/166/2 100/167/2 102/168/2
f 97/158/2 103/169/2 102/168/2
f 102/170/3 104/171/3 105/172/3
f 106/173/4 101/174/4 102/175/4
f 107/176/4 108/177/4 109/178/4
f 110/179/1 111/180/1 112/181/1
f 113/182/1 110/179/1 112/181/1
f 105/183/4 106/173/4 102/175/4
f 114/184/4 107/176/4 109/178/4
f 115/185/2 101/166/2 112/186/2
f 57/119/2 73/118/2 116/187/2
f 115/188/3 73/189/3 100/190/3
f 115/185/2 100/167/2 101/166/2
f 117/191/1 95/192/1 118/193/1
f 119/194/3 120/195/3 121/196/3
f 119/194/3 121/196/3 122/197/3
f 115/185/2 111/198/2 97/158/2
f 120/199/1 123/200/1 124/201/1
f 121/202/4 116/203/4 122/204/4
f 125/205/2 121/206/2 126/207/2
f 126/207/2 121/206/2 120/208/2
f 126/209/1 120/199/1 127/210/1
f 119/211/1 117/191/1 118/193/1
f 128/212/2 123/213/2 129/214/2
f 130/215/4 128/216/4 129/217/4
f 131/218/2 130/219/2 89/220/2
f 131/218/2 116/187/2 127/221/2
f 127/222/6 116/223/6 125/224/6
f 126/225/6 127/222/6 125/224/6
f 128/226/3 130/227/3 124/228/3
f 131/218/2 127/221/2 130/219/2
f 131/229/1 40/230/1 98/231/1
f 102/168/2 92/159/2 97/158/2
f 57/94/4 99/232/4 15/39/4
f 55/92/3 75/143/3 46/86/3
f 132/233/3 6/7/3 8/9/3
f 38/63/3 42/72/3 18/234/3
f 38/63/3 18/234/3 10/13/3
f 76/235/3 62/100/3 21/35/3
f 74/120/2 70/236/2 89/220/2
f 131/237/6 98/160/6 57/162/6
f 3/3/1 2/2/1 4/238/1
f 17/239/1 29/240/1 28/241/1 14/242/1
f 27/43/4 26/38/4 25/37/4
f 9/44/3 5/15/3 4/45/3
f 12/243/3 133/244/3 3/245/3
f 11/16/4 133/246/4 12/17/4
f 9/44/3 10/13/3 5/15/3
f 7/10/1 10/247/1 9/11/1
f 12/248/2 3/4/2 5/6/2
f 13/42/4 15/39/4 26/38/4
f 13/19/3 2/41/3 17/249/3
f 15/39/4 134/250/4 24/36/4
f 14/20/3 20/251/3 15/21/3
f 17/249/3 14/20/3 13/19/3
f 16/252/4 18/253/4 23/254/4 22/255/4
f 2/41/3 11/14/3 17/249/3
f 1/22/5 133/256/5 11/23/5
f 16/25/2 29/257/2 17/26/2
f 11/14/3 18/234/3 17/249/3
f 16/47/3 22/258/3 28/48/3
f 28/259/5 22/31/5 14/33/5
f 14/20/3 21/35/3 20/251/3
f 32/260/4 34/261/4 41/262/4 43/263/4
f 15/39/4 99/232/4 134/250/4
f 134/250/4 25/37/4 24/36/4
f 134/250/4 99/232/4 25/37/4
f 27/40/3 25/46/3 4/45/3 2/41/3
f 3/245/3 133/244/3 1/264/3
f 10/13/3 18/234/3 11/14/3
f 19/28/2 31/265/2 20/29/2
f 39/67/4 6/66/4 132/266/4
f 40/68/3 34/70/3 33/62/3
f 38/63/3 33/62/3 37/71/3
f 36/61/1 37/60/1 33/267/1
f 32/53/2 36/268/2 33/54/2
f 42/269/2 54/270/2 135/271/2 49/272/2
f 42/273/1 49/274/1 48/275/1 53/276/1
f 37/71/3 54/91/3 42/72/3
f 135/277/3 47/79/3 49/81/3
f 53/87/3 46/86/3 45/278/3
f 48/279/5 47/88/5 53/90/5
f 50/280/2 44/76/2 46/78/2
f 135/281/4 54/282/4 52/283/4 47/284/4
f 35/285/5 43/73/5 37/75/5
f 131/229/1 55/286/1 40/230/1
f 54/91/3 40/68/3 55/92/3
f 63/287/1 61/288/1 136/289/1 68/290/1
f 32/56/3 43/291/3 35/57/3
f 15/21/3 64/102/3 63/101/3
f 15/21/3 68/108/3 58/95/3
f 63/101/3 68/108/3 15/21/3
f 62/292/5 64/293/5 30/294/5 137/295/5
f 19/50/3 137/296/3 30/51/3
f 58/297/2 67/298/2 138/299/2 139/300/2
f 59/103/2 61/301/2 63/104/2
f 138/302/3 72/303/3 139/304/3
f 136/305/5 60/109/5 68/111/5
f 59/306/4 65/307/4 66/308/4 60/309/4
f 68/108/3 67/107/3 58/95/3
f 58/310/1 139/311/1 140/312/1 69/313/1
f 62/100/3 65/314/3 63/101/3
f 73/163/1 74/315/1 92/164/1
f 74/120/2 57/119/2 70/236/2
f 58/95/3 69/112/3 56/96/3
f 56/93/4 70/316/4 57/94/4
f 138/317/4 67/318/4 71/319/4 72/320/4
f 78/321/3 76/235/3 75/143/3 79/142/3
f 61/99/3 60/98/3 136/322/3
f 139/304/3 72/303/3 140/323/3
f 140/324/5 72/115/5 69/117/5
f 78/325/1 77/326/1 81/327/1 87/328/1
f 50/82/3 141/329/3 51/83/3
f 51/121/5 141/330/5 75/122/5
f 80/331/2 77/124/2 79/126/2
f 82/332/2 84/139/2 86/141/2
f 80/333/4 79/334/4 85/335/4 142/336/4
f 87/135/3 86/134/3 88/337/3
f 131/229/1 89/338/1 55/286/1
f 79/142/3 55/92/3 89/144/3
f 88/339/1 84/340/1 83/341/1 90/342/1
f 91/146/6 129/343/6 92/147/6
f 83/344/5 93/150/5 90/152/5
f 91/345/2 74/120/2 89/220/2
f 129/214/2 95/157/2 92/159/2
f 95/154/3 117/346/3 96/155/3
f 91/347/4 130/215/4 129/217/4
f 89/220/2 130/219/2 91/345/2
f 82/348/4 86/349/4 94/350/4 93/351/4
f 103/169/2 109/352/2 108/353/2 143/354/2
f 80/127/3 142/355/3 81/128/3
f 81/136/5 142/356/5 85/137/5
f 102/168/2 100/167/2 92/159/2
f 111/357/3 114/358/3 109/359/3
f 97/158/2 111/198/2 109/352/2
f 97/158/2 109/352/2 103/169/2
f 114/358/3 110/360/3 105/172/3
f 104/171/3 114/358/3 105/172/3
f 143/361/1 144/362/1 103/363/1
f 106/364/6 112/365/6 101/366/6
f 114/367/5 104/368/5 144/369/5 107/370/5
f 113/371/2 106/372/2 105/373/2
f 110/374/2 113/371/2 105/373/2
f 144/375/3 143/376/3 108/377/3 107/378/3
f 103/379/3 104/171/3 102/170/3
f 96/380/2 117/381/2 119/382/2 122/383/2
f 111/357/3 110/360/3 114/358/3
f 113/384/6 112/365/6 106/364/6
f 144/362/1 104/385/1 103/363/1
f 115/188/3 116/386/3 73/189/3
f 123/387/3 119/194/3 118/388/3
f 123/213/2 118/389/2 95/157/2
f 115/390/4 97/391/4 122/204/4 116/203/4
f 123/387/3 120/195/3 119/194/3
f 20/392/1 31/393/1 30/394/1 64/395/1
f 127/210/1 120/199/1 124/201/1
f 128/212/2 124/396/2 123/213/2
f 121/202/4 125/397/4 116/203/4
f 124/228/3 130/227/3 127/398/3
f 96/399/4 122/204/4 97/391/4
f 129/214/2 123/213/2 95/157/2
f 20/251/3 64/102/3 15/21/3
f 19/400/4 21/401/4 62/402/4 137/403/4
f 45/404/1 44/405/1 51/406/1 76/407/1
f 50/408/4 46/409/4 75/410/4 141/411/4
f 38/412/5 10/413/5 7/414/5 6/415/5
f 21/35/3 23/34/3 53/87/3 45/278/3
f 23/34/3 18/234/3 42/72/3 53/87/3
f 65/314/3 62/100/3 76/235/3 78/321/3
f 67/107/3 66/106/3 87/135/3 88/337/3
f 66/106/3 65/314/3 78/321/3 87/135/3
f 71/114/3 67/107/3 88/337/3 90/145/3
f 71/114/3 89/144/3 70/113/3
f 115/185/2 112/186/2 111/198/2
f 131/218/2 57/119/2 116/187/2
f 45/278/3 76/235/3 21/35/3
