# Blender v2.78 (sub 0) OBJ File: ''
# www.blender.org
mtllib propCompMouse.mtl
o copy_propCompMouse.001
v -1.500003 -0.000001 -2.000004
v -1.500003 -0.000002 1.999999
v -1.500003 1.999997 1.999999
v -1.500003 1.999998 -2.000003
v 1.499998 1.999998 -2.000003
v 1.499998 1.999997 1.999999
v 1.499998 -0.000002 1.999999
v 1.499998 -0.000001 -2.000004
vt 0.0217 0.9773
vt 0.0217 0.5227
vt 0.2391 0.5227
vt 0.2391 0.9773
vt 0.5000 0.5227
vt 0.5000 0.9773
vt 0.2826 0.9773
vt 0.2826 0.5227
vt 0.7174 0.4773
vt 0.3913 0.4773
vt 0.3913 0.0227
vt 0.7174 0.0227
vt 0.0217 0.0227
vt 0.3478 0.0227
vt 0.3478 0.4773
vt 0.0217 0.4773
vt 0.7609 0.0227
vt 0.9783 0.0227
vt 0.9783 0.3636
vt 0.7609 0.3636
vt 0.5435 0.5227
vt 0.7609 0.5227
vt 0.7609 0.8636
vt 0.5435 0.8636
vn -1.0000 -0.0000 0.0000
vn 1.0000 -0.0000 0.0000
vn 0.0000 -1.0000 -0.0000
vn 0.0000 1.0000 0.0000
vn 0.0000 0.0000 -1.0000
vn 0.0000 -0.0000 1.0000
usemtl palette.064
s off
f 1/1/1 2/2/1 3/3/1 4/4/1
f 5/5/2 6/6/2 7/7/2 8/8/2
f 1/9/3 8/10/3 7/11/3 2/12/3
f 3/13/4 6/14/4 5/15/4 4/16/4
f 1/17/5 4/18/5 5/19/5 8/20/5
f 7/21/6 6/22/6 3/23/6 2/24/6
