# Blender v2.78 (sub 0) OBJ File: ''
# www.blender.org
mtllib charMusMagnum.mtl
o copy_charMusMagnum.001
v -6.000010 2.999998 -0.500005
v -5.208333 1.270833 -0.500005
v -6.000010 -0.000008 -0.500005
v -4.000003 0.999990 0.499993
v -6.000010 -0.000008 0.499992
v -4.000003 -0.000008 0.499992
v -5.000000 3.999995 -0.500004
v -1.000010 2.000000 -0.500005
v -5.000000 2.999998 -0.500005
v -5.000000 3.999995 0.499994
v -5.000000 2.999998 0.499993
v -1.000010 2.000000 0.499993
v 3.999990 0.999990 -0.500005
v 5.999998 -0.000008 -0.500005
v 3.999990 -0.000008 -0.500005
v 5.999998 2.999998 0.499993
v 3.999990 0.999990 0.499993
v 5.999998 -0.000008 0.499992
v 3.999990 -0.000008 0.499992
v 3.177083 2.260417 -0.500005
v 5.000000 3.999995 -0.500004
v 5.000000 2.999998 -0.500005
v 5.000000 3.999995 0.499994
v 0.999998 2.000000 0.499993
v 5.000000 2.999998 0.499993
v 5.999998 2.999998 -0.500005
v -6.000010 2.999998 0.499993
v -1.000010 0.999990 -0.500005
v -4.000003 0.999990 -0.500005
v 0.999998 0.999990 -0.500005
v -1.000010 0.999990 0.499993
v -4.000003 -0.000008 -0.500005
v 0.999998 2.000000 -0.500005
v 0.999998 0.999990 0.499993
vt 0.4167 1.0000
vt 0.5608 0.9340
vt 0.6667 1.0000
vt 0.0833 0.8333
vt 0.0000 1.0000
vt 0.0000 0.8333
vt 0.3333 0.9167
vt 0.5000 0.5833
vt 0.4167 0.9167
vt 0.3333 0.9167
vt 0.2500 0.9167
vt 0.1667 0.5833
vt 0.5833 0.1667
vt 0.6667 0.0000
vt 0.6667 0.1667
vt 0.2500 0.0000
vt 0.0833 0.1667
vt 0.0000 0.0000
vt 0.0000 0.1667
vt 0.4783 0.2352
vt 0.3333 0.0833
vt 0.4167 0.0833
vt 0.3333 0.0833
vt 0.1667 0.4167
vt 0.2500 0.0833
vt 0.4167 0.0000
vt 0.2500 1.0000
vt 0.8333 0.0000
vt 0.9167 0.2500
vt 0.8333 0.2500
vt 0.8333 0.7500
vt 0.7500 0.7500
vt 0.8333 0.5000
vt 0.0833 0.5833
vt 0.6667 0.8333
vt 0.5833 0.8333
vt 0.5833 0.5833
vt 0.5833 0.4167
vt 0.5000 0.4167
vt 0.0833 0.4167
vt 0.8333 0.2500
vt 0.8333 0.5000
vt 0.7500 0.5000
vt 0.7500 0.2500
vt 0.9167 0.0833
vt 0.9167 0.0000
vt 1.0000 0.0000
vt 1.0000 0.0833
vt 0.8333 0.4167
vt 0.9167 0.4167
vt 0.9167 0.5833
vt 0.8333 0.5833
vt 0.7500 0.8333
vt 0.7500 0.9167
vt 0.6667 0.9167
vt 0.6667 0.8333
vt 0.7500 0.7500
vt 0.8333 0.7500
vt 0.8333 0.8333
vt 0.7500 0.8333
vt 0.9167 0.0000
vt 1.0000 0.1667
vt 1.0000 0.2500
vt 0.9167 0.2500
vt 0.9167 0.1667
vt 0.8333 0.7500
vt 0.9167 0.7500
vt 0.9167 0.8333
vt 0.8333 0.8333
vt 0.8333 0.0000
vt 0.8333 0.2500
vt 0.7500 0.2500
vt 0.7500 0.0000
vt 0.7500 0.5000
vt 0.8333 0.9167
vt 0.8333 0.8333
vt 0.9167 0.8333
vt 0.9167 0.9167
vt 0.9167 0.7500
vt 0.8333 0.7500
vt 0.8333 0.5833
vt 0.9167 0.5833
vt 0.7500 0.8333
vt 0.6667 0.8333
vt 0.6667 0.0000
vt 0.7500 0.0000
vt 0.8333 0.9167
vt 0.7500 0.9167
vt 0.7500 0.8333
vt 0.8333 0.8333
vt 0.9167 0.1667
vt 0.9167 0.0833
vt 1.0000 0.0833
vt 1.0000 0.1667
vt 0.8333 0.2500
vt 0.9167 0.2500
vt 0.9167 0.4167
vt 0.8333 0.4167
vn 0.0000 0.0000 -1.0000
vn 0.0000 -0.0000 1.0000
vn 0.0000 -1.0000 -0.0000
vn -1.0000 0.0000 0.0000
vn 1.0000 -0.0000 0.0000
vn 0.0000 1.0000 0.0000
usemtl palette.027
s off
f 1/1/1 2/2/1 3/3/1
f 4/4/2 5/5/2 6/6/2
f 7/7/1 8/8/1 9/9/1
f 10/10/2 11/11/2 12/12/2
f 13/13/1 14/14/1 15/15/1
f 16/16/2 17/17/2 18/18/2
f 17/17/2 19/19/2 18/18/2
f 20/20/1 21/21/1 22/22/1
f 23/23/2 24/24/2 17/17/2
f 23/23/2 17/17/2 25/25/2
f 22/22/1 26/26/1 20/20/1
f 11/11/2 27/27/2 4/4/2
f 28/28/3 4/29/3 29/30/3
f 13/31/3 17/32/3 30/33/3
f 11/11/2 4/4/2 31/34/2 12/12/2
f 32/35/1 3/3/1 2/2/1 29/36/1
f 29/36/1 8/8/1 28/37/1
f 4/4/2 27/27/2 5/5/2
f 20/20/1 8/8/1 7/7/1 21/21/1
f 1/1/1 9/9/1 2/2/1
f 30/38/1 33/39/1 20/20/1
f 20/20/1 26/26/1 14/14/1
f 13/13/1 20/20/1 14/14/1
f 30/38/1 20/20/1 13/13/1
f 17/17/2 24/24/2 34/40/2
f 8/8/1 20/20/1 33/39/1
f 12/12/2 24/24/2 23/23/2 10/10/2
f 29/36/1 2/2/1 9/9/1 8/8/1
f 1/41/4 3/42/4 5/43/4 27/44/4
f 16/16/2 25/25/2 17/17/2
f 32/45/5 29/46/5 4/47/5 6/48/5
f 5/49/3 3/50/3 32/51/3 6/52/3
f 28/53/5 8/54/5 12/55/5 31/56/5
f 1/57/6 27/58/6 11/59/6 9/60/6
f 28/28/3 31/61/3 4/29/3
f 7/62/4 9/63/4 11/64/4 10/65/4
f 24/66/4 33/67/4 30/68/4 34/69/4
f 14/70/5 26/71/5 16/72/5 18/73/5
f 30/33/3 17/32/3 34/74/3
f 17/75/4 13/76/4 15/77/4 19/78/4
f 19/79/3 15/80/3 14/81/3 18/82/3
f 7/83/6 10/84/6 23/85/6 21/86/6
f 22/87/6 25/88/6 16/89/6 26/90/6
f 25/91/5 22/92/5 21/93/5 23/94/5
f 12/95/3 8/96/3 33/97/3 24/98/3
