[
{"FirstName":"Kayden","LastName":"E.","Age":33,"Gender":0,"Instrument":0,"Stats":[40,16,40,35,19],"Rank":2,"Position":0},
{"FirstName":"Kayden","LastName":"E.","Age":33,"Gender":0,"Instrument":0,"Stats":[40,16,40,35,19],"Rank":2,"Position":0},
{"FirstName":"Frederick","LastName":"M.","Age":33,"Gender":0,"Instrument":1,"Stats":[34,31,21,25,39],"Rank":2,"Position":0},
{"FirstName":"Kayden","LastName":"E.","Age":33,"Gender":0,"Instrument":0,"Stats":[40,16,40,35,19],"Rank":2,"Position":0},
{"FirstName":"Frederick","LastName":"M.","Age":33,"Gender":0,"Instrument":1,"Stats":[34,31,21,25,39],"Rank":2,"Position":0},
{"FirstName":"Kaila","LastName":"M.","Age":34,"Gender":1,"Instrument":1,"Stats":[58,57,59,60,16],"Rank":3,"Position":0},
{"FirstName":"Kayden","LastName":"E.","Age":33,"Gender":0,"Instrument":0,"Stats":[40,16,40,35,19],"Rank":2,"Position":0},
{"FirstName":"Frederick","LastName":"M.","Age":33,"Gender":0,"Instrument":1,"Stats":[34,31,21,25,39],"Rank":2,"Position":0},
{"FirstName":"Kaila","LastName":"M.","Age":34,"Gender":1,"Instrument":1,"Stats":[58,57,59,60,16],"Rank":3,"Position":0},
{"FirstName":"Sydney","LastName":"F.","Age":49,"Gender":1,"Instrument":2,"Stats":[26,60,59,54,51],"Rank":3,"Position":0},
{"FirstName":"Kayden","LastName":"E.","Age":33,"Gender":0,"Instrument":0,"Stats":[40,16,40,35,19],"Rank":2,"Position":0},
{"FirstName":"Frederick","LastName":"M.","Age":33,"Gender":0,"Instrument":1,"Stats":[34,31,21,25,39],"Rank":2,"Position":0},
{"FirstName":"Kaila","LastName":"M.","Age":34,"Gender":1,"Instrument":1,"Stats":[58,57,59,60,16],"Rank":3,"Position":0},
{"FirstName":"Sydney","LastName":"F.","Age":49,"Gender":1,"Instrument":2,"Stats":[26,60,59,54,51],"Rank":3,"Position":0},
{"FirstName":"Kathy","LastName":"Q.","Age":33,"Gender":1,"Instrument":2,"Stats":[60,48,60,41,41],"Rank":3,"Position":0},
{"FirstName":"Kayden","LastName":"E.","Age":33,"Gender":0,"Instrument":0,"Stats":[40,16,40,35,19],"Rank":2,"Position":0},
{"FirstName":"Frederick","LastName":"M.","Age":33,"Gender":0,"Instrument":1,"Stats":[34,31,21,25,39],"Rank":2,"Position":0},
{"FirstName":"Kaila","LastName":"M.","Age":34,"Gender":1,"Instrument":1,"Stats":[58,57,59,60,16],"Rank":3,"Position":0},
{"FirstName":"Sydney","LastName":"F.","Age":49,"Gender":1,"Instrument":2,"Stats":[26,60,59,54,51],"Rank":3,"Position":0},
{"FirstName":"Kathy","LastName":"Q.","Age":33,"Gender":1,"Instrument":2,"Stats":[60,48,60,41,41],"Rank":3,"Position":0},
{"FirstName":"Jamie","LastName":"O.","Age":42,"Gender":1,"Instrument":3,"Stats":[40,37,33,19,21],"Rank":2,"Position":0},
{"FirstName":"Kayden","LastName":"E.","Age":33,"Gender":0,"Instrument":0,"Stats":[40,16,40,35,19],"Rank":2,"Position":0},
{"FirstName":"Frederick","LastName":"M.","Age":33,"Gender":0,"Instrument":1,"Stats":[34,31,21,25,39],"Rank":2,"Position":0},
{"FirstName":"Kaila","LastName":"M.","Age":34,"Gender":1,"Instrument":1,"Stats":[58,57,59,60,16],"Rank":3,"Position":0},
{"FirstName":"Sydney","LastName":"F.","Age":49,"Gender":1,"Instrument":2,"Stats":[26,60,59,54,51],"Rank":3,"Position":0},
{"FirstName":"Kathy","LastName":"Q.","Age":33,"Gender":1,"Instrument":2,"Stats":[60,48,60,41,41],"Rank":3,"Position":0},
{"FirstName":"Jamie","LastName":"O.","Age":42,"Gender":1,"Instrument":3,"Stats":[40,37,33,19,21],"Rank":2,"Position":0},
{"FirstName":"Zane","LastName":"C.","Age":34,"Gender":0,"Instrument":3,"Stats":[35,40,11,40,24],"Rank":2,"Position":0},
{"FirstName":"Kayden","LastName":"E.","Age":33,"Gender":0,"Instrument":0,"Stats":[40,16,40,35,19],"Rank":2,"Position":0},
{"FirstName":"Frederick","LastName":"M.","Age":33,"Gender":0,"Instrument":1,"Stats":[34,31,21,25,39],"Rank":2,"Position":0},
{"FirstName":"Kaila","LastName":"M.","Age":34,"Gender":1,"Instrument":1,"Stats":[58,57,59,60,16],"Rank":3,"Position":0},
{"FirstName":"Sydney","LastName":"F.","Age":49,"Gender":1,"Instrument":2,"Stats":[26,60,59,54,51],"Rank":3,"Position":0},
{"FirstName":"Kathy","LastName":"Q.","Age":33,"Gender":1,"Instrument":2,"Stats":[60,48,60,41,41],"Rank":3,"Position":0},
{"FirstName":"Jamie","LastName":"O.","Age":42,"Gender":1,"Instrument":3,"Stats":[40,37,33,19,21],"Rank":2,"Position":0},
{"FirstName":"Zane","LastName":"C.","Age":34,"Gender":0,"Instrument":3,"Stats":[35,40,11,40,24],"Rank":2,"Position":0},
{"FirstName":"Julius","LastName":"E.","Age":28,"Gender":0,"Instrument":4,"Stats":[60,60,60,12,58],"Rank":3,"Position":0},
{"FirstName":"Kayden","LastName":"E.","Age":33,"Gender":0,"Instrument":0,"Stats":[40,16,40,35,19],"Rank":2,"Position":0},
{"FirstName":"Frederick","LastName":"M.","Age":33,"Gender":0,"Instrument":1,"Stats":[34,31,21,25,39],"Rank":2,"Position":0},
{"FirstName":"Kaila","LastName":"M.","Age":34,"Gender":1,"Instrument":1,"Stats":[58,57,59,60,16],"Rank":3,"Position":0},
{"FirstName":"Sydney","LastName":"F.","Age":49,"Gender":1,"Instrument":2,"Stats":[26,60,59,54,51],"Rank":3,"Position":0},
{"FirstName":"Kathy","LastName":"Q.","Age":33,"Gender":1,"Instrument":2,"Stats":[60,48,60,41,41],"Rank":3,"Position":0},
{"FirstName":"Jamie","LastName":"O.","Age":42,"Gender":1,"Instrument":3,"Stats":[40,37,33,19,21],"Rank":2,"Position":0},
{"FirstName":"Zane","LastName":"C.","Age":34,"Gender":0,"Instrument":3,"Stats":[35,40,11,40,24],"Rank":2,"Position":0},
{"FirstName":"Julius","LastName":"E.","Age":28,"Gender":0,"Instrument":4,"Stats":[60,60,60,12,58],"Rank":3,"Position":0},
{"FirstName":"Antony","LastName":"H.","Age":32,"Gender":0,"Instrument":4,"Stats":[27,32,32,26,33],"Rank":2,"Position":0},
{"FirstName":"Kayden","LastName":"E.","Age":33,"Gender":0,"Instrument":0,"Stats":[40,16,40,35,19],"Rank":2,"Position":0},
{"FirstName":"Frederick","LastName":"M.","Age":33,"Gender":0,"Instrument":1,"Stats":[34,31,21,25,39],"Rank":2,"Position":0},
{"FirstName":"Kaila","LastName":"M.","Age":34,"Gender":1,"Instrument":1,"Stats":[58,57,59,60,16],"Rank":3,"Position":0},
{"FirstName":"Sydney","LastName":"F.","Age":49,"Gender":1,"Instrument":2,"Stats":[26,60,59,54,51],"Rank":3,"Position":0},
{"FirstName":"Kathy","LastName":"Q.","Age":33,"Gender":1,"Instrument":2,"Stats":[60,48,60,41,41],"Rank":3,"Position":0},
{"FirstName":"Jamie","LastName":"O.","Age":42,"Gender":1,"Instrument":3,"Stats":[40,37,33,19,21],"Rank":2,"Position":0},
{"FirstName":"Zane","LastName":"C.","Age":34,"Gender":0,"Instrument":3,"Stats":[35,40,11,40,24],"Rank":2,"Position":0},
{"FirstName":"Julius","LastName":"E.","Age":28,"Gender":0,"Instrument":4,"Stats":[60,60,60,12,58],"Rank":3,"Position":0},
{"FirstName":"Antony","LastName":"H.","Age":32,"Gender":0,"Instrument":4,"Stats":[27,32,32,26,33],"Rank":2,"Position":0},
{"FirstName":"Kyler","LastName":"J.","Age":38,"Gender":0,"Instrument":5,"Stats":[42,48,45,55,60],"Rank":3,"Position":0},
{"FirstName":"Kayden","LastName":"E.","Age":33,"Gender":0,"Instrument":0,"Stats":[40,16,40,35,19],"Rank":2,"Position":0},
{"FirstName":"Frederick","LastName":"M.","Age":33,"Gender":0,"Instrument":1,"Stats":[34,31,21,25,39],"Rank":2,"Position":0},
{"FirstName":"Kaila","LastName":"M.","Age":34,"Gender":1,"Instrument":1,"Stats":[58,57,59,60,16],"Rank":3,"Position":0},
{"FirstName":"Sydney","LastName":"F.","Age":49,"Gender":1,"Instrument":2,"Stats":[26,60,59,54,51],"Rank":3,"Position":0},
{"FirstName":"Kathy","LastName":"Q.","Age":33,"Gender":1,"Instrument":2,"Stats":[60,48,60,41,41],"Rank":3,"Position":0},
{"FirstName":"Jamie","LastName":"O.","Age":42,"Gender":1,"Instrument":3,"Stats":[40,37,33,19,21],"Rank":2,"Position":0},
{"FirstName":"Zane","LastName":"C.","Age":34,"Gender":0,"Instrument":3,"Stats":[35,40,11,40,24],"Rank":2,"Position":0},
{"FirstName":"Julius","LastName":"E.","Age":28,"Gender":0,"Instrument":4,"Stats":[60,60,60,12,58],"Rank":3,"Position":0},
{"FirstName":"Antony","LastName":"H.","Age":32,"Gender":0,"Instrument":4,"Stats":[27,32,32,26,33],"Rank":2,"Position":0},
{"FirstName":"Kyler","LastName":"J.","Age":38,"Gender":0,"Instrument":5,"Stats":[42,48,45,55,60],"Rank":3,"Position":0},
{"FirstName":"Larry","LastName":"D.","Age":42,"Gender":0,"Instrument":5,"Stats":[36,60,41,53,60],"Rank":3,"Position":0},
{"FirstName":"Kayden","LastName":"E.","Age":33,"Gender":0,"Instrument":0,"Stats":[40,16,40,35,19],"Rank":2,"Position":0},
{"FirstName":"Frederick","LastName":"M.","Age":33,"Gender":0,"Instrument":1,"Stats":[34,31,21,25,39],"Rank":2,"Position":0},
{"FirstName":"Kaila","LastName":"M.","Age":34,"Gender":1,"Instrument":1,"Stats":[58,57,59,60,16],"Rank":3,"Position":0},
{"FirstName":"Sydney","LastName":"F.","Age":49,"Gender":1,"Instrument":2,"Stats":[26,60,59,54,51],"Rank":3,"Position":0},
{"FirstName":"Kathy","LastName":"Q.","Age":33,"Gender":1,"Instrument":2,"Stats":[60,48,60,41,41],"Rank":3,"Position":0},
{"FirstName":"Jamie","LastName":"O.","Age":42,"Gender":1,"Instrument":3,"Stats":[40,37,33,19,21],"Rank":2,"Position":0},
{"FirstName":"Zane","LastName":"C.","Age":34,"Gender":0,"Instrument":3,"Stats":[35,40,11,40,24],"Rank":2,"Position":0},
{"FirstName":"Julius","LastName":"E.","Age":28,"Gender":0,"Instrument":4,"Stats":[60,60,60,12,58],"Rank":3,"Position":0},
{"FirstName":"Antony","LastName":"H.","Age":32,"Gender":0,"Instrument":4,"Stats":[27,32,32,26,33],"Rank":2,"Position":0},
{"FirstName":"Kyler","LastName":"J.","Age":38,"Gender":0,"Instrument":5,"Stats":[42,48,45,55,60],"Rank":3,"Position":0},
{"FirstName":"Larry","LastName":"D.","Age":42,"Gender":0,"Instrument":5,"Stats":[36,60,41,53,60],"Rank":3,"Position":0},
{"FirstName":"Maya","LastName":"V.","Age":40,"Gender":1,"Instrument":5,"Stats":[60,13,60,60,57],"Rank":3,"Position":0},
{"FirstName":"Kayden","LastName":"E.","Age":33,"Gender":0,"Instrument":0,"Stats":[40,16,40,35,19],"Rank":2,"Position":0},
{"FirstName":"Frederick","LastName":"M.","Age":33,"Gender":0,"Instrument":1,"Stats":[34,31,21,25,39],"Rank":2,"Position":0},
{"FirstName":"Kaila","LastName":"M.","Age":34,"Gender":1,"Instrument":1,"Stats":[58,57,59,60,16],"Rank":3,"Position":0},
{"FirstName":"Sydney","LastName":"F.","Age":49,"Gender":1,"Instrument":2,"Stats":[26,60,59,54,51],"Rank":3,"Position":0},
{"FirstName":"Kathy","LastName":"Q.","Age":33,"Gender":1,"Instrument":2,"Stats":[60,48,60,41,41],"Rank":3,"Position":0},
{"FirstName":"Jamie","LastName":"O.","Age":42,"Gender":1,"Instrument":3,"Stats":[40,37,33,19,21],"Rank":2,"Position":0},
{"FirstName":"Zane","LastName":"C.","Age":34,"Gender":0,"Instrument":3,"Stats":[35,40,11,40,24],"Rank":2,"Position":0},
{"FirstName":"Julius","LastName":"E.","Age":28,"Gender":0,"Instrument":4,"Stats":[60,60,60,12,58],"Rank":3,"Position":0},
{"FirstName":"Antony","LastName":"H.","Age":32,"Gender":0,"Instrument":4,"Stats":[27,32,32,26,33],"Rank":2,"Position":0},
{"FirstName":"Kyler","LastName":"J.","Age":38,"Gender":0,"Instrument":5,"Stats":[42,48,45,55,60],"Rank":3,"Position":0},
{"FirstName":"Larry","LastName":"D.","Age":42,"Gender":0,"Instrument":5,"Stats":[36,60,41,53,60],"Rank":3,"Position":0},
{"FirstName":"Maya","LastName":"V.","Age":40,"Gender":1,"Instrument":5,"Stats":[60,13,60,60,57],"Rank":3,"Position":0},
{"FirstName":"Patrick","LastName":"J.","Age":45,"Gender":0,"Instrument":5,"Stats":[40,40,34,14,22],"Rank":2,"Position":0},
{"FirstName":"Kayden","LastName":"E.","Age":33,"Gender":0,"Instrument":0,"Stats":[40,16,40,35,19],"Rank":2,"Position":0},
{"FirstName":"Frederick","LastName":"M.","Age":33,"Gender":0,"Instrument":1,"Stats":[34,31,21,25,39],"Rank":2,"Position":0},
{"FirstName":"Kaila","LastName":"M.","Age":34,"Gender":1,"Instrument":1,"Stats":[58,57,59,60,16],"Rank":3,"Position":0},
{"FirstName":"Sydney","LastName":"F.","Age":49,"Gender":1,"Instrument":2,"Stats":[26,60,59,54,51],"Rank":3,"Position":0},
{"FirstName":"Kathy","LastName":"Q.","Age":33,"Gender":1,"Instrument":2,"Stats":[60,48,60,41,41],"Rank":3,"Position":0},
{"FirstName":"Jamie","LastName":"O.","Age":42,"Gender":1,"Instrument":3,"Stats":[40,37,33,19,21],"Rank":2,"Position":0},
{"FirstName":"Zane","LastName":"C.","Age":34,"Gender":0,"Instrument":3,"Stats":[35,40,11,40,24],"Rank":2,"Position":0},
{"FirstName":"Julius","LastName":"E.","Age":28,"Gender":0,"Instrument":4,"Stats":[60,60,60,12,58],"Rank":3,"Position":0},
{"FirstName":"Antony","LastName":"H.","Age":32,"Gender":0,"Instrument":4,"Stats":[27,32,32,26,33],"Rank":2,"Position":0},
{"FirstName":"Kyler","LastName":"J.","Age":38,"Gender":0,"Instrument":5,"Stats":[42,48,45,55,60],"Rank":3,"Position":0},
{"FirstName":"Larry","LastName":"D.","Age":42,"Gender":0,"Instrument":5,"Stats":[36,60,41,53,60],"Rank":3,"Position":0},
{"FirstName":"Maya","LastName":"V.","Age":40,"Gender":1,"Instrument":5,"Stats":[60,13,60,60,57],"Rank":3,"Position":0},
{"FirstName":"Patrick","LastName":"J.","Age":45,"Gender":0,"Instrument":5,"Stats":[40,40,34,14,22],"Rank":2,"Position":0},
{"FirstName":"Leo","LastName":"B.","Age":39,"Gender":0,"Instrument":6,"Stats":[60,10,60,60,60],"Rank":3,"Position":0},
{"FirstName":"Kayden","LastName":"E.","Age":33,"Gender":0,"Instrument":0,"Stats":[40,16,40,35,19],"Rank":2,"Position":0},
{"FirstName":"Frederick","LastName":"M.","Age":33,"Gender":0,"Instrument":1,"Stats":[34,31,21,25,39],"Rank":2,"Position":0},
{"FirstName":"Kaila","LastName":"M.","Age":34,"Gender":1,"Instrument":1,"Stats":[58,57,59,60,16],"Rank":3,"Position":0},
{"FirstName":"Sydney","LastName":"F.","Age":49,"Gender":1,"Instrument":2,"Stats":[26,60,59,54,51],"Rank":3,"Position":0},
{"FirstName":"Kathy","LastName":"Q.","Age":33,"Gender":1,"Instrument":2,"Stats":[60,48,60,41,41],"Rank":3,"Position":0},
{"FirstName":"Jamie","LastName":"O.","Age":42,"Gender":1,"Instrument":3,"Stats":[40,37,33,19,21],"Rank":2,"Position":0},
{"FirstName":"Zane","LastName":"C.","Age":34,"Gender":0,"Instrument":3,"Stats":[35,40,11,40,24],"Rank":2,"Position":0},
{"FirstName":"Julius","LastName":"E.","Age":28,"Gender":0,"Instrument":4,"Stats":[60,60,60,12,58],"Rank":3,"Position":0},
{"FirstName":"Antony","LastName":"H.","Age":32,"Gender":0,"Instrument":4,"Stats":[27,32,32,26,33],"Rank":2,"Position":0},
{"FirstName":"Kyler","LastName":"J.","Age":38,"Gender":0,"Instrument":5,"Stats":[42,48,45,55,60],"Rank":3,"Position":0},
{"FirstName":"Larry","LastName":"D.","Age":42,"Gender":0,"Instrument":5,"Stats":[36,60,41,53,60],"Rank":3,"Position":0},
{"FirstName":"Maya","LastName":"V.","Age":40,"Gender":1,"Instrument":5,"Stats":[60,13,60,60,57],"Rank":3,"Position":0},
{"FirstName":"Patrick","LastName":"J.","Age":45,"Gender":0,"Instrument":5,"Stats":[40,40,34,14,22],"Rank":2,"Position":0},
{"FirstName":"Leo","LastName":"B.","Age":39,"Gender":0,"Instrument":6,"Stats":[60,10,60,60,60],"Rank":3,"Position":0},
{"FirstName":"Haylie","LastName":"H.","Age":47,"Gender":1,"Instrument":6,"Stats":[40,38,40,26,6],"Rank":2,"Position":0},
{"FirstName":"Kayden","LastName":"E.","Age":33,"Gender":0,"Instrument":0,"Stats":[40,16,40,35,19],"Rank":2,"Position":0},
{"FirstName":"Frederick","LastName":"M.","Age":33,"Gender":0,"Instrument":1,"Stats":[34,31,21,25,39],"Rank":2,"Position":0},
{"FirstName":"Kaila","LastName":"M.","Age":34,"Gender":1,"Instrument":1,"Stats":[58,57,59,60,16],"Rank":3,"Position":0},
{"FirstName":"Sydney","LastName":"F.","Age":49,"Gender":1,"Instrument":2,"Stats":[26,60,59,54,51],"Rank":3,"Position":0},
{"FirstName":"Kathy","LastName":"Q.","Age":33,"Gender":1,"Instrument":2,"Stats":[60,48,60,41,41],"Rank":3,"Position":0},
{"FirstName":"Jamie","LastName":"O.","Age":42,"Gender":1,"Instrument":3,"Stats":[40,37,33,19,21],"Rank":2,"Position":0},
{"FirstName":"Zane","LastName":"C.","Age":34,"Gender":0,"Instrument":3,"Stats":[35,40,11,40,24],"Rank":2,"Position":0},
{"FirstName":"Julius","LastName":"E.","Age":28,"Gender":0,"Instrument":4,"Stats":[60,60,60,12,58],"Rank":3,"Position":0},
{"FirstName":"Antony","LastName":"H.","Age":32,"Gender":0,"Instrument":4,"Stats":[27,32,32,26,33],"Rank":2,"Position":0},
{"FirstName":"Kyler","LastName":"J.","Age":38,"Gender":0,"Instrument":5,"Stats":[42,48,45,55,60],"Rank":3,"Position":0},
{"FirstName":"Larry","LastName":"D.","Age":42,"Gender":0,"Instrument":5,"Stats":[36,60,41,53,60],"Rank":3,"Position":0},
{"FirstName":"Maya","LastName":"V.","Age":40,"Gender":1,"Instrument":5,"Stats":[60,13,60,60,57],"Rank":3,"Position":0},
{"FirstName":"Patrick","LastName":"J.","Age":45,"Gender":0,"Instrument":5,"Stats":[40,40,34,14,22],"Rank":2,"Position":0},
{"FirstName":"Leo","LastName":"B.","Age":39,"Gender":0,"Instrument":6,"Stats":[60,10,60,60,60],"Rank":3,"Position":0},
{"FirstName":"Haylie","LastName":"H.","Age":47,"Gender":1,"Instrument":6,"Stats":[40,38,40,26,6],"Rank":2,"Position":0},
{"FirstName":"Ellie","LastName":"G.","Age":47,"Gender":1,"Instrument":7,"Stats":[80,80,80,55,80],"Rank":4,"Position":0},
{"FirstName":"Kayden","LastName":"E.","Age":33,"Gender":0,"Instrument":0,"Stats":[40,16,40,35,19],"Rank":2,"Position":0},
{"FirstName":"Frederick","LastName":"M.","Age":33,"Gender":0,"Instrument":1,"Stats":[34,31,21,25,39],"Rank":2,"Position":0},
{"FirstName":"Kaila","LastName":"M.","Age":34,"Gender":1,"Instrument":1,"Stats":[58,57,59,60,16],"Rank":3,"Position":0},
{"FirstName":"Sydney","LastName":"F.","Age":49,"Gender":1,"Instrument":2,"Stats":[26,60,59,54,51],"Rank":3,"Position":0},
{"FirstName":"Kathy","LastName":"Q.","Age":33,"Gender":1,"Instrument":2,"Stats":[60,48,60,41,41],"Rank":3,"Position":0},
{"FirstName":"Jamie","LastName":"O.","Age":42,"Gender":1,"Instrument":3,"Stats":[40,37,33,19,21],"Rank":2,"Position":0},
{"FirstName":"Zane","LastName":"C.","Age":34,"Gender":0,"Instrument":3,"Stats":[35,40,11,40,24],"Rank":2,"Position":0},
{"FirstName":"Julius","LastName":"E.","Age":28,"Gender":0,"Instrument":4,"Stats":[60,60,60,12,58],"Rank":3,"Position":0},
{"FirstName":"Antony","LastName":"H.","Age":32,"Gender":0,"Instrument":4,"Stats":[27,32,32,26,33],"Rank":2,"Position":0},
{"FirstName":"Kyler","LastName":"J.","Age":38,"Gender":0,"Instrument":5,"Stats":[42,48,45,55,60],"Rank":3,"Position":0},
{"FirstName":"Larry","LastName":"D.","Age":42,"Gender":0,"Instrument":5,"Stats":[36,60,41,53,60],"Rank":3,"Position":0},
{"FirstName":"Maya","LastName":"V.","Age":40,"Gender":1,"Instrument":5,"Stats":[60,13,60,60,57],"Rank":3,"Position":0},
{"FirstName":"Patrick","LastName":"J.","Age":45,"Gender":0,"Instrument":5,"Stats":[40,40,34,14,22],"Rank":2,"Position":0},
{"FirstName":"Leo","LastName":"B.","Age":39,"Gender":0,"Instrument":6,"Stats":[60,10,60,60,60],"Rank":3,"Position":0},
{"FirstName":"Haylie","LastName":"H.","Age":47,"Gender":1,"Instrument":6,"Stats":[40,38,40,26,6],"Rank":2,"Position":0},
{"FirstName":"Ellie","LastName":"G.","Age":47,"Gender":1,"Instrument":7,"Stats":[80,80,80,55,80],"Rank":4,"Position":0},
{"FirstName":"Kaley","LastName":"L.","Age":37,"Gender":1,"Instrument":7,"Stats":[60,58,40,43,49],"Rank":3,"Position":0},
{"FirstName":"Kayden","LastName":"E.","Age":33,"Gender":0,"Instrument":0,"Stats":[40,16,40,35,19],"Rank":2,"Position":0},
{"FirstName":"Frederick","LastName":"M.","Age":33,"Gender":0,"Instrument":1,"Stats":[34,31,21,25,39],"Rank":2,"Position":0},
{"FirstName":"Kaila","LastName":"M.","Age":34,"Gender":1,"Instrument":1,"Stats":[58,57,59,60,16],"Rank":3,"Position":0},
{"FirstName":"Sydney","LastName":"F.","Age":49,"Gender":1,"Instrument":2,"Stats":[26,60,59,54,51],"Rank":3,"Position":0},
{"FirstName":"Kathy","LastName":"Q.","Age":33,"Gender":1,"Instrument":2,"Stats":[60,48,60,41,41],"Rank":3,"Position":0},
{"FirstName":"Jamie","LastName":"O.","Age":42,"Gender":1,"Instrument":3,"Stats":[40,37,33,19,21],"Rank":2,"Position":0},
{"FirstName":"Zane","LastName":"C.","Age":34,"Gender":0,"Instrument":3,"Stats":[35,40,11,40,24],"Rank":2,"Position":0},
{"FirstName":"Julius","LastName":"E.","Age":28,"Gender":0,"Instrument":4,"Stats":[60,60,60,12,58],"Rank":3,"Position":0},
{"FirstName":"Antony","LastName":"H.","Age":32,"Gender":0,"Instrument":4,"Stats":[27,32,32,26,33],"Rank":2,"Position":0},
{"FirstName":"Kyler","LastName":"J.","Age":38,"Gender":0,"Instrument":5,"Stats":[42,48,45,55,60],"Rank":3,"Position":0},
{"FirstName":"Larry","LastName":"D.","Age":42,"Gender":0,"Instrument":5,"Stats":[36,60,41,53,60],"Rank":3,"Position":0},
{"FirstName":"Maya","LastName":"V.","Age":40,"Gender":1,"Instrument":5,"Stats":[60,13,60,60,57],"Rank":3,"Position":0},
{"FirstName":"Patrick","LastName":"J.","Age":45,"Gender":0,"Instrument":5,"Stats":[40,40,34,14,22],"Rank":2,"Position":0},
{"FirstName":"Leo","LastName":"B.","Age":39,"Gender":0,"Instrument":6,"Stats":[60,10,60,60,60],"Rank":3,"Position":0},
{"FirstName":"Haylie","LastName":"H.","Age":47,"Gender":1,"Instrument":6,"Stats":[40,38,40,26,6],"Rank":2,"Position":0},
{"FirstName":"Ellie","LastName":"G.","Age":47,"Gender":1,"Instrument":7,"Stats":[80,80,80,55,80],"Rank":4,"Position":0},
{"FirstName":"Kaley","LastName":"L.","Age":37,"Gender":1,"Instrument":7,"Stats":[60,58,40,43,49],"Rank":3,"Position":0},
{"FirstName":"Grayson","LastName":"U.","Age":40,"Gender":0,"Instrument":7,"Stats":[60,58,46,51,35],"Rank":3,"Position":0},
{"FirstName":"Kayden","LastName":"E.","Age":33,"Gender":0,"Instrument":0,"Stats":[40,16,40,35,19],"Rank":2,"Position":0},
{"FirstName":"Frederick","LastName":"M.","Age":33,"Gender":0,"Instrument":1,"Stats":[34,31,21,25,39],"Rank":2,"Position":0},
{"FirstName":"Kaila","LastName":"M.","Age":34,"Gender":1,"Instrument":1,"Stats":[58,57,59,60,16],"Rank":3,"Position":0},
{"FirstName":"Sydney","LastName":"F.","Age":49,"Gender":1,"Instrument":2,"Stats":[26,60,59,54,51],"Rank":3,"Position":0},
{"FirstName":"Kathy","LastName":"Q.","Age":33,"Gender":1,"Instrument":2,"Stats":[60,48,60,41,41],"Rank":3,"Position":0},
{"FirstName":"Jamie","LastName":"O.","Age":42,"Gender":1,"Instrument":3,"Stats":[40,37,33,19,21],"Rank":2,"Position":0},
{"FirstName":"Zane","LastName":"C.","Age":34,"Gender":0,"Instrument":3,"Stats":[35,40,11,40,24],"Rank":2,"Position":0},
{"FirstName":"Julius","LastName":"E.","Age":28,"Gender":0,"Instrument":4,"Stats":[60,60,60,12,58],"Rank":3,"Position":0},
{"FirstName":"Antony","LastName":"H.","Age":32,"Gender":0,"Instrument":4,"Stats":[27,32,32,26,33],"Rank":2,"Position":0},
{"FirstName":"Kyler","LastName":"J.","Age":38,"Gender":0,"Instrument":5,"Stats":[42,48,45,55,60],"Rank":3,"Position":0},
{"FirstName":"Larry","LastName":"D.","Age":42,"Gender":0,"Instrument":5,"Stats":[36,60,41,53,60],"Rank":3,"Position":0},
{"FirstName":"Maya","LastName":"V.","Age":40,"Gender":1,"Instrument":5,"Stats":[60,13,60,60,57],"Rank":3,"Position":0},
{"FirstName":"Patrick","LastName":"J.","Age":45,"Gender":0,"Instrument":5,"Stats":[40,40,34,14,22],"Rank":2,"Position":0},
{"FirstName":"Leo","LastName":"B.","Age":39,"Gender":0,"Instrument":6,"Stats":[60,10,60,60,60],"Rank":3,"Position":0},
{"FirstName":"Haylie","LastName":"H.","Age":47,"Gender":1,"Instrument":6,"Stats":[40,38,40,26,6],"Rank":2,"Position":0},
{"FirstName":"Ellie","LastName":"G.","Age":47,"Gender":1,"Instrument":7,"Stats":[80,80,80,55,80],"Rank":4,"Position":0},
{"FirstName":"Kaley","LastName":"L.","Age":37,"Gender":1,"Instrument":7,"Stats":[60,58,40,43,49],"Rank":3,"Position":0},
{"FirstName":"Grayson","LastName":"U.","Age":40,"Gender":0,"Instrument":7,"Stats":[60,58,46,51,35],"Rank":3,"Position":0},
{"FirstName":"Brian","LastName":"Z.","Age":50,"Gender":0,"Instrument":7,"Stats":[60,60,42,60,28],"Rank":3,"Position":0},
{"FirstName":"Kayden","LastName":"E.","Age":33,"Gender":0,"Instrument":0,"Stats":[40,16,40,35,19],"Rank":2,"Position":0},
{"FirstName":"Frederick","LastName":"M.","Age":33,"Gender":0,"Instrument":1,"Stats":[34,31,21,25,39],"Rank":2,"Position":0},
{"FirstName":"Kaila","LastName":"M.","Age":34,"Gender":1,"Instrument":1,"Stats":[58,57,59,60,16],"Rank":3,"Position":0},
{"FirstName":"Sydney","LastName":"F.","Age":49,"Gender":1,"Instrument":2,"Stats":[26,60,59,54,51],"Rank":3,"Position":0},
{"FirstName":"Kathy","LastName":"Q.","Age":33,"Gender":1,"Instrument":2,"Stats":[60,48,60,41,41],"Rank":3,"Position":0},
{"FirstName":"Jamie","LastName":"O.","Age":42,"Gender":1,"Instrument":3,"Stats":[40,37,33,19,21],"Rank":2,"Position":0},
{"FirstName":"Zane","LastName":"C.","Age":34,"Gender":0,"Instrument":3,"Stats":[35,40,11,40,24],"Rank":2,"Position":0},
{"FirstName":"Julius","LastName":"E.","Age":28,"Gender":0,"Instrument":4,"Stats":[60,60,60,12,58],"Rank":3,"Position":0},
{"FirstName":"Antony","LastName":"H.","Age":32,"Gender":0,"Instrument":4,"Stats":[27,32,32,26,33],"Rank":2,"Position":0},
{"FirstName":"Kyler","LastName":"J.","Age":38,"Gender":0,"Instrument":5,"Stats":[42,48,45,55,60],"Rank":3,"Position":0},
{"FirstName":"Larry","LastName":"D.","Age":42,"Gender":0,"Instrument":5,"Stats":[36,60,41,53,60],"Rank":3,"Position":0},
{"FirstName":"Maya","LastName":"V.","Age":40,"Gender":1,"Instrument":5,"Stats":[60,13,60,60,57],"Rank":3,"Position":0},
{"FirstName":"Patrick","LastName":"J.","Age":45,"Gender":0,"Instrument":5,"Stats":[40,40,34,14,22],"Rank":2,"Position":0},
{"FirstName":"Leo","LastName":"B.","Age":39,"Gender":0,"Instrument":6,"Stats":[60,10,60,60,60],"Rank":3,"Position":0},
{"FirstName":"Haylie","LastName":"H.","Age":47,"Gender":1,"Instrument":6,"Stats":[40,38,40,26,6],"Rank":2,"Position":0},
{"FirstName":"Ellie","LastName":"G.","Age":47,"Gender":1,"Instrument":7,"Stats":[80,80,80,55,80],"Rank":4,"Position":0},
{"FirstName":"Kaley","LastName":"L.","Age":37,"Gender":1,"Instrument":7,"Stats":[60,58,40,43,49],"Rank":3,"Position":0},
{"FirstName":"Grayson","LastName":"U.","Age":40,"Gender":0,"Instrument":7,"Stats":[60,58,46,51,35],"Rank":3,"Position":0},
{"FirstName":"Brian","LastName":"Z.","Age":50,"Gender":0,"Instrument":7,"Stats":[60,60,42,60,28],"Rank":3,"Position":0},
{"FirstName":"Kathryn","LastName":"T.","Age":49,"Gender":1,"Instrument":7,"Stats":[60,35,43,60,52],"Rank":3,"Position":0},
{"FirstName":"Kayden","LastName":"E.","Age":33,"Gender":0,"Instrument":0,"Stats":[40,16,40,35,19],"Rank":2,"Position":0},
{"FirstName":"Frederick","LastName":"M.","Age":33,"Gender":0,"Instrument":1,"Stats":[34,31,21,25,39],"Rank":2,"Position":0},
{"FirstName":"Kaila","LastName":"M.","Age":34,"Gender":1,"Instrument":1,"Stats":[58,57,59,60,16],"Rank":3,"Position":0},
{"FirstName":"Sydney","LastName":"F.","Age":49,"Gender":1,"Instrument":2,"Stats":[26,60,59,54,51],"Rank":3,"Position":0},
{"FirstName":"Kathy","LastName":"Q.","Age":33,"Gender":1,"Instrument":2,"Stats":[60,48,60,41,41],"Rank":3,"Position":0},
{"FirstName":"Jamie","LastName":"O.","Age":42,"Gender":1,"Instrument":3,"Stats":[40,37,33,19,21],"Rank":2,"Position":0},
{"FirstName":"Zane","LastName":"C.","Age":34,"Gender":0,"Instrument":3,"Stats":[35,40,11,40,24],"Rank":2,"Position":0},
{"FirstName":"Julius","LastName":"E.","Age":28,"Gender":0,"Instrument":4,"Stats":[60,60,60,12,58],"Rank":3,"Position":0},
{"FirstName":"Antony","LastName":"H.","Age":32,"Gender":0,"Instrument":4,"Stats":[27,32,32,26,33],"Rank":2,"Position":0},
{"FirstName":"Kyler","LastName":"J.","Age":38,"Gender":0,"Instrument":5,"Stats":[42,48,45,55,60],"Rank":3,"Position":0},
{"FirstName":"Larry","LastName":"D.","Age":42,"Gender":0,"Instrument":5,"Stats":[36,60,41,53,60],"Rank":3,"Position":0},
{"FirstName":"Maya","LastName":"V.","Age":40,"Gender":1,"Instrument":5,"Stats":[60,13,60,60,57],"Rank":3,"Position":0},
{"FirstName":"Patrick","LastName":"J.","Age":45,"Gender":0,"Instrument":5,"Stats":[40,40,34,14,22],"Rank":2,"Position":0},
{"FirstName":"Leo","LastName":"B.","Age":39,"Gender":0,"Instrument":6,"Stats":[60,10,60,60,60],"Rank":3,"Position":0},
{"FirstName":"Haylie","LastName":"H.","Age":47,"Gender":1,"Instrument":6,"Stats":[40,38,40,26,6],"Rank":2,"Position":0},
{"FirstName":"Ellie","LastName":"G.","Age":47,"Gender":1,"Instrument":7,"Stats":[80,80,80,55,80],"Rank":4,"Position":0},
{"FirstName":"Kaley","LastName":"L.","Age":37,"Gender":1,"Instrument":7,"Stats":[60,58,40,43,49],"Rank":3,"Position":0},
{"FirstName":"Grayson","LastName":"U.","Age":40,"Gender":0,"Instrument":7,"Stats":[60,58,46,51,35],"Rank":3,"Position":0},
{"FirstName":"Brian","LastName":"Z.","Age":50,"Gender":0,"Instrument":7,"Stats":[60,60,42,60,28],"Rank":3,"Position":0},
{"FirstName":"Kathryn","LastName":"T.","Age":49,"Gender":1,"Instrument":7,"Stats":[60,35,43,60,52],"Rank":3,"Position":0},
{"FirstName":"Adrianna","LastName":"T.","Age":49,"Gender":1,"Instrument":7,"Stats":[31,60,60,60,39],"Rank":3,"Position":0},
{"FirstName":"Kayden","LastName":"E.","Age":33,"Gender":0,"Instrument":0,"Stats":[40,16,40,35,19],"Rank":2,"Position":0},
{"FirstName":"Frederick","LastName":"M.","Age":33,"Gender":0,"Instrument":1,"Stats":[34,31,21,25,39],"Rank":2,"Position":0},
{"FirstName":"Kaila","LastName":"M.","Age":34,"Gender":1,"Instrument":1,"Stats":[58,57,59,60,16],"Rank":3,"Position":0},
{"FirstName":"Sydney","LastName":"F.","Age":49,"Gender":1,"Instrument":2,"Stats":[26,60,59,54,51],"Rank":3,"Position":0},
{"FirstName":"Kathy","LastName":"Q.","Age":33,"Gender":1,"Instrument":2,"Stats":[60,48,60,41,41],"Rank":3,"Position":0},
{"FirstName":"Jamie","LastName":"O.","Age":42,"Gender":1,"Instrument":3,"Stats":[40,37,33,19,21],"Rank":2,"Position":0},
{"FirstName":"Zane","LastName":"C.","Age":34,"Gender":0,"Instrument":3,"Stats":[35,40,11,40,24],"Rank":2,"Position":0},
{"FirstName":"Julius","LastName":"E.","Age":28,"Gender":0,"Instrument":4,"Stats":[60,60,60,12,58],"Rank":3,"Position":0},
{"FirstName":"Antony","LastName":"H.","Age":32,"Gender":0,"Instrument":4,"Stats":[27,32,32,26,33],"Rank":2,"Position":0},
{"FirstName":"Kyler","LastName":"J.","Age":38,"Gender":0,"Instrument":5,"Stats":[42,48,45,55,60],"Rank":3,"Position":0},
{"FirstName":"Larry","LastName":"D.","Age":42,"Gender":0,"Instrument":5,"Stats":[36,60,41,53,60],"Rank":3,"Position":0},
{"FirstName":"Maya","LastName":"V.","Age":40,"Gender":1,"Instrument":5,"Stats":[60,13,60,60,57],"Rank":3,"Position":0},
{"FirstName":"Patrick","LastName":"J.","Age":45,"Gender":0,"Instrument":5,"Stats":[40,40,34,14,22],"Rank":2,"Position":0},
{"FirstName":"Leo","LastName":"B.","Age":39,"Gender":0,"Instrument":6,"Stats":[60,10,60,60,60],"Rank":3,"Position":0},
{"FirstName":"Haylie","LastName":"H.","Age":47,"Gender":1,"Instrument":6,"Stats":[40,38,40,26,6],"Rank":2,"Position":0},
{"FirstName":"Ellie","LastName":"G.","Age":47,"Gender":1,"Instrument":7,"Stats":[80,80,80,55,80],"Rank":4,"Position":0},
{"FirstName":"Kaley","LastName":"L.","Age":37,"Gender":1,"Instrument":7,"Stats":[60,58,40,43,49],"Rank":3,"Position":0},
{"FirstName":"Grayson","LastName":"U.","Age":40,"Gender":0,"Instrument":7,"Stats":[60,58,46,51,35],"Rank":3,"Position":0},
{"FirstName":"Brian","LastName":"Z.","Age":50,"Gender":0,"Instrument":7,"Stats":[60,60,42,60,28],"Rank":3,"Position":0},
{"FirstName":"Kathryn","LastName":"T.","Age":49,"Gender":1,"Instrument":7,"Stats":[60,35,43,60,52],"Rank":3,"Position":0},
{"FirstName":"Adrianna","LastName":"T.","Age":49,"Gender":1,"Instrument":7,"Stats":[31,60,60,60,39],"Rank":3,"Position":0},
{"FirstName":"Gaven","LastName":"C.","Age":49,"Gender":0,"Instrument":7,"Stats":[80,80,65,70,80],"Rank":4,"Position":0},
{"FirstName":"Kayden","LastName":"E.","Age":33,"Gender":0,"Instrument":0,"Stats":[40,16,40,35,19],"Rank":2,"Position":0},
{"FirstName":"Frederick","LastName":"M.","Age":33,"Gender":0,"Instrument":1,"Stats":[34,31,21,25,39],"Rank":2,"Position":0},
{"FirstName":"Kaila","LastName":"M.","Age":34,"Gender":1,"Instrument":1,"Stats":[58,57,59,60,16],"Rank":3,"Position":0},
{"FirstName":"Sydney","LastName":"F.","Age":49,"Gender":1,"Instrument":2,"Stats":[26,60,59,54,51],"Rank":3,"Position":0},
{"FirstName":"Kathy","LastName":"Q.","Age":33,"Gender":1,"Instrument":2,"Stats":[60,48,60,41,41],"Rank":3,"Position":0},
{"FirstName":"Jamie","LastName":"O.","Age":42,"Gender":1,"Instrument":3,"Stats":[40,37,33,19,21],"Rank":2,"Position":0},
{"FirstName":"Zane","LastName":"C.","Age":34,"Gender":0,"Instrument":3,"Stats":[35,40,11,40,24],"Rank":2,"Position":0},
{"FirstName":"Julius","LastName":"E.","Age":28,"Gender":0,"Instrument":4,"Stats":[60,60,60,12,58],"Rank":3,"Position":0},
{"FirstName":"Antony","LastName":"H.","Age":32,"Gender":0,"Instrument":4,"Stats":[27,32,32,26,33],"Rank":2,"Position":0},
{"FirstName":"Kyler","LastName":"J.","Age":38,"Gender":0,"Instrument":5,"Stats":[42,48,45,55,60],"Rank":3,"Position":0},
{"FirstName":"Larry","LastName":"D.","Age":42,"Gender":0,"Instrument":5,"Stats":[36,60,41,53,60],"Rank":3,"Position":0},
{"FirstName":"Maya","LastName":"V.","Age":40,"Gender":1,"Instrument":5,"Stats":[60,13,60,60,57],"Rank":3,"Position":0},
{"FirstName":"Patrick","LastName":"J.","Age":45,"Gender":0,"Instrument":5,"Stats":[40,40,34,14,22],"Rank":2,"Position":0},
{"FirstName":"Leo","LastName":"B.","Age":39,"Gender":0,"Instrument":6,"Stats":[60,10,60,60,60],"Rank":3,"Position":0},
{"FirstName":"Haylie","LastName":"H.","Age":47,"Gender":1,"Instrument":6,"Stats":[40,38,40,26,6],"Rank":2,"Position":0},
{"FirstName":"Ellie","LastName":"G.","Age":47,"Gender":1,"Instrument":7,"Stats":[80,80,80,55,80],"Rank":4,"Position":0},
{"FirstName":"Kaley","LastName":"L.","Age":37,"Gender":1,"Instrument":7,"Stats":[60,58,40,43,49],"Rank":3,"Position":0},
{"FirstName":"Grayson","LastName":"U.","Age":40,"Gender":0,"Instrument":7,"Stats":[60,58,46,51,35],"Rank":3,"Position":0},
{"FirstName":"Brian","LastName":"Z.","Age":50,"Gender":0,"Instrument":7,"Stats":[60,60,42,60,28],"Rank":3,"Position":0},
{"FirstName":"Kathryn","LastName":"T.","Age":49,"Gender":1,"Instrument":7,"Stats":[60,35,43,60,52],"Rank":3,"Position":0},
{"FirstName":"Adrianna","LastName":"T.","Age":49,"Gender":1,"Instrument":7,"Stats":[31,60,60,60,39],"Rank":3,"Position":0},
{"FirstName":"Gaven","LastName":"C.","Age":49,"Gender":0,"Instrument":7,"Stats":[80,80,65,70,80],"Rank":4,"Position":0},
{"FirstName":"Russell","LastName":"Y.","Age":43,"Gender":0,"Instrument":7,"Stats":[80,80,80,80,55],"Rank":4,"Position":0},
{"FirstName":"Kayden","LastName":"E.","Age":33,"Gender":0,"Instrument":0,"Stats":[40,16,40,35,19],"Rank":2,"Position":0},
{"FirstName":"Frederick","LastName":"M.","Age":33,"Gender":0,"Instrument":1,"Stats":[34,31,21,25,39],"Rank":2,"Position":0},
{"FirstName":"Kaila","LastName":"M.","Age":34,"Gender":1,"Instrument":1,"Stats":[58,57,59,60,16],"Rank":3,"Position":0},
{"FirstName":"Sydney","LastName":"F.","Age":49,"Gender":1,"Instrument":2,"Stats":[26,60,59,54,51],"Rank":3,"Position":0},
{"FirstName":"Kathy","LastName":"Q.","Age":33,"Gender":1,"Instrument":2,"Stats":[60,48,60,41,41],"Rank":3,"Position":0},
{"FirstName":"Jamie","LastName":"O.","Age":42,"Gender":1,"Instrument":3,"Stats":[40,37,33,19,21],"Rank":2,"Position":0},
{"FirstName":"Zane","LastName":"C.","Age":34,"Gender":0,"Instrument":3,"Stats":[35,40,11,40,24],"Rank":2,"Position":0},
{"FirstName":"Julius","LastName":"E.","Age":28,"Gender":0,"Instrument":4,"Stats":[60,60,60,12,58],"Rank":3,"Position":0},
{"FirstName":"Antony","LastName":"H.","Age":32,"Gender":0,"Instrument":4,"Stats":[27,32,32,26,33],"Rank":2,"Position":0},
{"FirstName":"Kyler","LastName":"J.","Age":38,"Gender":0,"Instrument":5,"Stats":[42,48,45,55,60],"Rank":3,"Position":0},
{"FirstName":"Larry","LastName":"D.","Age":42,"Gender":0,"Instrument":5,"Stats":[36,60,41,53,60],"Rank":3,"Position":0},
{"FirstName":"Maya","LastName":"V.","Age":40,"Gender":1,"Instrument":5,"Stats":[60,13,60,60,57],"Rank":3,"Position":0},
{"FirstName":"Patrick","LastName":"J.","Age":45,"Gender":0,"Instrument":5,"Stats":[40,40,34,14,22],"Rank":2,"Position":0},
{"FirstName":"Leo","LastName":"B.","Age":39,"Gender":0,"Instrument":6,"Stats":[60,10,60,60,60],"Rank":3,"Position":0},
{"FirstName":"Haylie","LastName":"H.","Age":47,"Gender":1,"Instrument":6,"Stats":[40,38,40,26,6],"Rank":2,"Position":0},
{"FirstName":"Ellie","LastName":"G.","Age":47,"Gender":1,"Instrument":7,"Stats":[80,80,80,55,80],"Rank":4,"Position":0},
{"FirstName":"Kaley","LastName":"L.","Age":37,"Gender":1,"Instrument":7,"Stats":[60,58,40,43,49],"Rank":3,"Position":0},
{"FirstName":"Grayson","LastName":"U.","Age":40,"Gender":0,"Instrument":7,"Stats":[60,58,46,51,35],"Rank":3,"Position":0},
{"FirstName":"Brian","LastName":"Z.","Age":50,"Gender":0,"Instrument":7,"Stats":[60,60,42,60,28],"Rank":3,"Position":0},
{"FirstName":"Kathryn","LastName":"T.","Age":49,"Gender":1,"Instrument":7,"Stats":[60,35,43,60,52],"Rank":3,"Position":0},
{"FirstName":"Adrianna","LastName":"T.","Age":49,"Gender":1,"Instrument":7,"Stats":[31,60,60,60,39],"Rank":3,"Position":0},
{"FirstName":"Gaven","LastName":"C.","Age":49,"Gender":0,"Instrument":7,"Stats":[80,80,65,70,80],"Rank":4,"Position":0},
{"FirstName":"Russell","LastName":"Y.","Age":43,"Gender":0,"Instrument":7,"Stats":[80,80,80,80,55],"Rank":4,"Position":0},
{"FirstName":"Willow","LastName":"S.","Age":36,"Gender":1,"Instrument":7,"Stats":[60,80,80,80,75],"Rank":4,"Position":0},
]