# Blender v2.78 (sub 0) OBJ File: ''
# www.blender.org
mtllib charHairPatchy.mtl
o copy_charHairPatchy.001
v -20.000006 6.999993 -2.000030
v -18.000019 4.999960 -2.000031
v -20.000006 4.999960 -2.000031
v -19.000013 4.999960 0.000002
v -20.000006 4.999960 0.000002
v -15.000040 4.999960 -4.000017
v -17.000027 4.999960 -3.000025
v -17.000027 4.999960 -4.000017
v -17.000027 6.999993 -4.000017
v -15.000040 3.999969 -3.000025
v -17.000027 3.999968 -2.000031
v -17.000027 3.999969 -3.000025
v -15.000040 -0.000004 -7.000000
v -20.000006 6.000000 0.000002
v -21.000046 6.000000 0.999994
v -21.000046 6.000000 0.000002
v -19.000013 6.000000 0.000002
v -19.000013 6.000000 0.999994
v -17.000027 4.999959 3.999975
v -17.000027 6.999991 2.999981
v -17.000027 4.999959 2.999981
v -17.000027 6.999991 3.999975
v -15.000040 4.999959 3.999975
v -14.000046 -0.000004 -7.000000
v -15.000040 -0.000008 7.000000
v -15.000040 3.999967 2.999981
v -15.000040 4.999959 2.999981
v -17.000027 3.999967 0.999994
v -14.000046 9.999971 7.000002
v -14.000046 -0.000008 7.000000
v -18.000019 4.999960 0.999994
v -19.000013 4.999960 0.999994
v -20.000006 6.999992 -1.000038
v -20.000006 6.000000 -1.000038
v -22.000038 6.000000 -1.000038
v -19.000013 6.999992 -1.000038
v -18.000019 6.999993 -2.000030
v -15.000040 6.999993 -4.000017
v -15.000040 10.999968 -6.999996
v -14.000046 9.999975 -6.999998
v -17.000027 7.999987 0.999995
v -17.000027 7.999988 -2.000030
v -18.000019 7.999987 -1.000038
v -15.000040 7.999988 -3.000025
v -11.541884 9.999973 1.712786
v -15.000040 6.999993 -3.000025
v -17.000027 6.999993 -3.000025
v -18.000019 6.999992 -1.000038
v -11.993579 10.999966 -1.045495
v -3.019748 10.999968 -6.999996
v -5.000013 10.999968 -3.000023
v 14.000000 9.999975 -6.999998
v -8.982316 9.999975 -3.556714
v -6.000006 11.999960 0.000004
v -6.000006 10.999966 0.000004
v 5.999960 10.999966 0.000004
v 4.999966 11.999960 -2.000029
v -5.000013 11.999962 -3.000023
v -5.000013 11.999960 -2.000029
v 4.999966 10.999968 -3.000023
v -21.000046 6.999992 0.999995
v -18.000019 7.999987 0.999995
v -18.000019 7.999987 0.000002
v -15.000040 7.999986 2.999981
v -17.000027 7.999986 2.999981
v -15.000040 6.999991 3.999975
v -15.000040 6.999991 2.999981
v -15.000040 10.999964 7.000004
v -19.000013 6.999991 1.999989
v -19.000013 6.000000 1.999989
v -18.000019 6.000000 1.999989
v -18.000019 6.999992 0.999995
v -19.000013 6.999992 0.999995
v 14.000000 9.999971 7.000002
v -6.000006 11.999960 1.999991
v -6.000006 10.999966 1.999990
v 5.999960 10.999966 1.999990
v -6.000006 11.999960 0.999996
v 5.999960 10.999966 0.999996
v -6.000006 10.999966 0.999996
v 5.999960 11.999960 1.999991
v 4.999966 10.999964 2.999983
v -5.000013 10.999964 2.999983
v -5.000013 10.999964 3.999977
v 14.999992 3.999969 -3.000025
v 14.999992 -0.000004 -7.000000
v 14.999992 4.999960 -4.000017
v 16.999981 4.999960 -4.000017
v 16.999981 4.999960 -3.000025
v 16.999981 6.999993 -4.000017
v 16.999981 3.999969 -3.000025
v 16.999981 3.999968 -2.000031
v 14.999992 3.999967 2.999981
v 17.999973 6.999993 -2.000030
v 19.999958 4.999960 -2.000031
v 17.999973 4.999960 -2.000031
v 18.999966 4.999960 0.000002
v 21.999992 6.000000 -1.000038
v 21.999992 6.000000 0.000002
v 21.000000 6.000000 0.000002
v 14.000000 -0.000008 7.000000
v 14.000000 -0.000004 -7.000000
v 14.999992 4.999959 3.999975
v 14.999992 4.999959 2.999981
v 16.999981 3.999967 1.909725
v 16.999983 3.999967 2.999981
v 16.999983 3.999967 0.999994
v 16.999981 6.999991 3.999975
v 16.999981 4.999959 3.999975
v 14.999992 -0.000008 7.000000
v 16.999981 4.999959 2.999981
v 19.999958 6.000000 0.000002
v 18.999966 6.000000 0.999994
v 18.999966 6.000000 0.000002
v 21.000000 6.000000 0.999994
v 10.930176 10.999966 -2.218556
v 4.999966 10.999966 -2.000029
v 5.999960 10.999966 -1.000036
v 5.999960 11.999960 -1.000036
v -6.000006 10.999966 -1.000036
v 14.000000 9.999973 -2.530378
v 10.548605 9.999973 -0.078325
v 17.999973 7.999987 -1.000038
v 16.999981 7.999988 -2.000030
v 16.999983 7.999987 0.999995
v 17.999973 7.999988 -2.000030
v 16.999981 6.999993 -3.000025
v 14.999992 6.999993 -4.000017
v 14.999992 6.999993 -3.000025
v 14.999992 7.999988 -3.000025
v 14.999992 10.999968 -6.999996
v 14.999992 10.999964 7.000004
v 19.999958 6.999992 -1.000038
v 19.999958 6.381945 -1.000038
v 19.999958 6.999993 -2.000030
v 19.999958 6.381946 -2.000030
v 18.999966 6.999992 0.000002
v 18.999966 6.999992 -1.000038
v 4.999966 11.999958 3.999977
v 4.999966 10.999964 3.999977
v 14.999992 7.999986 2.999981
v 14.999992 6.999991 3.999975
v 14.999992 6.999991 2.999981
v 14.000000 8.864582 4.105906
v 16.999983 7.999986 2.999981
v 18.999966 6.999991 1.999989
v 16.999979 6.999991 1.999989
v 17.999973 6.000000 1.999989
v 16.999981 7.999986 1.909726
v 16.999981 6.999991 2.999981
v 21.000000 6.999992 0.999995
v 21.000000 6.999992 0.000002
v 18.999966 6.000000 1.999989
v 5.999960 11.999960 0.000004
v -17.000027 6.999991 1.999989
v -17.000027 4.999959 1.999988
v 16.999979 4.999959 1.999988
v -21.000046 6.999992 0.000002
v -19.000013 6.999992 0.000002
v 17.999973 4.999960 0.999994
v 17.999973 7.999987 0.000002
v -18.000019 4.999960 -3.000025
v -17.000027 4.999960 -2.000031
v -22.000038 6.000000 0.000002
v -18.000019 3.999968 -2.000031
v -15.000040 4.999960 -3.000025
v -18.000019 3.999967 0.999994
v -17.000027 4.999960 0.999994
v -18.000019 4.999959 1.999988
v -17.000027 3.999967 2.999981
v -18.000019 6.000000 0.999994
v -22.000038 6.999992 -1.000038
v -22.000038 6.999992 0.000002
v -19.000013 7.999987 -1.000038
v -19.000013 7.999987 0.000002
v -18.000019 6.999993 -3.000025
v -17.000027 6.999993 -2.000030
v -17.000027 7.999988 -3.000025
v -18.000019 7.999988 -2.000030
v -18.000019 6.999992 0.000002
v -5.000013 10.999966 -2.000029
v -6.000006 11.999960 -1.000036
v -17.000027 6.999992 0.999995
v -5.000013 11.999958 2.999983
v -5.000013 11.999958 3.999977
v 4.999966 11.999958 2.999983
v 5.753039 10.999964 7.000004
v 16.999981 4.999960 -2.000031
v 17.999973 4.999960 -3.000025
v 14.999992 4.999960 -3.000025
v 17.999973 3.999968 -2.000031
v 19.999962 6.000000 -1.000038
v 19.999960 4.999960 0.000002
v 19.999958 5.618056 -2.000030
v 17.999973 3.999967 0.999994
v 16.999981 4.999960 0.999994
v 17.999973 4.999959 1.999988
v 17.999973 6.000000 0.999994
v 18.999966 4.999960 0.999994
v 4.999966 11.999962 -3.000023
v 16.999981 6.999993 -2.000030
v 17.999973 6.999993 -3.000025
v 16.999981 7.999988 -3.000025
v 17.999973 6.999992 -1.000038
v 18.999966 7.999987 -1.000038
v 18.999966 7.999987 0.000002
v 21.999992 6.999992 -1.000038
v 21.999992 6.999992 0.000002
v 17.999973 6.999992 0.000002
v 5.999960 11.999960 0.999996
v 17.999973 7.999987 0.999995
v 17.999973 6.999992 0.999995
v 16.999981 6.999992 0.999995
v 18.999966 6.999992 0.999995
vt 0.7308 0.9200
vt 0.7692 0.9600
vt 0.7308 0.9600
vt 0.6731 0.9200
vt 0.6538 0.9200
vt 0.6538 0.8800
vt 0.6923 0.8800
vt 0.0769 0.9600
vt 0.0962 1.0000
vt 0.0769 1.0000
vt 0.7308 0.9600
vt 0.6923 0.9200
vt 0.7308 0.9200
vt 0.4808 0.6800
vt 0.5192 0.6600
vt 0.5192 0.6800
vt 0.2692 0.8400
vt 0.3462 0.7600
vt 0.3654 0.7800
vt 0.5962 0.9000
vt 0.6154 0.9200
vt 0.5962 0.9200
vt 0.5962 0.8800
vt 0.6154 0.8800
vt 0.0769 0.9400
vt 0.0962 0.9000
vt 0.0962 0.9400
vt 0.8846 0.8800
vt 0.8846 0.9200
vt 0.8462 0.9200
vt 0.5192 0.9600
vt 0.5385 0.6800
vt 0.5385 0.9600
vt 0.3462 0.6400
vt 0.3654 0.6200
vt 0.3654 0.6400
vt 0.4808 0.5600
vt 0.5192 0.6000
vt 0.6346 0.9400
vt 0.6538 0.9400
vt 0.6538 0.9800
vt 0.6346 0.9800
vt 0.7308 0.5800
vt 0.5385 0.6000
vt 0.5385 0.5800
vt 0.6923 0.9400
vt 0.6731 0.9400
vt 0.4423 0.9800
vt 0.4231 0.9800
vt 0.4231 0.9400
vt 0.0577 0.9200
vt 0.0769 0.9000
vt 0.0769 0.9400
vt 0.0577 0.9400
vt 0.4038 0.7800
vt 0.4808 0.8400
vt 0.7500 0.6000
vt 0.7692 0.5800
vt 0.9615 0.6000
vt 0.3077 0.9200
vt 0.3077 0.8600
vt 0.3269 0.8800
vt 0.4231 0.7600
vt 0.4368 0.5108
vt 0.5385 0.5600
vt 0.2692 0.5600
vt 0.1154 1.0000
vt 0.0962 1.0000
vt 0.1154 0.9600
vt 0.2692 0.8400
vt 0.0577 0.9000
vt 0.1547 0.5399
vt 0.2692 0.3604
vt 0.2692 0.6000
vt 0.1923 0.4000
vt 0.2692 0.0000
vt 0.3354 0.4596
vt 0.7500 0.3604
vt 0.7692 0.0200
vt 0.9615 0.2400
vt 0.9808 0.2400
vt 0.9808 0.4800
vt 0.9808 1.0000
vt 0.9615 0.8000
vt 0.9808 0.8000
vt 0.2692 0.7200
vt 0.2500 0.9200
vt 0.2500 0.7200
vt 0.9038 0.9200
vt 0.9231 0.9200
vt 0.9231 0.9600
vt 0.3269 0.9200
vt 0.3269 0.9000
vt 0.2692 0.9600
vt 0.3077 0.9600
vt 0.4038 0.6200
vt 0.4231 0.6400
vt 0.4038 0.6400
vt 0.0000 0.6000
vt 0.7115 0.9000
vt 0.7308 0.9200
vt 0.6923 0.9200
vt 0.6923 0.9000
vt 0.2692 0.5600
vt 0.4808 0.5600
vt 0.7692 0.9600
vt 0.7692 0.9400
vt 0.7885 0.9400
vt 0.0000 0.9200
vt 0.0192 0.9000
vt 0.0192 0.9200
vt 0.5385 0.0000
vt 0.7500 0.6000
vt 0.7308 0.0200
vt 0.9615 0.0000
vt 0.9808 0.0000
vt 0.9808 0.2400
vt 0.9615 0.6000
vt 0.9423 0.8400
vt 0.9423 0.6000
vt 0.2500 0.9600
vt 0.2308 0.7200
vt 0.2500 0.7200
vt 0.0769 0.2000
vt 0.0962 0.1800
vt 0.0769 0.4000
vt 0.0577 0.4000
vt 0.0962 0.4200
vt 0.1346 0.8000
vt 0.2115 0.8800
vt 0.1154 0.8200
vt 0.9231 0.8400
vt 0.9423 0.8400
vt 0.9231 0.8800
vt 0.7692 0.9200
vt 0.7692 0.8800
vt 0.8077 0.8800
vt 0.2500 0.6000
vt 0.2500 0.6200
vt 0.2115 0.6000
vt 0.2115 0.7200
vt 0.8846 0.8800
vt 0.9231 0.9200
vt 0.8846 0.9200
vt 0.6154 0.9400
vt 0.6346 0.9000
vt 0.6538 0.9400
vt 0.5769 0.9400
vt 0.5577 0.9400
vt 0.5577 0.9200
vt 0.5000 0.9600
vt 0.5192 0.6800
vt 0.5192 0.9600
vt 0.1154 0.6600
vt 0.1346 0.6800
vt 0.1154 0.6800
vt 0.2500 0.6982
vt 0.2500 0.7200
vt 0.6731 0.9800
vt 0.6538 0.9800
vt 0.6538 0.9400
vt 0.2500 0.6800
vt 0.8077 0.8800
vt 0.8462 0.9200
vt 0.8077 0.9200
vt 0.5962 0.9400
vt 0.5962 0.9800
vt 0.5769 0.9800
vt 0.2115 0.6000
vt 0.5769 0.9400
vt 0.5577 0.9000
vt 0.5385 0.8800
vt 0.5577 0.8800
vt 0.5385 0.9200
vt 0.1923 0.2000
vt 0.1773 0.0814
vt 0.1731 0.2000
vt 0.1538 0.1800
vt 0.9423 0.8400
vt 0.9231 0.8400
vt 0.9231 0.6000
vt 0.1538 0.4200
vt 0.1346 0.1800
vt 0.7308 0.8800
vt 0.9231 0.7906
vt 0.9231 0.8800
vt 0.3552 0.0000
vt 0.4023 0.0690
vt 0.3654 0.8800
vt 0.3846 0.8600
vt 0.3846 0.9200
vt 0.3654 0.8600
vt 0.9423 0.9200
vt 0.9231 0.8800
vt 0.9423 0.8800
vt 0.0577 0.8000
vt 0.0769 0.8200
vt 0.0000 0.8800
vt 0.7308 0.6000
vt 0.0000 0.6000
vt 0.2115 0.9200
vt 0.1923 0.9600
vt 0.1997 0.9200
vt 0.9231 0.8800
vt 0.9231 0.8924
vt 0.4615 0.9000
vt 0.4808 0.8800
vt 0.4808 0.9000
vt 0.9808 0.6000
vt 1.0000 0.4000
vt 1.0000 0.6000
vt 0.1154 0.1800
vt 0.0577 0.6800
vt 0.0769 0.6600
vt 0.0769 0.6800
vt 0.9012 0.6579
vt 0.3846 0.9600
vt 0.4231 0.8400
vt 0.4231 0.9600
vt 0.8462 0.9600
vt 0.8077 0.9600
vt 0.8269 0.9400
vt 0.3846 0.9382
vt 0.5000 0.9400
vt 0.4808 0.9800
vt 0.4808 0.9400
vt 0.9231 0.6000
vt 0.3462 1.0000
vt 0.3462 0.9800
vt 0.3654 1.0000
vt 0.1923 0.9200
vt 0.2115 0.8800
vt 0.2115 0.9200
vt 0.8462 0.9400
vt 0.2308 0.9600
vt 0.2115 0.9600
vt 0.2308 0.7200
vt 0.7308 0.8800
vt 0.8846 0.9200
vt 0.9038 0.9200
vt 0.9038 0.9600
vt 0.9615 0.0000
vt 0.9615 0.0200
vt 0.8462 0.9600
vt 0.8654 0.9200
vt 0.8654 0.9600
vt 0.8077 0.9200
vt 0.8077 0.9600
vt 0.8077 0.9200
vt 0.8462 0.8800
vt 0.8077 0.9200
vt 0.1346 0.9400
vt 0.1538 0.9000
vt 0.1538 0.9400
vt 0.7500 0.0000
vt 0.5385 0.0000
vt 0.3846 1.0000
vt 0.4038 0.9800
vt 0.4038 1.0000
vt 0.0385 0.9200
vt 0.0385 0.9600
vt 0.6538 0.8800
vt 0.1154 0.4200
vt 0.3654 0.9000
vt 0.5769 0.9400
vt 0.5769 0.9000
vt 0.3269 0.9600
vt 0.3462 0.9600
vt 0.3462 0.9800
vt 0.3269 0.9800
vt 0.4231 0.9600
vt 0.4231 0.9800
vt 0.4038 0.9800
vt 0.4038 0.9600
vt 0.5962 0.9400
vt 0.8846 0.9600
vt 0.4231 0.9800
vt 0.4231 1.0000
vt 0.4038 1.0000
vt 0.4038 0.9800
vt 0.5385 1.0000
vt 0.5192 1.0000
vt 0.5192 0.9800
vt 0.5385 0.9800
vt 0.1346 1.0000
vt 0.1346 0.9600
vt 0.1538 0.9600
vt 0.1538 1.0000
vt 0.2885 0.9600
vt 0.2885 0.9800
vt 0.2692 0.9800
vt 0.2692 0.9600
vt 0.3654 0.7600
vt 0.0962 0.9600
vt 0.3654 0.9800
vt 0.3846 0.9800
vt 0.3846 1.0000
vt 0.3654 1.0000
vt 0.7885 0.9200
vt 0.5192 0.5600
vt 0.1154 0.9400
vt 0.1346 0.9600
vt 0.0962 0.9600
vt 0.1154 1.0000
vt 0.1154 0.9600
vt 0.1346 0.9600
vt 0.1346 1.0000
vt 0.1731 0.9600
vt 0.1731 0.9800
vt 0.1538 0.9800
vt 0.1538 0.9600
vt 0.7308 0.9600
vt 0.7308 0.9800
vt 0.7115 0.9800
vt 0.7115 0.9600
vt 0.1346 0.9400
vt 0.2308 0.9600
vt 0.2500 0.9600
vt 0.2500 0.9800
vt 0.2308 0.9800
vt 0.5385 0.8800
vt 0.7308 0.6000
vt 0.7308 0.8800
vt 0.5192 0.6800
vt 0.5385 0.9600
vt 0.5385 0.9800
vt 0.5192 0.9800
vt 0.5192 0.9600
vt 0.4038 0.9800
vt 0.3846 0.9800
vt 0.3846 0.9600
vt 0.4038 0.9600
vt 0.5000 0.8200
vt 0.4808 0.8200
vt 0.4808 0.8000
vt 0.5000 0.8000
vt 0.0577 0.9800
vt 0.0385 0.9800
vt 0.7115 0.8800
vt 0.4808 0.9800
vt 0.5000 0.9800
vt 0.5000 1.0000
vt 0.4808 1.0000
vt 0.4423 0.9400
vt 0.7500 0.9800
vt 0.7500 0.9600
vt 0.7692 0.9600
vt 0.7692 0.9800
vt 0.0962 0.9600
vt 0.0769 0.9800
vt 0.0769 1.0000
vt 0.0577 1.0000
vt 0.0577 0.9800
vt 0.3077 0.8400
vt 0.2692 1.0000
vt 0.2500 1.0000
vt 0.2500 0.9800
vt 0.2692 0.9800
vt 0.6346 0.9400
vt 0.6346 0.9800
vt 0.6154 0.9800
vt 0.6154 0.9400
vt 0.3269 0.9800
vt 0.3269 1.0000
vt 0.3077 1.0000
vt 0.3077 0.9800
vt 0.3269 0.8600
vt 0.3462 0.8800
vt 0.3462 0.9000
vt 0.4038 0.7600
vt 0.8077 0.9800
vt 0.7885 0.9800
vt 0.7885 0.9600
vt 0.8077 0.9600
vt 0.7692 0.9600
vt 0.7885 0.9600
vt 0.7885 0.9800
vt 0.7692 0.9800
vt 0.8654 0.9600
vt 0.8654 0.9800
vt 0.8462 0.9800
vt 0.8462 0.9600
vt 0.1346 0.4200
vt 0.1731 0.4000
vt 0.3269 0.9800
vt 0.3077 0.9800
vt 0.3077 0.9600
vt 0.3269 0.9600
vt 1.0000 0.0000
vt 1.0000 0.2000
vt 0.9808 0.2000
vt 0.9808 0.0000
vt 0.2115 0.7200
vt 0.9423 0.6000
vt 0.0192 0.9600
vt 0.3846 0.9800
vt 0.2308 0.9800
vt 0.2308 1.0000
vt 0.2115 1.0000
vt 0.2115 0.9800
vt 0.9038 0.9600
vt 0.8846 0.9600
vt 0.8846 0.9800
vt 0.8654 0.9800
vt 0.8654 0.9600
vt 0.3269 0.9800
vt 0.3462 0.9800
vt 0.3462 1.0000
vt 0.3269 1.0000
vt 0.0962 0.8800
vt 0.1346 0.8800
vt 0.1154 0.9000
vt 0.5962 0.9800
vt 0.5962 0.9400
vt 0.6154 0.9400
vt 0.6154 0.9800
vt 0.0192 0.8800
vt 0.0000 0.8800
vt 0.0385 0.9000
vt 0.1346 0.9000
vt 0.5385 0.6000
vt 0.6923 0.9800
vt 0.6731 0.9800
vt 0.6923 0.9400
vt 0.6731 0.9400
vt 0.9038 0.9600
vt 0.9038 0.9800
vt 0.8846 0.9800
vt 0.8846 0.9600
vt 0.0192 0.9800
vt 0.0192 1.0000
vt 0.0000 1.0000
vt 0.0000 0.9800
vt 0.9808 0.4000
vt 0.9808 0.2000
vt 1.0000 0.2000
vt 1.0000 0.4000
vt 0.9615 0.2400
vt 0.9808 0.8000
vt 0.9615 0.8000
vt 0.9615 0.6000
vt 0.9808 0.6000
vt 0.0000 0.1849
vt 0.0577 0.2000
vt 0.9808 0.4000
vt 0.0577 0.9800
vt 0.0577 1.0000
vt 0.0385 1.0000
vt 0.0385 0.9800
vt 0.7500 0.1849
vt 0.1154 0.8000
vt 0.8462 0.9200
vt 0.9231 0.9600
vt 0.9231 0.9200
vt 0.9423 0.9200
vt 0.9423 0.9600
vt 0.4423 0.9800
vt 0.4423 1.0000
vt 0.4231 1.0000
vt 0.4231 0.9800
vt 0.4615 1.0000
vt 0.4423 1.0000
vt 0.4423 0.9800
vt 0.4615 0.9800
vt 0.5769 0.9000
vt 0.9423 0.8800
vt 0.7500 0.9000
vt 0.7308 0.9000
vt 0.7308 0.8800
vt 0.2500 0.9600
vt 0.2692 0.9600
vt 0.2692 0.9800
vt 0.2500 0.9800
vt 0.9231 0.9076
vt 0.7692 0.8800
vt 0.7692 0.8924
vt 0.5000 0.9800
vt 0.5192 0.9800
vt 0.5192 1.0000
vt 0.5000 1.0000
vt 0.6154 0.9000
vt 0.8269 0.9200
vt 0.1538 0.8800
vt 0.1748 0.8800
vt 0.1731 0.9000
vt 0.2308 0.9600
vt 0.2308 0.9800
vt 0.2115 0.9800
vt 0.2115 0.9600
vt 0.6923 0.9800
vt 0.6923 0.9600
vt 0.7115 0.9600
vt 0.7115 0.9800
vt 0.1923 0.8800
vt 0.1923 0.9000
vt 0.2115 0.9600
vt 0.2115 0.9800
vt 0.1923 0.9800
vt 0.1923 0.9600
vt 0.6731 0.9400
vt 0.5000 0.6800
vt 0.1346 0.9000
vt 0.5385 0.0200
vt 0.3654 0.9600
vt 0.3846 0.9600
vt 0.3846 0.9800
vt 0.3654 0.9800
vt 0.6346 0.8800
vt 0.1923 0.9800
vt 0.1923 1.0000
vt 0.1731 1.0000
vt 0.1731 0.9800
vt 0.9231 0.9600
vt 0.9231 0.9800
vt 0.9038 0.9800
vt 0.9038 0.9600
vt 0.3077 0.9800
vt 0.2885 0.9800
vt 0.2885 0.9600
vt 0.3077 0.9600
vt 0.9231 0.9800
vt 0.9231 0.9600
vt 0.9423 0.9600
vt 0.9423 0.9800
vt 0.9615 1.0000
vt 0.2692 0.9200
vt 0.2692 0.0000
vt 0.7500 0.0000
vt 0.0769 0.8000
vt 0.9231 0.9200
vt 0.3846 0.8400
vt 0.5577 0.9400
vt 0.5577 0.9800
vt 0.5385 0.9800
vt 0.5385 0.9400
vt 0.1731 0.9800
vt 0.1731 1.0000
vt 0.1538 1.0000
vt 0.1538 0.9800
vt 0.3077 1.0000
vt 0.2885 1.0000
vt 0.2885 0.9800
vt 0.3077 0.9800
vt 0.0385 0.9800
vt 0.0385 1.0000
vt 0.0192 1.0000
vt 0.0192 0.9800
vt 0.1923 0.9800
vt 0.1731 0.9800
vt 0.1731 0.9600
vt 0.1923 0.9600
vt 0.0000 0.0000
vt 0.7692 0.9076
vt 0.7692 0.9200
vt 0.7500 0.9200
vt 0.7500 0.9076
vt 0.5000 0.8800
vt 0.5000 0.9200
vt 0.3654 0.9800
vt 0.3462 0.9800
vt 0.3462 0.9600
vt 0.3654 0.9600
vt 0.4615 0.8600
vt 0.4615 0.8400
vt 0.4808 0.8400
vt 0.4615 0.9800
vt 0.4808 0.9800
vt 0.4808 1.0000
vt 0.4615 1.0000
vt 0.2115 0.9600
vt 0.3462 0.9000
vt 0.3462 0.8800
vt 0.2500 1.0000
vt 0.2308 1.0000
vt 0.2308 0.9800
vt 0.2500 0.9800
vt 0.4808 0.9200
vt 0.2692 0.9800
vt 0.2885 0.9800
vt 0.2885 1.0000
vt 0.2692 1.0000
vt 0.5192 0.9600
vt 0.5192 0.9800
vt 0.5000 0.9800
vt 0.5000 0.9600
vt 0.9615 0.8400
vt 0.2308 0.9600
vt 0.7500 0.9600
vt 0.7500 0.9800
vt 0.7308 0.9800
vt 0.7308 0.9600
vt 0.8462 0.9600
vt 0.8462 0.9800
vt 0.8269 0.9800
vt 0.8269 0.9600
vt 0.3654 0.9200
vt 0.1923 0.9800
vt 0.2115 0.9800
vt 0.2115 1.0000
vt 0.1923 1.0000
vt 0.1731 0.9400
vt 0.1748 0.9600
vt 0.1538 0.9600
vt 0.5000 0.9800
vt 0.4423 0.9400
vt 0.4231 0.9400
vt 0.4231 0.9000
vt 0.4423 0.9200
vt 0.1923 0.9400
vt 0.1923 0.9600
vt 0.4423 0.9000
vt 0.4423 0.8600
vt 0.5769 0.9400
vt 0.5769 0.9800
vt 0.5577 0.9400
vt 0.5577 0.9800
vt 0.8269 0.9600
vt 0.8269 0.9800
vt 0.8077 0.9800
vt 0.8077 0.9600
vt 0.1923 0.8800
vt 0.4615 0.9200
vt 0.8846 0.9200
vt 0.8846 0.9600
vt 0.8654 0.9600
vt 0.8654 0.9200
vt 0.9615 0.4800
vt 0.9615 0.5800
vt 0.4808 0.9800
vt 0.4615 0.9800
vt 0.4615 0.9400
vt 0.4808 0.9400
vt 0.2692 0.9200
vt 0.2692 0.9600
vt 0.2500 0.9600
vt 0.2500 0.9200
vt 0.6923 0.9600
vt 0.7692 0.9200
vt 0.4615 0.9800
vt 0.4423 0.9800
vt 0.4423 0.9400
vt 0.4615 0.9400
vt 0.1923 0.9200
vt 0.0769 0.9000
vt 0.5385 0.6000
vt 0.5385 0.6600
vt 0.8462 0.8800
vt 0.5000 0.7400
vt 0.4808 0.7400
vt 0.4808 0.6800
vt 0.5000 0.6800
vt 0.2692 0.6200
vt 0.2692 0.6800
vt 0.5000 0.8000
vt 0.4808 0.8000
vt 0.4808 0.7400
vt 0.5000 0.7400
vt 0.3654 0.9800
vn 0.0000 0.0000 -1.0000
vn 0.0000 -1.0000 0.0000
vn -1.0000 0.0000 0.0000
vn 0.0000 -0.0000 1.0000
vn 0.0000 1.0000 0.0000
vn 1.0000 0.0000 0.0000
usemtl palette.016
s off
f 1/1/1 2/2/1 3/3/1
f 4/4/2 5/5/2 3/6/2
f 2/7/2 4/4/2 3/6/2
f 6/8/2 7/9/2 8/10/2
f 9/11/1 6/12/1 8/13/1
f 10/14/2 11/15/2 12/16/2
f 13/17/3 10/18/3 6/19/3
f 14/20/2 15/21/2 16/22/2
f 17/23/2 18/24/2 14/20/2
f 19/25/3 20/26/3 21/27/3
f 22/28/4 19/29/4 23/30/4
f 24/31/2 25/32/2 13/33/2
f 26/34/3 23/35/3 27/36/3
f 26/37/2 28/38/2 11/15/2
f 27/39/2 23/40/2 19/41/2
f 27/39/2 19/41/2 21/42/2
f 29/43/4 25/44/4 30/45/4
f 31/46/2 32/47/2 4/4/2
f 33/48/1 34/49/1 35/50/1
f 36/51/5 37/52/5 1/53/5
f 36/51/5 1/53/5 33/54/5
f 38/55/3 39/56/3 13/17/3
f 39/57/1 40/58/1 13/59/1
f 41/60/5 42/61/5 43/62/5
f 44/63/3 39/56/3 38/55/3
f 45/64/2 29/65/2 40/66/2
f 46/67/5 38/68/5 47/69/5
f 44/70/5 42/61/5 41/60/5
f 48/71/5 37/52/5 36/51/5
f 49/72/5 50/73/5 39/74/5
f 51/75/5 50/73/5 49/72/5
f 52/76/2 53/77/2 40/66/2
f 50/78/1 52/79/1 40/58/1
f 54/80/4 55/81/4 56/82/4
f 57/83/5 58/84/5 59/85/5
f 58/86/1 60/87/1 51/88/1
f 61/89/4 15/90/4 18/91/4
f 62/92/5 41/60/5 63/93/5
f 64/94/5 41/60/5 65/95/5
f 66/96/3 64/97/3 67/98/3
f 64/97/3 39/56/3 44/63/3
f 49/72/5 39/74/5 68/99/5
f 34/100/3 3/101/3 5/102/3 14/103/3
f 25/104/3 66/96/3 23/35/3
f 25/104/3 68/105/3 66/96/3
f 69/106/4 70/107/4 71/108/4
f 69/109/5 72/110/5 73/111/5
f 45/64/2 74/112/2 29/65/2
f 68/113/4 29/43/4 74/114/4
f 53/77/2 74/112/2 45/64/2
f 75/115/4 76/116/4 77/117/4
f 78/118/1 79/119/1 80/120/1
f 81/121/5 78/122/5 75/123/5
f 82/124/5 77/125/5 83/126/5
f 84/127/5 83/126/5 76/128/5
f 85/129/6 86/130/6 87/131/6
f 88/132/2 89/133/2 87/134/2
f 90/135/1 88/136/1 87/137/1
f 91/138/2 92/139/2 85/140/2
f 92/139/2 93/141/2 85/140/2
f 94/142/1 95/143/1 96/144/1
f 95/145/2 97/146/2 96/147/2
f 98/148/2 99/149/2 100/150/2
f 86/151/2 101/152/2 102/153/2
f 103/154/6 93/155/6 104/156/6
f 105/157/2 106/158/2 93/141/2
f 104/159/4 93/160/4 106/161/4
f 107/162/2 105/157/2 93/141/2
f 108/163/4 103/164/4 109/165/4
f 109/166/2 103/167/2 104/168/2
f 110/169/6 86/130/6 93/155/6
f 111/170/2 109/166/2 104/168/2
f 112/171/2 113/172/2 114/173/2
f 100/150/2 115/174/2 112/171/2
f 60/175/5 50/73/5 51/75/5
f 116/176/5 50/73/5 60/175/5
f 117/177/5 118/178/5 60/175/5
f 119/179/1 118/180/1 120/181/1
f 118/178/5 117/177/5 120/182/5
f 116/176/5 118/178/5 56/183/5
f 102/184/3 121/185/3 52/186/3
f 121/187/2 74/112/2 122/188/2
f 123/189/5 124/190/5 125/191/5
f 123/189/5 126/192/5 124/190/5
f 127/193/5 128/194/5 129/195/5
f 130/196/6 128/197/6 131/198/6
f 101/199/3 121/185/3 102/184/3
f 132/200/6 130/196/6 131/198/6
f 121/187/2 122/188/2 52/76/2
f 133/201/1 98/202/1 134/203/1
f 135/204/1 136/205/1 94/142/1
f 137/206/5 133/207/5 138/208/5
f 139/209/4 84/210/4 140/211/4
f 122/188/2 74/112/2 53/77/2
f 116/176/5 79/212/5 77/125/5
f 141/213/6 142/214/6 143/215/6
f 144/216/3 121/185/3 101/199/3
f 145/217/5 130/218/5 141/219/5
f 146/220/4 147/221/4 148/222/4
f 149/223/5 125/191/5 130/218/5
f 145/224/4 143/225/4 150/226/4
f 74/227/3 144/216/3 101/199/3
f 151/228/6 115/229/6 152/230/6
f 151/231/4 113/232/4 115/233/4
f 146/220/4 148/222/4 153/234/4
f 154/235/5 119/236/5 54/237/5
f 34/100/3 1/238/3 3/101/3
f 47/239/3 9/240/3 8/241/3
f 52/79/1 86/242/1 102/243/1
f 127/244/6 88/245/6 90/246/6
f 128/247/1 90/135/1 87/137/1
f 155/248/4 71/108/4 156/249/4
f 66/250/4 22/28/4 23/30/4
f 148/222/4 147/221/4 157/251/4
f 132/200/6 103/154/6 142/214/6
f 108/252/6 111/253/6 150/254/6
f 132/255/4 74/114/4 110/256/4
f 15/257/3 158/258/3 16/259/3
f 159/260/5 33/54/5 158/261/5
f 93/155/6 86/130/6 85/129/6
f 97/146/2 160/262/2 96/147/2
f 79/212/5 56/183/5 80/263/5
f 125/191/5 161/264/5 123/189/5
f 16/22/2 35/265/2 34/266/2 14/20/2
f 5/267/4 4/268/4 17/269/4 14/270/4
f 2/271/2 162/272/2 7/273/2 163/274/2
f 35/265/2 16/22/2 164/275/2
f 7/276/3 47/239/3 8/241/3
f 7/277/3 12/278/3 11/279/3 163/280/3
f 11/281/1 165/282/1 2/283/1 163/284/1
f 10/285/1 12/286/1 7/287/1 166/288/1
f 17/289/3 4/290/3 32/291/3 18/292/3
f 10/18/3 166/293/3 6/19/3
f 6/8/2 166/294/2 7/9/2
f 167/295/4 28/296/4 168/297/4 31/298/4
f 14/20/2 18/24/2 15/21/2
f 156/249/4 71/108/4 169/299/4
f 28/38/2 26/37/2 170/300/2
f 156/301/3 28/302/3 170/303/3 21/27/3
f 170/304/4 26/305/4 27/306/4 21/307/4
f 171/308/3 31/309/3 169/310/3 71/311/3
f 169/312/2 31/313/2 168/314/2 156/315/2
f 10/18/3 13/17/3 25/104/3 26/34/3
f 28/302/3 156/301/3 168/316/3
f 25/104/3 23/35/3 26/34/3
f 32/317/4 31/318/4 171/319/4 18/320/4
f 40/321/6 30/322/6 24/323/6
f 24/31/2 30/324/2 25/32/2
f 70/325/2 18/326/2 171/327/2 71/328/2
f 172/329/3 35/330/3 164/331/3 173/332/3
f 174/333/3 36/334/3 159/335/3 175/336/3
f 159/260/5 36/51/5 33/54/5
f 33/54/5 172/337/5 173/338/5 158/261/5
f 34/100/3 33/339/3 1/238/3
f 164/340/4 16/341/4 158/342/4 173/343/4
f 172/344/1 33/48/1 35/50/1
f 176/345/5 37/346/5 177/347/5 47/348/5
f 40/58/1 39/57/1 50/78/1
f 47/69/5 38/68/5 9/349/5
f 178/350/3 47/351/3 177/352/3 42/353/3
f 42/61/5 44/70/5 178/354/5
f 177/355/1 37/356/1 179/357/1 42/358/1
f 46/359/1 47/360/1 178/361/1 44/362/1
f 179/363/3 37/364/3 48/365/3 43/366/3
f 43/62/5 42/61/5 179/367/5
f 174/368/5 175/369/5 63/93/5 43/62/5
f 38/55/3 46/370/3 44/63/3
f 53/77/2 45/64/2 40/66/2
f 48/371/1 36/372/1 174/373/1 43/374/1
f 159/375/4 180/376/4 63/377/4 175/378/4
f 58/379/3 51/380/3 181/381/3 59/382/3
f 55/383/5 120/182/5 49/72/5
f 120/182/5 181/384/5 49/72/5
f 181/384/5 51/75/5 49/72/5
f 182/385/3 120/386/3 55/387/3 54/388/3
f 181/389/4 117/390/4 57/391/4 59/392/4
f 54/237/5 119/236/5 182/393/5
f 182/394/1 119/179/1 120/181/1
f 158/261/5 61/395/5 73/111/5 159/260/5
f 120/182/5 117/177/5 181/384/5
f 15/257/3 61/396/3 158/258/3
f 73/397/3 18/398/3 70/399/3 69/400/3
f 73/401/4 61/89/4 18/91/4
f 63/402/3 180/403/3 72/404/3 62/405/3
f 155/248/4 69/106/4 71/108/4
f 72/406/4 183/407/4 41/408/4 62/409/4
f 65/410/3 41/411/3 155/412/3 20/26/3
f 20/413/4 67/414/4 64/415/4 65/416/4
f 183/417/5 72/110/5 69/109/5 155/418/5
f 159/260/5 73/111/5 72/110/5 180/419/5
f 183/420/3 155/412/3 41/411/3
f 29/421/6 30/322/6 40/321/6
f 64/97/3 68/105/3 39/56/3
f 66/422/5 67/423/5 22/424/5
f 22/424/5 67/423/5 20/425/5
f 29/43/4 68/113/4 25/44/4
f 78/426/3 80/427/3 76/428/3 75/429/3
f 66/96/3 68/105/3 64/97/3
f 80/263/5 55/383/5 49/72/5
f 76/128/5 80/263/5 49/72/5
f 68/99/5 76/128/5 49/72/5
f 83/126/5 77/125/5 76/128/5
f 184/430/3 83/431/3 84/432/3 185/433/3
f 82/434/1 83/435/1 184/436/1 186/437/1
f 81/438/4 75/115/4 77/117/4
f 184/439/5 185/440/5 139/441/5 186/442/5
f 84/127/5 68/99/5 187/443/5 140/444/5
f 139/209/4 185/445/4 84/210/4
f 68/99/5 84/127/5 76/128/5
f 188/446/2 89/447/2 189/448/2 96/449/2
f 187/450/4 68/113/4 74/114/4
f 128/197/6 87/131/6 86/130/6
f 87/131/6 190/451/6 85/129/6
f 127/244/6 89/452/6 88/245/6
f 91/453/1 85/454/1 190/455/1 89/456/1
f 91/457/6 89/458/6 188/459/6 92/460/6
f 191/461/1 92/462/1 188/463/1 96/464/1
f 100/150/2 112/171/2 192/465/2 98/148/2
f 87/134/2 89/133/2 190/466/2
f 192/467/6 112/468/6 193/469/6
f 97/470/4 193/471/4 112/472/4 114/473/4
f 94/142/1 194/474/1 95/143/1
f 193/469/6 95/475/6 194/476/6 192/467/6
f 107/477/4 195/478/4 160/479/4 196/480/4
f 95/145/2 193/481/2 97/146/2
f 197/482/4 148/222/4 157/251/4
f 106/483/6 105/484/6 157/485/6 111/253/6
f 160/486/6 198/487/6 148/488/6 197/489/6
f 197/490/2 157/491/2 196/492/2 160/493/2
f 105/484/6 107/494/6 196/495/6 157/485/6
f 97/496/6 114/497/6 113/498/6 199/499/6
f 111/500/4 104/159/4 106/161/4
f 103/154/6 110/169/6 93/155/6
f 86/151/2 110/501/2 101/152/2
f 108/252/6 109/502/6 111/253/6
f 110/256/4 74/114/4 101/503/4
f 160/504/4 199/505/4 113/506/4 198/507/4
f 112/171/2 115/174/2 113/172/2
f 97/146/2 199/508/2 160/262/2
f 148/509/2 198/510/2 113/511/2 153/512/2
f 60/513/6 200/514/6 57/515/6 117/516/6
f 118/517/6 119/518/6 154/519/6 56/520/6
f 127/521/5 201/522/5 94/523/5 202/524/5
f 57/83/5 200/525/5 58/84/5
f 58/86/1 200/526/1 60/87/1
f 60/175/5 118/178/5 116/176/5
f 52/76/2 122/188/2 53/77/2
f 116/176/5 131/527/5 50/73/5
f 50/78/1 131/528/1 52/79/1
f 131/198/6 128/197/6 86/130/6
f 52/79/1 131/528/1 86/242/1
f 130/196/6 129/529/6 128/197/6
f 132/200/6 141/213/6 130/196/6
f 127/193/5 90/530/5 128/194/5
f 124/190/5 203/531/5 130/218/5
f 127/532/1 129/533/1 130/534/1 203/535/1
f 127/536/6 203/537/6 124/538/6 201/539/6
f 94/540/1 201/541/1 124/542/1 126/543/1
f 94/544/6 126/545/6 123/546/6 204/547/6
f 138/548/6 205/549/6 206/550/6 137/551/6
f 125/191/5 124/190/5 130/218/5
f 132/552/5 131/527/5 116/176/5
f 136/553/6 135/554/6 133/555/6 134/556/6
f 138/208/5 135/557/5 94/558/5
f 98/559/6 207/560/6 208/561/6 99/562/6
f 138/208/5 133/207/5 135/557/5
f 133/207/5 152/563/5 208/564/5 207/565/5
f 100/566/4 99/567/4 208/568/4 152/569/4
f 133/201/1 207/570/1 98/202/1
f 123/189/5 161/264/5 206/571/5 205/572/5
f 138/573/1 204/574/1 123/575/1 205/576/1
f 204/577/5 138/208/5 94/558/5
f 209/578/4 137/579/4 206/580/4 161/581/4
f 79/582/6 210/583/6 81/584/6 77/585/6
f 78/118/1 210/586/1 79/119/1
f 81/121/5 210/587/5 78/122/5
f 82/588/6 186/589/6 139/590/6 140/591/6
f 209/592/6 161/593/6 211/594/6 212/595/6
f 140/444/5 77/125/5 82/124/5
f 140/444/5 116/176/5 77/125/5
f 187/443/5 116/176/5 140/444/5
f 144/216/3 74/227/3 121/185/3
f 211/596/5 161/264/5 125/191/5
f 145/217/5 149/223/5 130/218/5
f 213/597/4 212/598/4 211/599/4 125/600/4
f 147/601/6 149/602/6 145/603/6 150/254/6
f 145/224/4 141/604/4 143/225/4
f 213/605/5 147/606/5 146/607/5 212/608/5
f 213/609/6 125/610/6 149/602/6 147/601/6
f 137/206/5 214/611/5 151/612/5 152/563/5
f 142/613/5 108/614/5 143/615/5
f 132/200/6 142/214/6 141/213/6
f 108/614/5 150/616/5 143/615/5
f 132/255/4 187/450/4 74/114/4
f 113/617/6 214/618/6 146/619/6 153/620/6
f 151/231/4 214/621/4 113/232/4
f 137/206/5 209/622/5 212/608/5 214/611/5
f 176/623/3 162/624/3 2/625/3 37/626/3
f 146/607/5 214/611/5 212/608/5
f 187/443/5 132/552/5 116/176/5
f 154/627/4 54/80/4 56/82/4
f 6/19/3 38/55/3 13/17/3
f 13/59/1 40/58/1 24/628/1
f 7/629/1 162/630/1 176/631/1 47/632/1
f 189/633/6 202/634/6 94/635/6 96/636/6
f 9/11/1 38/637/1 6/12/1
f 1/1/1 37/638/1 2/2/1
f 189/639/1 89/640/1 127/641/1 202/642/1
f 192/467/6 194/476/6 136/553/6 134/556/6
f 192/643/1 134/203/1 98/202/1
f 155/412/3 156/301/3 21/27/3 20/26/3
f 94/142/1 136/205/1 194/474/1
f 157/485/6 147/601/6 150/254/6 111/253/6
f 19/25/3 22/644/3 20/26/3
f 167/645/2 165/646/2 11/15/2 28/38/2
f 108/163/4 142/647/4 103/164/4
f 132/200/6 110/169/6 103/154/6
f 2/648/3 165/649/3 167/650/3 31/651/3
f 107/162/2 92/139/2 191/652/2 195/653/2
f 10/14/2 26/37/2 11/15/2
f 4/4/2 2/7/2 31/46/2
f 41/60/5 43/62/5 63/93/5
f 64/94/5 44/70/5 41/60/5
f 80/263/5 56/183/5 55/383/5
f 191/654/6 96/655/6 160/656/6 195/657/6
f 92/139/2 107/162/2 93/141/2
f 79/212/5 116/176/5 56/183/5
f 152/230/6 115/229/6 100/658/6
f 152/563/5 133/207/5 137/206/5
