# Blender v2.78 (sub 0) OBJ File: ''
# www.blender.org
mtllib charMouthDot.mtl
o copy_charMouthDot.001
v -1.000002 -0.000002 -0.500001
v -1.000002 -0.000002 0.499999
v -1.000002 1.999999 0.499999
v -1.000002 2.000000 -0.500001
v 1.000000 2.000000 -0.500001
v 1.000000 1.999999 0.499999
v 1.000000 -0.000002 0.499999
v 1.000000 -0.000002 -0.500001
vt 0.6923 0.9583
vt 0.5000 0.9583
vt 0.5000 0.5417
vt 0.6923 0.5417
vt 0.6923 0.4583
vt 0.5000 0.4583
vt 0.5000 0.0417
vt 0.6923 0.0417
vt 0.7692 0.4583
vt 0.7692 0.0417
vt 0.9615 0.0417
vt 0.9615 0.4583
vt 0.7692 0.9583
vt 0.7692 0.5417
vt 0.9615 0.5417
vt 0.9615 0.9583
vt 0.0385 0.5417
vt 0.4231 0.5417
vt 0.4231 0.9583
vt 0.0385 0.9583
vt 0.4231 0.0417
vt 0.4231 0.4583
vt 0.0385 0.4583
vt 0.0385 0.0417
vn -1.0000 0.0000 0.0000
vn 1.0000 0.0000 0.0000
vn 0.0000 -1.0000 -0.0000
vn 0.0000 1.0000 0.0000
vn 0.0000 0.0000 -1.0000
vn 0.0000 -0.0000 1.0000
usemtl palette.019
s off
f 1/1/1 2/2/1 3/3/1 4/4/1
f 5/5/2 6/6/2 7/7/2 8/8/2
f 1/9/3 8/10/3 7/11/3 2/12/3
f 3/13/4 6/14/4 5/15/4 4/16/4
f 1/17/5 4/18/5 5/19/5 8/20/5
f 7/21/6 6/22/6 3/23/6 2/24/6
