# Blender v2.78 (sub 0) OBJ File: ''
# www.blender.org
mtllib instrmntTimpaniMallet.mtl
o copy_instrmntTimpaniMallet.001
v -1.500003 2.999984 7.499999
v -1.500003 2.999985 5.500000
v -1.500003 1.499998 5.500000
v 1.499987 -0.000005 5.499999
v 1.499987 -0.000005 7.499998
v 0.000000 -0.000005 5.499999
v 1.499987 2.999984 7.499999
v 1.499987 1.499998 5.500000
v 1.499987 2.999985 5.500000
v 0.000000 2.999985 5.500000
v 0.499995 1.999993 5.500000
v -0.500011 1.999993 5.500000
v -0.500011 0.999987 5.499999
v 0.499995 0.999987 5.499999
v -1.500003 -0.000005 5.499999
v -1.500003 -0.000005 7.499998
v -0.500011 0.999991 -7.500013
v 0.499995 0.999991 -7.500013
v -0.500011 1.999997 -7.500012
v 0.499995 1.999997 -7.500012
vt 0.4531 0.5224
vt 0.6094 0.5224
vt 0.6094 0.6343
vt 0.7188 0.0149
vt 0.8750 0.0149
vt 0.7188 0.1269
vt 0.6406 0.7463
vt 0.7969 0.6343
vt 0.7969 0.7463
vt 0.4531 0.1269
vt 0.5313 0.0896
vt 0.5313 0.1642
vt 0.5703 0.2388
vt 0.6094 0.1642
vt 0.5703 0.0149
vt 0.6094 0.0896
vt 0.6094 0.7463
vt 0.4531 0.7463
vt 0.8750 0.2388
vt 0.7188 0.2388
vt 0.4531 0.2388
vt 0.8281 0.5224
vt 0.9844 0.5224
vt 0.9844 0.7463
vt 0.8281 0.6343
vt 0.6875 0.0149
vt 0.6875 0.1269
vt 0.7969 0.5224
vt 0.6406 0.5224
vt 0.4531 0.0149
vt 0.2031 0.0149
vt 0.2031 0.9851
vt 0.1250 0.9851
vt 0.1250 0.0149
vt 0.8281 0.7463
vt 0.2344 0.9851
vt 0.2344 0.0149
vt 0.3125 0.0149
vt 0.3125 0.9851
vt 0.0938 0.9851
vt 0.0156 0.9851
vt 0.0156 0.0149
vt 0.0938 0.0149
vt 0.6875 0.2388
vt 0.3438 0.0149
vt 0.4219 0.0149
vt 0.4219 0.9851
vt 0.3438 0.9851
vt 0.7969 0.4179
vt 0.7969 0.4925
vt 0.7188 0.4925
vt 0.7188 0.4179
vt 0.4531 0.2687
vt 0.6875 0.2687
vt 0.6875 0.4925
vt 0.4531 0.4925
vn -1.0000 0.0000 0.0000
vn 0.0000 -1.0000 -0.0000
vn 1.0000 0.0000 0.0000
vn 0.0000 0.0000 -1.0000
vn 0.0000 1.0000 0.0000
vn 0.0000 -0.0000 1.0000
usemtl palette.012
s off
f 1/1/1 2/2/1 3/3/1
f 4/4/2 5/5/2 6/6/2
f 7/7/3 8/8/3 9/9/3
f 10/10/4 11/11/4 12/12/4
f 3/13/4 12/12/4 13/14/4
f 11/11/4 8/15/4 14/16/4
f 3/3/1 15/17/1 16/18/1 1/1/1
f 16/19/2 15/20/2 6/6/2 5/5/2
f 10/10/4 12/12/4 3/13/4 2/21/4
f 2/22/5 1/23/5 7/24/5 10/25/5
f 8/15/4 4/26/4 6/27/4 14/16/4
f 4/28/3 8/8/3 7/7/3 5/29/3
f 8/15/4 11/11/4 10/10/4 9/30/4
f 13/31/2 17/32/2 18/33/2 14/34/2
f 7/24/5 9/35/5 10/25/5
f 19/36/5 12/37/5 11/38/5 20/39/5
f 6/27/4 13/14/4 14/16/4
f 19/40/1 17/41/1 13/42/1 12/43/1
f 6/27/4 15/44/4 3/13/4 13/14/4
f 18/45/3 20/46/3 11/47/3 14/48/3
f 18/49/4 17/50/4 19/51/4 20/52/4
f 16/53/6 5/54/6 7/55/6 1/56/6
