# Blender v2.78 (sub 0) OBJ File: ''
# www.blender.org
mtllib instrmntBaton.mtl
o copy_instrmntBaton.001
v -1.500050 2.999948 30.499935
v -2.500057 2.999948 29.622395
v -2.500057 2.999949 27.499996
v -2.500057 3.011709 30.924480
v -2.500061 2.999948 30.499935
v -2.500057 1.999940 30.499935
v -0.500042 0.999929 30.499935
v -0.651041 0.999933 30.924480
v -1.500050 0.999933 30.499935
v -0.500042 1.999940 30.499935
v -0.500042 1.999941 27.499996
v -1.500050 1.999940 30.499935
v -1.500050 1.999942 26.499990
v -1.500050 2.999949 27.499996
v -0.500042 1.999942 26.499990
v -0.500042 2.999950 23.499966
v -0.500042 1.999943 23.499966
v -0.500042 2.999950 26.499990
v -1.500050 2.999950 26.499990
v -1.500050 2.999950 23.499966
v -2.500057 1.999940 32.499950
v -3.500065 1.999939 34.499966
v -3.500065 1.999940 32.499950
v -2.500057 2.999946 34.499966
v -3.500065 2.999946 34.499966
v -2.500057 1.999939 34.499966
v -2.500057 2.999946 35.499977
v -3.500065 2.999946 35.499973
v -1.500050 -0.000076 34.499966
v -1.500050 0.999932 32.499950
v -1.500050 -0.000075 32.499950
v -1.500050 2.999946 35.499977
v -2.500057 1.999939 35.499977
v -1.500050 1.999939 35.499973
v -2.500057 2.999948 31.499945
v -2.500057 2.999948 32.499950
v -3.500065 2.999948 31.499945
v -0.500042 0.999932 32.499950
v -0.500042 0.999933 31.499945
v -0.500042 -0.000075 31.499945
v -0.500042 2.999946 36.499981
v -1.500050 2.999946 37.499992
v -1.500050 2.999946 36.499981
v -1.500050 1.999938 36.499981
v -0.500042 1.999938 37.499992
v -0.500042 1.999938 36.499981
v -0.500042 3.999957 26.499990
v -0.500042 4.999962 23.499966
v -0.500042 3.999958 23.499966
v -1.500050 3.999956 27.499996
v -1.500050 4.999961 26.499990
v -1.500050 3.999957 26.499990
v -0.500042 4.999961 26.499990
v -1.500050 3.999956 30.499935
v -2.500057 3.999956 27.499996
v -2.500057 3.999956 29.622395
v -2.500057 4.999960 30.499935
v -2.500061 3.999956 30.499935
v -0.500042 4.999960 30.499935
v -0.500042 5.999969 27.500000
v -0.500042 4.999961 27.499996
v -1.500050 4.999960 30.499935
v -1.500050 3.999958 23.499966
v -2.500057 3.999955 32.499950
v -3.500065 3.999955 31.499945
v -3.500065 3.999955 32.499950
v -3.500065 4.999959 34.499966
v -3.500065 3.999954 34.499966
v -2.500057 3.999954 34.499966
v -2.500057 3.999954 35.499977
v -3.500065 3.999954 35.499973
v -2.500057 4.999959 32.499950
v -2.500057 3.999955 31.499945
v -1.500050 4.999959 34.499966
v -2.500057 4.999959 34.499966
v -2.500057 4.999959 35.499977
v -0.500042 5.999967 32.499950
v -0.500042 6.999974 32.499950
v -0.500042 6.999975 30.499939
v -2.500057 5.999965 34.499966
v -1.500050 5.999965 34.499966
v -1.500050 6.999973 34.499966
v -1.500050 5.999967 32.499950
v -0.500042 3.999953 37.499989
v -0.500042 3.999954 36.499981
v -1.500050 3.999953 37.499992
v -0.500042 4.999959 36.499981
v -1.500050 3.999954 36.499981
v -0.500042 4.999957 37.499992
v -2.500057 4.476552 30.924480
v -0.500042 5.999967 30.499939
v 1.499969 2.999950 23.499966
v 0.499966 2.999950 26.499990
v 0.499966 2.999950 23.499966
v 0.499966 1.999943 23.499966
v 1.499969 1.999942 26.499990
v 0.499966 1.999941 27.499996
v 0.499966 1.999942 26.499990
v 1.499969 2.999950 26.499990
v 1.499969 2.999949 27.499996
v 0.499966 1.999940 30.499935
v 0.976562 0.999933 30.499935
v 0.499966 0.999929 30.499935
v 1.499969 0.999933 30.499935
v 0.651041 0.999933 30.924480
v 2.499977 2.999948 30.499935
v 1.499969 2.999948 30.499935
v 1.499969 1.999940 30.499935
v 1.499969 0.999931 34.499966
v 1.499969 -0.000075 32.499950
v 1.499969 0.999932 32.499950
v 0.499966 0.999931 35.499977
v 0.499966 -0.000076 34.499966
v 0.499966 0.999931 34.499966
v 0.499966 0.999932 32.499950
v 0.499966 0.999933 31.499945
v 2.499977 2.999948 32.499950
v 2.499977 1.999940 32.499950
v 2.499977 2.999948 31.499945
v 3.499985 2.999946 34.499966
v 2.499977 1.999939 34.499966
v 3.499985 1.999939 34.499966
v 3.499985 2.999948 31.499945
v 0.499966 -0.000075 31.499945
v 1.499969 2.999946 36.499981
v 1.499969 2.999946 37.499992
v 0.499966 2.999946 36.499981
v 0.499966 1.999938 37.499992
v 0.499966 1.999938 36.499981
v 1.499969 1.999938 36.499981
v 1.499969 3.999958 23.499966
v 0.499966 3.999958 23.499966
v 0.499966 3.999957 26.499990
v 0.499966 4.999961 26.499990
v 1.499969 3.999957 26.499990
v 1.499969 4.999961 26.499990
v 0.499966 4.999961 27.499996
v 1.499969 4.999960 30.499935
v 1.499969 3.999956 27.499996
v 0.499966 5.999967 30.499939
v 0.499966 4.999960 30.499935
v 0.499966 5.999969 27.500000
v 2.499977 3.999956 27.499996
v 1.499969 3.999956 30.499935
v 1.499969 5.999967 32.499950
v 1.499969 5.999967 30.499939
v 0.499966 5.999967 32.499950
v 1.499969 6.999973 34.499966
v 1.499969 6.999974 32.499950
v 3.499985 3.999955 32.499950
v 3.499985 3.999955 31.499945
v 2.499977 3.999955 32.499950
v 3.499985 4.999959 34.499966
v 2.499977 3.999954 34.499966
v 3.499985 3.999954 34.499966
v 2.499977 4.999959 32.499950
v 2.499977 4.999959 34.499966
v 1.499969 4.999959 36.499981
v 0.499966 4.999959 36.499981
v 1.499969 3.999954 36.499981
v 2.499977 3.999955 31.499945
v 2.499977 4.999960 30.499935
v 0.499966 2.999970 -37.500069
v -0.500042 2.999970 -37.500069
v -0.500042 3.999978 -37.500069
v 0.499966 4.999962 23.499966
v 0.499966 4.999957 37.499989
v 0.499966 3.999953 37.499992
v 0.499966 3.999978 -37.500069
v 2.499977 3.999956 30.499935
v 0.499966 2.999946 37.499989
v -0.500042 0.999934 27.499996
v -0.500042 0.999933 29.622395
v -3.500065 2.999948 32.499950
v -0.500042 -0.000075 32.499950
v -0.500042 -0.000076 34.499966
v -0.500042 0.999931 34.499966
v -1.500050 0.999931 34.499966
v -0.500042 -0.000077 35.499973
v -0.500042 0.999931 35.499977
v -2.500057 0.999932 32.499950
v -1.500050 1.999940 32.499950
v -2.500057 0.999931 34.499966
v -1.500050 1.999939 34.499966
v -2.500057 2.999946 36.499981
v -0.500042 1.999939 35.499977
v -0.500042 0.999931 36.499981
v -1.500050 0.999931 35.499973
v -0.500042 2.999946 37.499989
v -1.500050 5.999967 30.499939
v -3.500065 4.999959 32.499950
v -1.500050 4.999959 32.499950
v -2.500057 5.999967 32.499950
v -2.500057 3.999954 36.499981
v -1.500050 3.999954 35.499977
v -0.500042 5.999965 35.499977
v -0.500042 4.999959 35.499977
v -0.500042 5.999965 36.499981
v -1.500050 4.999959 35.499973
v -1.500050 4.999959 36.499981
v -1.500050 5.999965 35.499973
v -0.500042 5.999965 34.499966
v -1.500050 6.999974 32.499950
v -0.500042 6.999973 34.499966
v -0.500042 6.999973 35.499973
v 0.499966 0.999934 27.499996
v 0.499966 0.999933 29.622395
v 2.499977 2.999949 27.499996
v 2.499977 1.999940 30.499935
v 0.499966 -0.000075 32.499950
v 1.499969 -0.000076 34.499966
v 2.499977 0.999932 32.499950
v 1.499969 1.999940 32.499950
v 0.499966 -0.000077 35.499973
v 2.499977 0.999931 34.499966
v 0.499966 1.999939 35.499977
v 0.499966 0.999931 36.499981
v 1.499969 1.999939 34.499966
v 1.499969 2.999946 35.499977
v 2.499977 2.999946 35.499977
v 2.499977 2.999946 36.499981
v 1.499969 1.999939 35.499973
v 1.499969 0.999931 35.499973
v 2.499977 1.999939 35.499973
v 2.499977 2.999946 34.499966
v 3.499985 1.999940 32.499950
v 3.499985 2.999948 32.499950
v 3.499985 2.999946 35.499973
v 1.499969 4.999959 32.499950
v 2.499977 5.999967 32.499950
v 2.499977 5.999965 34.499966
v 1.499969 5.999965 34.499966
v 0.499966 4.999959 35.499977
v 0.499966 5.999965 35.499977
v 0.499966 5.999965 36.499981
v 1.499969 3.999954 35.499977
v 2.499977 3.999954 36.499981
v 2.499977 3.999954 35.499977
v 1.499969 4.999959 34.499966
v 1.499969 4.999959 35.499973
v 1.499969 5.999965 35.499973
v 2.499977 4.999959 35.499973
v 0.499966 5.999965 34.499966
v 0.499966 6.999974 32.499950
v 0.499966 6.999973 34.499966
v 0.499966 6.999975 30.499939
v 0.499966 6.999973 35.499973
v 3.499985 4.999959 32.499950
v 3.499985 3.999954 35.499973
v 0.499966 3.999954 36.499981
v 1.499969 3.999953 37.499989
vt 0.5705 0.3523
vt 0.5369 0.3380
vt 0.5369 0.3034
vt 0.6036 0.0590
vt 0.6040 0.0521
vt 0.6376 0.0521
vt 0.4899 0.2443
vt 0.4950 0.2374
vt 0.5235 0.2443
vt 0.7919 0.1954
vt 0.8255 0.1792
vt 0.8255 0.1954
vt 0.3758 0.1726
vt 0.4094 0.1238
vt 0.4094 0.1889
vt 0.2953 0.2378
vt 0.2617 0.1889
vt 0.2953 0.1726
vt 0.5369 0.3523
vt 0.6846 0.0521
vt 0.6510 0.0033
vt 0.6846 0.0033
vt 0.6309 0.2480
vt 0.6644 0.2480
vt 0.6644 0.2969
vt 0.5839 0.3913
vt 0.6174 0.3588
vt 0.6174 0.3913
vt 0.8859 0.1107
vt 0.9195 0.1107
vt 0.8859 0.1270
vt 0.8188 0.2480
vt 0.8523 0.2480
vt 0.8523 0.2643
vt 0.7450 0.0033
vt 0.7785 0.0358
vt 0.7450 0.0358
vt 0.9463 0.2871
vt 0.9128 0.2708
vt 0.9463 0.2708
vt 0.9597 0.4109
vt 0.9597 0.3946
vt 0.9933 0.4109
vt 0.9329 0.2248
vt 0.9664 0.2248
vt 0.9664 0.2410
vt 0.8188 0.3881
vt 0.8523 0.3718
vt 0.8523 0.3881
vt 0.8993 0.3034
vt 0.8993 0.3197
vt 0.8658 0.3197
vt 0.7919 0.0586
vt 0.8255 0.0423
vt 0.8255 0.0586
vt 0.6846 0.2182
vt 0.6510 0.1694
vt 0.6846 0.1694
vt 0.2282 0.1889
vt 0.1946 0.1726
vt 0.2282 0.1726
vt 0.9463 0.3490
vt 0.9463 0.3653
vt 0.9128 0.3490
vt 0.5034 0.2997
vt 0.4698 0.3485
vt 0.4698 0.3140
vt 0.8389 0.0651
vt 0.8725 0.0814
vt 0.8389 0.0814
vt 0.6980 0.1694
vt 0.7315 0.2182
vt 0.6980 0.2182
vt 0.2617 0.0684
vt 0.2953 0.0521
vt 0.2953 0.1173
vt 0.4698 0.2997
vt 0.2282 0.2378
vt 0.1946 0.2378
vt 0.5705 0.2480
vt 0.5369 0.2969
vt 0.5369 0.2480
vt 0.9463 0.4174
vt 0.9128 0.4337
vt 0.9128 0.4174
vt 0.9128 0.4565
vt 0.9128 0.4402
vt 0.9463 0.4402
vt 0.2282 0.3941
vt 0.1946 0.4104
vt 0.1946 0.3941
vt 0.5705 0.0847
vt 0.5369 0.0847
vt 0.5705 0.0684
vt 0.8523 0.3197
vt 0.8188 0.3197
vt 0.8188 0.3034
vt 0.7718 0.3425
vt 0.8054 0.3425
vt 0.8054 0.3751
vt 0.9463 0.4565
vt 0.1946 0.3550
vt 0.2282 0.3550
vt 0.1946 0.3876
vt 0.4698 0.3550
vt 0.5034 0.3550
vt 0.4698 0.3876
vt 0.5973 0.0912
vt 0.5973 0.1075
vt 0.5638 0.0912
vt 0.6644 0.4597
vt 0.6309 0.4435
vt 0.6644 0.4435
vt 0.3221 0.3941
vt 0.3221 0.4104
vt 0.2886 0.4104
vt 0.5545 0.0590
vt 0.7718 0.3751
vt 0.6779 0.2969
vt 0.7114 0.2480
vt 0.7114 0.2969
vt 0.6174 0.2969
vt 0.5839 0.2480
vt 0.6174 0.2480
vt 0.3087 0.1889
vt 0.3423 0.1726
vt 0.3423 0.1889
vt 0.9933 0.2643
vt 0.9597 0.2643
vt 0.9597 0.2480
vt 0.3423 0.0684
vt 0.3087 0.0521
vt 0.3423 0.0521
vt 0.8389 0.1564
vt 0.8725 0.1564
vt 0.8725 0.1726
vt 0.8389 0.1726
vt 0.8993 0.3946
vt 0.8658 0.4024
vt 0.8658 0.3946
vt 0.4228 0.2443
vt 0.4513 0.2374
vt 0.4404 0.2443
vt 0.6980 0.0033
vt 0.7315 0.0033
vt 0.7315 0.0521
vt 0.3423 0.1173
vt 0.3087 0.1173
vt 0.3087 0.1238
vt 0.3423 0.1238
vt 0.7785 0.2313
vt 0.7450 0.1987
vt 0.7785 0.1987
vt 0.8523 0.2871
vt 0.8188 0.2708
vt 0.8523 0.2708
vt 0.4228 0.2117
vt 0.4564 0.2117
vt 0.4564 0.2280
vt 0.4564 0.2052
vt 0.4228 0.2052
vt 0.4564 0.1889
vt 0.4698 0.4104
vt 0.5034 0.3941
vt 0.5034 0.4104
vt 0.8859 0.1792
vt 0.9195 0.1954
vt 0.8859 0.1954
vt 0.9597 0.3881
vt 0.9933 0.3718
vt 0.9933 0.3881
vt 0.9664 0.0814
vt 0.9329 0.0651
vt 0.9664 0.0651
vt 0.9664 0.1042
vt 0.9329 0.1042
vt 0.9329 0.0879
vt 0.6309 0.3588
vt 0.6644 0.3588
vt 0.6644 0.3913
vt 0.4228 0.4332
vt 0.4228 0.4169
vt 0.4564 0.4332
vt 0.8255 0.2248
vt 0.8255 0.2410
vt 0.7919 0.2410
vt 0.6174 0.4597
vt 0.5839 0.4435
vt 0.6174 0.4435
vt 0.6846 0.1629
vt 0.6510 0.1629
vt 0.6510 0.1140
vt 0.9933 0.4337
vt 0.9597 0.4174
vt 0.9933 0.4174
vt 0.1946 0.0521
vt 0.2282 0.0521
vt 0.2282 0.0684
vt 0.4094 0.1173
vt 0.3758 0.0684
vt 0.4094 0.0521
vt 0.6779 0.3034
vt 0.7114 0.3034
vt 0.6779 0.3523
vt 0.1946 0.1173
vt 0.2282 0.1173
vt 0.7315 0.1075
vt 0.6980 0.1075
vt 0.6980 0.0586
vt 0.6846 0.1140
vt 0.6174 0.3034
vt 0.6174 0.3360
vt 0.5839 0.3034
vt 0.4228 0.3550
vt 0.4564 0.3876
vt 0.4228 0.3876
vt 0.9329 0.1270
vt 0.9329 0.1107
vt 0.9664 0.1107
vt 0.3221 0.4625
vt 0.3221 0.4788
vt 0.2886 0.4625
vt 0.9463 0.3197
vt 0.9128 0.3034
vt 0.9463 0.3034
vt 0.2282 0.3160
vt 0.1946 0.3485
vt 0.1946 0.3160
vt 0.6644 0.4825
vt 0.6309 0.4825
vt 0.6644 0.4663
vt 0.5839 0.3360
vt 0.5235 0.2052
vt 0.4899 0.1889
vt 0.5235 0.1726
vt 0.0067 0.9967
vt 0.0403 0.0033
vt 0.0403 0.9967
vt 0.3758 0.1889
vt 0.3758 0.2378
vt 0.1342 0.0033
vt 0.1007 0.9967
vt 0.1007 0.0033
vt 0.9329 0.1336
vt 0.9664 0.1336
vt 0.9329 0.1498
vt 0.6318 0.2300
vt 0.6081 0.2415
vt 0.6081 0.2185
vt 0.0872 0.9967
vt 0.0537 0.0033
vt 0.0872 0.0033
vt 0.5705 0.0521
vt 0.1812 0.9967
vt 0.1477 0.0033
vt 0.1812 0.0033
vt 0.4899 0.1726
vt 0.4564 0.1726
vt 0.4899 0.1238
vt 0.3758 0.0521
vt 0.3758 0.0033
vt 0.5844 0.2070
vt 0.6081 0.1954
vt 0.6309 0.2969
vt 0.2617 0.1726
vt 0.6309 0.3034
vt 0.6644 0.3034
vt 0.6644 0.3380
vt 0.6309 0.3523
vt 0.7919 0.2182
vt 0.7919 0.2020
vt 0.8255 0.2020
vt 0.3221 0.4332
vt 0.2886 0.4332
vt 0.2886 0.4169
vt 0.3221 0.4169
vt 0.7919 0.1792
vt 0.8255 0.2182
vt 0.6644 0.3523
vt 0.2617 0.2378
vt 0.3758 0.1238
vt 0.5705 0.3034
vt 0.6510 0.0521
vt 0.9933 0.3946
vt 0.3758 0.2606
vt 0.4094 0.2606
vt 0.4094 0.2932
vt 0.3758 0.2932
vt 0.2282 0.4169
vt 0.2282 0.4332
vt 0.1946 0.4332
vt 0.1946 0.4169
vt 0.8188 0.2643
vt 0.9195 0.1270
vt 0.9329 0.2410
vt 0.6376 0.1401
vt 0.6376 0.1726
vt 0.6040 0.1726
vt 0.6040 0.1401
vt 0.7248 0.4207
vt 0.7248 0.4044
vt 0.7584 0.4044
vt 0.7584 0.4207
vt 0.6922 0.2252
vt 0.7258 0.2252
vt 0.7258 0.2415
vt 0.6922 0.2415
vt 0.2416 0.4397
vt 0.2752 0.4397
vt 0.2752 0.4560
vt 0.2416 0.4560
vt 0.3691 0.3485
vt 0.3356 0.3485
vt 0.3356 0.3160
vt 0.3691 0.3160
vt 0.7584 0.3425
vt 0.7584 0.3751
vt 0.7248 0.3751
vt 0.7248 0.3425
vt 0.8725 0.0423
vt 0.8725 0.0586
vt 0.8389 0.0586
vt 0.8389 0.0423
vt 0.4899 0.2280
vt 0.4899 0.2117
vt 0.5235 0.2117
vt 0.6376 0.0847
vt 0.6040 0.0847
vt 0.6040 0.0684
vt 0.7584 0.4500
vt 0.7584 0.4663
vt 0.7248 0.4663
vt 0.7248 0.4500
vt 0.5705 0.4663
vt 0.5705 0.4825
vt 0.5369 0.4825
vt 0.5369 0.4663
vt 0.9128 0.2871
vt 0.9664 0.1792
vt 0.9664 0.1954
vt 0.9329 0.1954
vt 0.9329 0.1792
vt 0.8725 0.1498
vt 0.8389 0.1498
vt 0.8389 0.1336
vt 0.8725 0.1336
vt 0.8188 0.4402
vt 0.8523 0.4402
vt 0.8523 0.4565
vt 0.8188 0.4565
vt 0.7114 0.4369
vt 0.6779 0.4369
vt 0.6779 0.4207
vt 0.7114 0.4207
vt 0.8054 0.3816
vt 0.8054 0.3979
vt 0.7718 0.3979
vt 0.7718 0.3816
vt 0.8255 0.0651
vt 0.8255 0.0814
vt 0.7919 0.0814
vt 0.7919 0.0651
vt 0.7584 0.3816
vt 0.7584 0.3979
vt 0.7248 0.3979
vt 0.7248 0.3816
vt 0.6779 0.3588
vt 0.7114 0.3588
vt 0.7114 0.3913
vt 0.6779 0.3913
vt 0.5839 0.3588
vt 0.7785 0.0033
vt 0.7919 0.0423
vt 0.8188 0.3718
vt 0.8658 0.3034
vt 0.7785 0.0423
vt 0.7785 0.0749
vt 0.7450 0.0749
vt 0.7450 0.0423
vt 0.5369 0.0521
vt 0.6510 0.2182
vt 0.9128 0.3653
vt 0.2617 0.0521
vt 0.9195 0.1726
vt 0.8859 0.1726
vt 0.8859 0.1564
vt 0.9195 0.1564
vt 0.5369 0.4435
vt 0.5705 0.4435
vt 0.5705 0.4597
vt 0.5369 0.4597
vt 0.8725 0.0651
vt 0.7315 0.1694
vt 0.2617 0.1173
vt 0.5034 0.3485
vt 0.5705 0.2969
vt 0.3087 0.2606
vt 0.3423 0.2606
vt 0.3423 0.2932
vt 0.3087 0.2932
vt 0.3221 0.4560
vt 0.2886 0.4560
vt 0.2886 0.4397
vt 0.3221 0.4397
vt 0.2282 0.4104
vt 0.7450 0.1140
vt 0.7450 0.0814
vt 0.7785 0.0814
vt 0.7785 0.1140
vt 0.2282 0.3876
vt 0.9597 0.2871
vt 0.9597 0.2708
vt 0.9933 0.2708
vt 0.9933 0.2871
vt 0.2752 0.3550
vt 0.2416 0.3876
vt 0.2416 0.3550
vt 0.8658 0.2480
vt 0.8993 0.2480
vt 0.8993 0.2643
vt 0.8658 0.2643
vt 0.7114 0.4663
vt 0.7114 0.4825
vt 0.6779 0.4825
vt 0.6779 0.4663
vt 0.9195 0.0879
vt 0.9195 0.1042
vt 0.8859 0.1042
vt 0.8859 0.0879
vt 0.8859 0.0423
vt 0.9195 0.0423
vt 0.9195 0.0586
vt 0.8859 0.0586
vt 0.8255 0.1726
vt 0.7919 0.1726
vt 0.7919 0.1564
vt 0.8255 0.1564
vt 0.8188 0.4630
vt 0.8523 0.4630
vt 0.8523 0.4793
vt 0.8188 0.4793
vt 0.4698 0.4788
vt 0.4698 0.4625
vt 0.5034 0.4625
vt 0.5034 0.4788
vt 0.8054 0.4044
vt 0.8054 0.4207
vt 0.7718 0.4207
vt 0.7718 0.4044
vt 0.8188 0.3425
vt 0.8188 0.3262
vt 0.8523 0.3262
vt 0.8523 0.3425
vt 0.8523 0.3034
vt 0.9195 0.2410
vt 0.8859 0.2410
vt 0.8859 0.2248
vt 0.9195 0.2248
vt 0.5034 0.3876
vt 0.4228 0.0521
vt 0.4228 0.0195
vt 0.4564 0.0195
vt 0.4564 0.0521
vt 0.8859 0.0033
vt 0.9195 0.0033
vt 0.9195 0.0195
vt 0.8859 0.0195
vt 0.4564 0.0912
vt 0.4564 0.1075
vt 0.4228 0.1075
vt 0.4228 0.0912
vt 0.7248 0.3360
vt 0.7248 0.3034
vt 0.7584 0.3034
vt 0.7584 0.3360
vt 0.9463 0.4337
vt 0.8255 0.0358
vt 0.7919 0.0358
vt 0.7919 0.0033
vt 0.8255 0.0033
vt 0.2886 0.3941
vt 0.5638 0.1075
vt 0.6309 0.4597
vt 0.7718 0.2806
vt 0.7718 0.2480
vt 0.8054 0.2480
vt 0.8054 0.2806
vt 0.2752 0.3876
vt 0.4228 0.2997
vt 0.4564 0.2997
vt 0.4564 0.3485
vt 0.4228 0.3342
vt 0.6779 0.2480
vt 0.5839 0.2969
vt 0.9933 0.2480
vt 0.8658 0.4109
vt 0.8993 0.4109
vt 0.4564 0.2443
vt 0.6980 0.0521
vt 0.9463 0.2480
vt 0.9463 0.2643
vt 0.9128 0.2643
vt 0.9128 0.2480
vt 0.5705 0.1401
vt 0.5705 0.1726
vt 0.5369 0.1726
vt 0.5369 0.1401
vt 0.4228 0.3485
vt 0.9329 0.0814
vt 0.9664 0.0879
vt 0.7450 0.2313
vt 0.5369 0.4141
vt 0.5369 0.3979
vt 0.5705 0.3979
vt 0.5705 0.4141
vt 0.6779 0.4435
vt 0.7114 0.4597
vt 0.6779 0.4597
vt 0.8188 0.2871
vt 0.3221 0.3485
vt 0.2886 0.3485
vt 0.2886 0.3160
vt 0.3221 0.3160
vt 0.7785 0.1596
vt 0.7785 0.1922
vt 0.7450 0.1922
vt 0.7450 0.1596
vt 0.9329 0.0033
vt 0.9664 0.0033
vt 0.9664 0.0195
vt 0.9329 0.0195
vt 0.4698 0.4169
vt 0.5034 0.4169
vt 0.5034 0.4332
vt 0.4698 0.4332
vt 0.9933 0.3262
vt 0.9933 0.3425
vt 0.9597 0.3425
vt 0.9597 0.3262
vt 0.5839 0.4825
vt 0.5839 0.4663
vt 0.6174 0.4663
vt 0.6174 0.4825
vt 0.9664 0.1564
vt 0.9664 0.1726
vt 0.9329 0.1726
vt 0.9329 0.1564
vt 0.5839 0.3979
vt 0.6174 0.3979
vt 0.6174 0.4141
vt 0.5839 0.4141
vt 0.6779 0.3979
vt 0.7114 0.3979
vt 0.7114 0.4141
vt 0.6779 0.4141
vt 0.8389 0.1792
vt 0.8725 0.1792
vt 0.8725 0.1954
vt 0.8389 0.1954
vt 0.8523 0.3490
vt 0.8523 0.3653
vt 0.8188 0.3653
vt 0.8188 0.3490
vt 0.8255 0.0879
vt 0.8255 0.1042
vt 0.7919 0.1042
vt 0.7919 0.0879
vt 0.9195 0.2182
vt 0.8859 0.2182
vt 0.8859 0.2020
vt 0.9195 0.2020
vt 0.4698 0.3941
vt 0.6309 0.3913
vt 0.9597 0.3718
vt 0.2953 0.2932
vt 0.2617 0.2932
vt 0.2617 0.2606
vt 0.2953 0.2606
vt 0.3691 0.3941
vt 0.3691 0.4104
vt 0.3356 0.4104
vt 0.3356 0.3941
vt 0.9195 0.1792
vt 0.3356 0.3550
vt 0.3691 0.3550
vt 0.3691 0.3876
vt 0.3356 0.3876
vt 0.7114 0.4435
vt 0.7919 0.2248
vt 0.4564 0.4169
vt 0.5839 0.4597
vt 0.7785 0.1205
vt 0.7785 0.1531
vt 0.7450 0.1531
vt 0.7450 0.1205
vt 0.4228 0.1726
vt 0.9664 0.2182
vt 0.9329 0.2182
vt 0.9329 0.2020
vt 0.9664 0.2020
vt 0.6846 0.0586
vt 0.6510 0.1075
vt 0.6510 0.0586
vt 0.9597 0.4337
vt 0.8993 0.4793
vt 0.8658 0.4793
vt 0.8658 0.4630
vt 0.8993 0.4630
vt 0.4564 0.4560
vt 0.4228 0.4560
vt 0.4228 0.4397
vt 0.4564 0.4397
vt 0.7315 0.0586
vt 0.3758 0.1173
vt 0.7114 0.3523
vt 0.6846 0.1075
vt 0.2752 0.3485
vt 0.2416 0.3485
vt 0.2416 0.3160
vt 0.2752 0.3160
vt 0.7248 0.2806
vt 0.7248 0.2480
vt 0.7584 0.2480
vt 0.7584 0.2806
vt 0.9463 0.3262
vt 0.9463 0.3425
vt 0.9128 0.3425
vt 0.9128 0.3262
vt 0.4899 0.2052
vt 0.2282 0.4625
vt 0.2282 0.4788
vt 0.1946 0.4788
vt 0.1946 0.4625
vt 0.8389 0.0033
vt 0.8725 0.0033
vt 0.8725 0.0195
vt 0.8389 0.0195
vt 0.3758 0.4788
vt 0.3758 0.4625
vt 0.4094 0.4625
vt 0.4094 0.4788
vt 0.2416 0.4625
vt 0.2752 0.4625
vt 0.2752 0.4788
vt 0.2416 0.4788
vt 0.9128 0.4630
vt 0.9463 0.4630
vt 0.9463 0.4793
vt 0.9128 0.4793
vt 0.9128 0.3718
vt 0.9463 0.3718
vt 0.9463 0.3881
vt 0.9128 0.3881
vt 0.8523 0.3946
vt 0.8523 0.4109
vt 0.8188 0.4109
vt 0.8188 0.3946
vt 0.8859 0.1498
vt 0.8859 0.1336
vt 0.9195 0.1336
vt 0.9195 0.1498
vt 0.5034 0.4560
vt 0.4698 0.4560
vt 0.4698 0.4397
vt 0.5034 0.4397
vt 0.8389 0.2182
vt 0.8389 0.2020
vt 0.8725 0.2020
vt 0.8725 0.2182
vt 0.4899 0.0521
vt 0.4899 0.0195
vt 0.5235 0.0195
vt 0.5235 0.0521
vt 0.5369 0.3588
vt 0.5705 0.3588
vt 0.5369 0.3913
vt 0.9664 0.1270
vt 0.7718 0.4663
vt 0.7718 0.4500
vt 0.8054 0.4500
vt 0.8054 0.4663
vt 0.8255 0.1107
vt 0.8255 0.1270
vt 0.7919 0.1270
vt 0.7919 0.1107
vt 0.9597 0.3034
vt 0.9933 0.3034
vt 0.9933 0.3197
vt 0.9597 0.3197
vt 0.2282 0.3485
vt 0.2282 0.2932
vt 0.1946 0.2932
vt 0.1946 0.2606
vt 0.2282 0.2606
vt 0.7919 0.1498
vt 0.7919 0.1336
vt 0.8255 0.1336
vt 0.8255 0.1498
vt 0.9128 0.3197
vt 0.4228 0.4104
vt 0.4228 0.3941
vt 0.4564 0.3941
vt 0.4564 0.4104
vt 0.2886 0.4788
vt 0.4564 0.3550
vt 0.8993 0.2708
vt 0.8993 0.2871
vt 0.8658 0.2871
vt 0.8658 0.2708
vt 0.6309 0.4663
vt 0.3221 0.3876
vt 0.2886 0.3876
vt 0.2886 0.3550
vt 0.3221 0.3550
vt 0.7718 0.3360
vt 0.7718 0.3034
vt 0.8054 0.3034
vt 0.8054 0.3360
vt 0.6644 0.4141
vt 0.6309 0.4141
vt 0.6309 0.3979
vt 0.6644 0.3979
vt 0.5705 0.3913
vt 0.0067 0.0033
vt 0.3423 0.2378
vt 0.8993 0.4174
vt 0.8993 0.4337
vt 0.8658 0.4337
vt 0.8658 0.4174
vt 0.4899 0.2586
vt 0.4899 0.2932
vt 0.4564 0.2932
vt 0.4564 0.2586
vt 0.6040 0.1889
vt 0.5705 0.1889
vt 0.8188 0.4174
vt 0.8523 0.4174
vt 0.8523 0.4337
vt 0.8188 0.4337
vt 0.6040 0.1238
vt 0.5705 0.1238
vt 0.4564 0.4625
vt 0.4564 0.4788
vt 0.4228 0.4788
vt 0.4228 0.4625
vt 0.5369 0.4207
vt 0.5705 0.4207
vt 0.5705 0.4369
vt 0.5369 0.4369
vt 0.5503 0.0912
vt 0.5503 0.1075
vt 0.5168 0.1075
vt 0.5168 0.0912
vt 0.8389 0.2248
vt 0.8725 0.2248
vt 0.8725 0.2410
vt 0.8389 0.2410
vt 0.5369 0.2070
vt 0.5606 0.1954
vt 0.5606 0.2185
vt 0.2617 0.0033
vt 0.2282 0.0033
vt 0.1342 0.9967
vt 0.9664 0.1498
vt 0.2282 0.4560
vt 0.1946 0.4560
vt 0.1946 0.4397
vt 0.2282 0.4397
vt 0.6980 0.1629
vt 0.6980 0.1140
vt 0.7315 0.1140
vt 0.7315 0.1629
vt 0.9195 0.0814
vt 0.8859 0.0814
vt 0.8859 0.0651
vt 0.9195 0.0651
vt 0.9329 0.0586
vt 0.9329 0.0423
vt 0.9664 0.0423
vt 0.9664 0.0586
vt 0.7248 0.4272
vt 0.7584 0.4272
vt 0.7584 0.4435
vt 0.7248 0.4435
vt 0.4564 0.0033
vt 0.4899 0.0033
vt 0.6452 0.2415
vt 0.6452 0.2252
vt 0.6788 0.2252
vt 0.6788 0.2415
vt 0.5844 0.2300
vt 0.6309 0.4207
vt 0.6644 0.4207
vt 0.6644 0.4369
vt 0.6309 0.4369
vt 0.4564 0.0847
vt 0.4899 0.0847
vt 0.8054 0.4272
vt 0.8054 0.4435
vt 0.7718 0.4435
vt 0.7718 0.4272
vt 0.0537 0.9967
vt 0.6174 0.4369
vt 0.5839 0.4369
vt 0.5839 0.4207
vt 0.6174 0.4207
vt 0.5705 0.0033
vt 0.6040 0.0033
vt 0.6040 0.0378
vt 0.5705 0.0378
vt 0.2282 0.1238
vt 0.2617 0.1238
vt 0.3423 0.2443
vt 0.3758 0.2443
vt 0.8658 0.3881
vt 0.8658 0.3718
vt 0.8993 0.3718
vt 0.8993 0.3881
vt 0.3758 0.3094
vt 0.3423 0.3094
vt 0.9933 0.4402
vt 0.9933 0.4565
vt 0.9597 0.4565
vt 0.9597 0.4402
vt 0.8725 0.1107
vt 0.8725 0.1270
vt 0.8389 0.1270
vt 0.8389 0.1107
vt 0.5034 0.0912
vt 0.5034 0.1075
vt 0.4698 0.1075
vt 0.4698 0.0912
vt 0.8658 0.3490
vt 0.8993 0.3490
vt 0.8993 0.3653
vt 0.8658 0.3653
vt 0.5369 0.2300
vt 0.5606 0.2415
vt 0.9463 0.4109
vt 0.9128 0.4109
vt 0.9128 0.3946
vt 0.9463 0.3946
vt 0.1477 0.9967
vt 0.3423 0.0033
vt 0.8993 0.4565
vt 0.8658 0.4565
vt 0.8658 0.4402
vt 0.8993 0.4402
vt 0.2617 0.3094
vt 0.2282 0.3094
vt 0.4564 0.1238
vt 0.9933 0.3490
vt 0.9933 0.3653
vt 0.9597 0.3653
vt 0.9597 0.3490
vt 0.8658 0.3425
vt 0.8658 0.3262
vt 0.8993 0.3262
vt 0.8993 0.3425
vt 0.2282 0.2443
vt 0.2617 0.2443
vt 0.8725 0.0879
vt 0.8725 0.1042
vt 0.8389 0.1042
vt 0.8389 0.0879
vt 0.2752 0.3941
vt 0.2752 0.4104
vt 0.2416 0.4104
vt 0.2416 0.3941
vt 0.2416 0.4169
vt 0.2752 0.4169
vt 0.2752 0.4332
vt 0.2416 0.4332
vt 0.6318 0.2070
vt 0.4094 0.4560
vt 0.3758 0.4560
vt 0.3758 0.4397
vt 0.4094 0.4397
vn 0.0000 -1.0000 -0.0000
vn -1.0000 -0.0000 0.0000
vn 0.0000 0.0000 -1.0000
vn 0.0000 0.0000 1.0000
vn 0.0000 1.0000 0.0000
vn 1.0000 0.0000 0.0000
usemtl palette.003
s off
f 1/1/1 2/2/1 3/3/1
f 4/4/2 5/5/2 6/6/2
f 7/7/1 8/8/1 9/9/1
f 9/10/3 10/11/3 7/12/3
f 11/13/1 12/14/1 13/15/1
f 12/16/2 14/17/2 13/18/2
f 2/2/1 1/1/1 5/19/1
f 15/20/2 16/21/2 17/22/2
f 18/23/1 19/24/1 20/25/1
f 21/26/1 22/27/1 23/28/1
f 24/29/4 25/30/4 26/31/4
f 27/32/1 28/33/1 25/34/1
f 29/35/2 30/36/2 31/37/2
f 32/38/4 33/39/4 34/40/4
f 35/41/1 36/42/1 37/43/1
f 38/44/2 39/45/2 40/46/2
f 41/47/1 42/48/1 43/49/1
f 41/50/4 43/51/4 44/52/4
f 45/53/2 41/54/2 46/55/2
f 47/56/2 48/57/2 49/58/2
f 50/59/2 51/60/2 52/61/2
f 53/62/3 47/63/3 51/64/3
f 54/65/5 55/66/5 56/67/5
f 57/68/3 54/69/3 58/70/3
f 59/71/2 60/72/2 61/73/2
f 61/74/5 51/75/5 62/76/5
f 54/65/5 56/67/5 58/77/5
f 54/78/2 62/79/2 50/59/2
f 47/80/5 63/81/5 52/82/5
f 64/83/5 65/84/5 66/85/5
f 67/86/4 68/87/4 69/88/4
f 70/89/5 68/90/5 71/91/5
f 64/92/2 72/93/2 73/94/2
f 74/95/5 75/96/5 76/97/5
f 77/98/2 78/99/2 79/100/2
f 75/101/4 67/86/4 69/88/4
f 75/102/2 80/103/2 72/104/2
f 81/105/2 82/106/2 83/107/2
f 84/108/5 85/109/5 86/110/5
f 87/111/4 88/112/4 85/113/4
f 89/114/2 87/115/2 85/116/2
f 73/94/2 90/117/2 4/4/2
f 77/98/2 79/100/2 91/118/2
f 92/119/1 93/120/1 94/121/1
f 93/122/6 95/123/6 94/124/6
f 96/125/1 97/126/1 98/127/1
f 93/128/3 99/129/3 96/130/3
f 100/131/6 96/132/6 99/133/6
f 15/134/3 13/135/3 19/136/3 18/137/3
f 101/138/3 102/139/3 103/140/3
f 104/141/1 105/142/1 102/143/1
f 106/144/1 107/145/1 100/146/1
f 107/147/6 108/148/6 100/131/6
f 108/149/1 101/150/1 97/126/1
f 109/151/6 110/152/6 111/153/6
f 112/154/6 113/155/6 114/156/6
f 111/157/1 115/158/1 116/159/1
f 117/160/6 118/161/6 119/162/6
f 109/163/1 112/164/1 114/165/1
f 120/166/4 121/167/4 122/168/4
f 123/169/1 117/170/1 119/171/1
f 115/172/6 124/173/6 116/174/6
f 115/175/3 111/176/3 110/177/3
f 122/178/1 121/179/1 118/180/1
f 125/181/1 126/182/1 127/183/1
f 128/184/6 129/185/6 127/186/6
f 125/187/4 129/188/4 130/189/4
f 131/190/5 132/191/5 133/192/5
f 134/193/3 135/194/3 133/195/3
f 136/196/5 134/197/5 137/198/5
f 138/199/6 139/200/6 136/201/6
f 140/202/6 141/203/6 142/204/6
f 138/205/5 137/198/5 141/206/5
f 143/207/5 139/208/5 144/209/5
f 135/210/5 131/190/5 133/192/5
f 145/211/5 146/212/5 147/213/5
f 148/214/6 145/215/6 149/216/6
f 149/217/3 145/218/3 147/219/3
f 150/220/5 151/221/5 152/222/5
f 153/223/4 154/224/4 155/225/4
f 153/226/5 156/227/5 157/228/5
f 158/229/4 159/230/4 160/231/4
f 146/212/5 140/232/5 147/213/5
f 156/233/6 161/234/6 162/235/6
f 163/236/1 16/237/1 164/238/1
f 98/127/1 15/239/1 17/240/1
f 132/241/5 165/242/5 49/243/5
f 48/244/3 166/245/3 49/246/3
f 167/247/4 89/248/4 168/249/4
f 16/250/2 165/251/2 164/252/2
f 4/4/2 58/253/2 5/5/2
f 132/254/6 163/255/6 169/256/6
f 170/257/6 106/258/6 143/259/6
f 135/260/6 99/133/6 131/261/6
f 168/249/4 171/262/4 126/263/4
f 16/264/1 18/23/1 20/25/1
f 15/239/1 11/13/1 13/15/1
f 13/18/2 14/17/2 19/265/2
f 11/266/2 172/267/2 173/268/2 10/269/2
f 6/270/3 5/271/3 1/272/3
f 21/273/3 23/274/3 174/275/3 36/276/3
f 12/277/3 10/11/3 9/10/3
f 6/270/3 1/272/3 12/278/3
f 173/268/2 7/279/2 10/269/2
f 12/16/2 1/280/2 14/17/2
f 11/13/1 10/281/1 12/14/1
f 14/282/1 1/1/1 3/3/1
f 15/20/2 18/283/2 16/21/2
f 37/43/1 36/42/1 174/284/1
f 174/285/2 23/286/2 22/287/2 25/288/2
f 175/289/3 31/290/3 30/291/3 38/292/3
f 24/293/1 27/32/1 25/34/1
f 26/31/4 25/30/4 22/294/4
f 175/295/2 38/44/2 40/46/2
f 29/296/1 31/297/1 175/298/1 176/299/1
f 29/300/4 176/301/4 177/302/4 178/303/4
f 177/304/2 176/305/2 179/306/2 180/307/2
f 30/308/3 181/309/3 21/310/3 182/311/3
f 21/312/2 181/313/2 183/314/2 26/315/2
f 183/316/1 181/317/1 30/318/1 178/319/1
f 183/320/4 178/321/4 184/322/4 26/323/4
f 39/324/1 38/325/1 30/326/1
f 21/327/2 36/328/2 35/329/2
f 185/330/1 27/331/1 32/332/1 43/333/1
f 186/334/2 180/335/2 187/336/2 46/337/2
f 32/38/4 27/338/4 33/39/4
f 44/339/1 34/340/1 186/341/1 46/342/1
f 188/343/4 180/344/4 186/345/4 34/346/4
f 32/347/2 34/348/2 44/349/2 43/350/2
f 184/351/2 178/352/2 188/353/2 34/354/2
f 33/355/1 26/356/1 184/357/1 34/358/1
f 24/359/2 26/360/2 33/361/2 27/362/2
f 188/363/1 178/364/1 177/365/1 180/366/1
f 12/367/2 9/368/2 30/369/2 182/370/2
f 21/26/1 26/371/1 22/27/1
f 29/35/2 178/372/2 30/36/2
f 45/53/2 189/373/2 41/54/2
f 41/47/1 189/374/1 42/48/1
f 41/50/4 44/52/4 46/375/4
f 21/376/1 6/377/1 12/378/1 182/379/1
f 4/4/2 6/6/2 21/327/2 35/329/2
f 30/326/1 9/9/1 8/8/1 39/324/1
f 90/117/2 57/380/2 58/253/2 4/4/2
f 47/56/2 53/381/2 48/57/2
f 52/382/3 51/64/3 47/63/3
f 61/74/5 53/383/5 51/75/5
f 59/384/3 62/385/3 190/386/3 91/387/3
f 64/388/3 66/389/3 191/390/3 72/391/3
f 50/59/2 62/79/2 51/60/2
f 57/68/3 62/392/3 54/69/3
f 59/71/2 91/393/2 60/72/2
f 59/394/5 61/74/5 62/76/5
f 54/65/5 50/395/5 55/66/5
f 47/80/5 49/396/5 63/81/5
f 191/397/2 66/398/2 68/399/2 67/400/2
f 192/401/3 72/402/3 193/403/3 83/404/3
f 70/89/5 69/405/5 68/90/5
f 193/406/5 80/407/5 81/408/5 83/409/5
f 72/104/2 80/103/2 193/410/2
f 70/411/5 194/412/5 88/413/5 195/414/5
f 77/415/5 190/416/5 83/417/5
f 75/418/4 74/419/4 81/420/4 80/421/4
f 196/422/2 197/423/2 87/424/2 198/425/2
f 199/426/5 200/427/5 87/428/5 197/429/5
f 199/430/4 197/431/4 196/432/4 201/433/4
f 75/434/2 69/435/2 70/436/2 76/437/2
f 199/438/2 195/439/2 88/440/2 200/441/2
f 70/442/4 195/443/4 199/444/4 76/445/4
f 81/446/2 74/447/2 199/448/2 201/449/2
f 81/450/5 201/451/5 196/452/5 202/453/5
f 199/454/5 74/95/5 76/97/5
f 77/455/3 83/456/3 203/457/3 78/458/3
f 83/107/2 82/106/2 203/459/2
f 203/460/5 82/461/5 204/462/5 78/463/5
f 81/464/4 202/465/4 204/466/4 82/467/4
f 204/468/2 202/469/2 196/470/2 205/471/2
f 191/472/5 67/473/5 75/474/5 72/475/5
f 64/83/5 73/476/5 65/84/5
f 190/477/2 62/478/2 192/479/2 83/480/2
f 84/481/2 89/114/2 85/116/2
f 86/110/5 85/109/5 88/482/5
f 87/111/4 200/483/4 88/112/4
f 57/484/5 72/485/5 192/486/5 62/487/5
f 57/380/2 90/117/2 73/94/2 72/93/2
f 77/415/5 91/488/5 190/416/5
f 206/489/6 97/490/6 101/491/6 207/492/6
f 92/119/1 99/493/1 93/120/1
f 93/122/6 98/494/6 95/123/6
f 93/128/3 96/130/3 98/495/3
f 100/131/6 108/148/6 96/132/6
f 96/125/1 108/149/1 97/126/1
f 104/496/3 102/139/3 101/138/3 108/497/3
f 103/498/1 102/143/1 105/142/1
f 208/499/1 106/144/1 100/146/1
f 209/500/3 108/501/3 107/502/3 106/503/3
f 113/504/1 210/505/1 110/506/1 211/507/1
f 101/491/6 103/508/6 207/492/6
f 115/172/6 210/509/6 124/173/6
f 115/175/3 110/177/3 210/510/3
f 109/151/6 211/511/6 110/152/6
f 212/512/3 111/513/3 213/514/3 118/515/3
f 211/516/4 114/517/4 113/518/4
f 112/154/6 214/519/6 113/155/6
f 212/520/6 118/521/6 121/522/6 215/523/6
f 109/524/1 111/525/1 212/526/1 215/527/1
f 112/528/6 216/529/6 129/530/6 217/531/6
f 109/532/4 215/533/4 121/534/4 218/535/4
f 125/536/1 219/537/1 220/538/1 221/539/1
f 129/540/1 216/541/1 222/542/1 130/543/1
f 112/544/4 223/545/4 222/546/4 216/547/4
f 222/548/6 219/549/6 125/550/6 130/551/6
f 222/552/4 224/553/4 220/554/4 219/555/4
f 109/556/6 218/557/6 222/558/6 223/559/6
f 222/560/1 218/561/1 121/562/1 224/563/1
f 121/564/6 225/565/6 220/566/6 224/567/6
f 226/568/3 118/569/3 117/570/3 227/571/3
f 109/163/1 223/572/1 112/164/1
f 226/573/1 122/178/1 118/180/1
f 123/169/1 227/574/1 117/170/1
f 226/575/6 227/576/6 120/577/6 122/578/6
f 220/579/1 225/580/1 120/581/1 228/582/1
f 120/166/4 225/583/4 121/167/4
f 104/584/6 108/585/6 213/586/6 111/587/6
f 109/588/4 114/517/4 211/516/4
f 171/589/6 128/184/6 127/186/6
f 127/183/1 126/182/1 171/590/1
f 125/187/4 127/591/4 129/188/4
f 213/592/1 108/593/1 209/594/1 118/595/1
f 209/596/6 106/258/6 119/162/6 118/161/6
f 116/159/1 105/142/1 104/141/1 111/157/1
f 138/597/3 141/598/3 140/599/3 146/600/3
f 166/601/6 133/602/6 132/603/6
f 136/201/6 139/200/6 135/260/6
f 138/205/5 136/196/5 137/198/5
f 134/193/3 136/604/3 135/194/3
f 170/605/3 144/606/3 138/607/3 162/608/3
f 162/235/6 161/234/6 170/257/6
f 156/609/3 229/610/3 145/611/3 230/612/3
f 170/613/5 143/207/5 144/209/5
f 138/199/6 144/614/6 139/200/6
f 142/204/6 141/203/6 137/615/6
f 134/616/6 133/602/6 166/601/6
f 156/617/6 230/618/6 231/619/6 157/620/6
f 145/621/5 232/622/5 231/623/5 230/624/5
f 233/625/6 234/626/6 235/627/6 159/628/6
f 156/233/6 152/629/6 161/234/6
f 236/630/5 160/631/5 237/632/5 238/633/5
f 239/634/4 157/635/4 231/636/4 232/637/4
f 233/638/5 159/639/5 158/640/5 240/641/5
f 233/642/4 240/643/4 241/644/4 234/645/4
f 236/646/6 240/647/6 158/648/6 160/649/6
f 236/650/4 238/651/4 242/652/4 240/653/4
f 239/654/6 232/655/6 241/656/6 240/657/6
f 239/658/5 240/659/5 242/660/5 157/661/5
f 154/662/6 157/663/6 242/664/6 238/665/6
f 243/666/5 234/667/5 241/668/5 232/669/5
f 244/670/5 245/671/5 148/672/5 149/673/5
f 244/674/6 147/675/6 246/676/6
f 244/677/3 149/217/3 147/219/3
f 243/678/4 232/679/4 148/680/4 245/681/4
f 243/682/6 245/683/6 247/684/6 234/685/6
f 150/686/3 152/687/3 156/688/3 248/689/3
f 153/226/5 248/690/5 156/227/5
f 150/691/6 248/692/6 153/693/6 155/694/6
f 154/695/5 238/696/5 249/697/5 155/698/5
f 153/223/4 157/699/4 154/224/4
f 250/700/5 168/701/5 251/702/5 160/703/5
f 152/222/5 151/221/5 161/704/5
f 148/214/6 232/705/6 145/215/6
f 250/706/6 159/707/6 167/708/6 168/709/6
f 160/231/4 159/230/4 250/710/4
f 138/711/6 146/712/6 145/713/6 229/714/6
f 138/715/5 229/716/5 156/717/5 162/718/5
f 95/719/3 17/720/3 16/721/3 94/722/3
f 246/676/6 147/675/6 140/723/6
f 163/236/1 94/724/1 16/237/1
f 95/725/1 98/127/1 17/240/1
f 11/13/1 15/239/1 98/127/1 97/126/1
f 206/726/3 172/727/3 11/728/3 97/729/3
f 173/730/1 172/731/1 206/732/1 207/733/1
f 8/8/1 7/7/1 103/498/1 105/142/1
f 7/7/1 173/730/1 207/733/1 103/498/1
f 175/298/1 40/734/1 124/735/1 210/505/1
f 176/299/1 175/298/1 210/505/1 113/504/1
f 179/736/4 214/737/4 112/738/4 180/739/4
f 179/740/1 176/299/1 113/504/1 214/741/1
f 187/742/1 180/743/1 112/744/1 217/745/1
f 124/746/3 40/747/3 39/748/3 116/749/3
f 45/750/1 46/751/1 129/752/1 128/753/1
f 187/754/4 217/755/4 129/756/4 46/757/4
f 45/758/4 128/759/4 171/262/4 189/760/4
f 116/159/1 39/324/1 8/8/1 105/142/1
f 48/761/5 53/383/5 134/197/5 166/762/5
f 132/241/5 169/763/5 165/242/5
f 49/246/3 166/245/3 132/764/3
f 134/197/5 53/383/5 61/74/5 137/198/5
f 137/765/3 61/766/3 60/767/3 142/768/3
f 60/769/5 91/770/5 140/771/5 142/772/5
f 140/773/3 91/774/3 79/775/3 246/776/3
f 196/777/5 198/778/5 235/779/5 234/780/5
f 78/463/5 204/462/5 245/671/5 244/670/5
f 196/781/4 234/782/4 247/783/4 205/784/4
f 204/462/5 205/785/5 247/786/5 245/671/5
f 87/787/5 89/788/5 167/789/5 159/790/5
f 168/249/4 89/248/4 84/791/4
f 87/792/4 159/793/4 235/794/4 198/795/4
f 79/796/5 78/463/5 244/670/5 246/797/5
f 16/798/3 20/799/3 63/800/3 49/801/3
f 16/250/2 49/802/2 165/251/2
f 52/61/2 19/265/2 14/17/2 50/59/2
f 14/803/3 3/804/3 55/805/3 50/806/3
f 55/807/2 3/808/2 2/809/2 56/810/2
f 56/810/2 2/809/2 5/5/2 58/253/2
f 63/811/2 20/812/2 19/265/2 52/61/2
f 65/813/2 37/814/2 174/285/2 66/398/2
f 66/398/2 174/285/2 25/288/2 68/399/2
f 28/815/4 27/816/4 70/817/4 71/818/4
f 68/399/2 25/288/2 28/819/2 71/820/2
f 70/821/2 27/822/2 185/823/2 194/824/2
f 35/825/3 37/826/3 65/827/3 73/828/3
f 88/829/2 43/830/2 42/831/2 86/832/2
f 185/833/4 43/834/4 88/835/4 194/836/4
f 42/837/4 189/760/4 84/791/4 86/838/4
f 92/839/3 94/840/3 132/841/3 131/842/3
f 4/4/2 35/329/2 73/94/2
f 132/254/6 94/843/6 163/255/6
f 131/261/6 99/133/6 92/844/6
f 100/131/6 99/133/6 135/260/6 139/200/6
f 208/845/3 100/846/3 139/847/3 143/848/3
f 123/849/6 151/850/6 150/691/6 227/576/6
f 143/259/6 106/258/6 208/851/6
f 227/576/6 150/691/6 155/694/6 120/577/6
f 220/852/6 238/853/6 237/854/6 221/855/6
f 220/856/4 228/857/4 249/858/4 238/859/4
f 120/577/6 155/694/6 249/860/6 228/861/6
f 123/862/3 119/863/3 161/864/3 151/865/3
f 125/866/6 160/867/6 251/868/6 126/869/6
f 125/870/4 221/871/4 237/872/4 160/873/4
f 106/258/6 170/257/6 161/234/6 119/162/6
f 251/874/4 168/249/4 126/263/4
f 163/875/3 164/876/3 165/877/3 169/878/3
f 189/760/4 171/262/4 168/249/4 84/791/4
