[
{"Name": "City Hall", "Owner": "Big Bad Boss", "VenueCost": 0, "TicketPrice": 0, "SeatNum": 0, "Rented": false},
{"Name": "Concert Hall", "Owner": "Ben L.", "VenueCost": 100, "TicketPrice": 10, "SeatNum": 160, "Rented": false},
{"Name": "Practice Hall", "Owner": "Colin C.", "VenueCost": 100, "TicketPrice": 0, "SeatNum": 0, "Rented": false},
{"Name": "OrcheSim News", "Owner": "Elton D.", "VenueCost": 0, "TicketPrice": 0, "SeatNum": 0, "Rented": false},
{"Name": "OrcheSim Times", "Owner": "Rob F.", "VenueCost": 0, "TicketPrice": 0, "SeatNum": 0, "Rented": false},
{"Name": "Mascot Company", "Owner": "Luca G.", "VenueCost": 0, "TicketPrice": 0, "SeatNum": 0, "Rented": false}
]