# Blender v2.78 (sub 0) OBJ File: ''
# www.blender.org
mtllib practiceHall.mtl
o practiceHall.001
v -14.000013 -0.000012 -18.000027
v -14.000013 -0.000013 -14.000010
v -15.000018 -0.000012 -14.000010
v -15.000018 -0.000013 -13.000007
v -14.000013 -0.000013 -13.000007
v -14.000013 6.999973 -13.000006
v -15.000018 -0.000013 -9.000033
v -15.000018 -0.000013 -8.000029
v -14.000013 -0.000014 -8.000029
v -14.000013 7.999977 -8.000028
v -14.000013 -0.000014 -9.000033
v -14.000013 6.999973 -9.000032
v -12.843426 -0.000013 -8.201823
v -14.000013 2.208027 4.260743
v -14.000013 -0.000018 17.999989
v -14.000013 14.000001 -16.000017
v -9.000036 4.999966 -18.000027
v -14.000013 7.999978 -14.000010
v -15.000018 6.999973 -13.000006
v -15.000018 7.999978 -14.000010
v -15.000018 7.999977 -10.000036
v -14.000013 7.999977 -10.000036
v -12.000006 14.000001 -18.000025
v -12.000006 14.000001 -19.000029
v -15.000018 14.000001 -16.000017
v -14.000013 8.999981 -10.000035
v -15.000018 6.999973 -9.000032
v -15.000018 7.999977 -8.000028
v -14.000013 7.999975 -1.000001
v -15.000018 8.999981 -10.000035
v -15.000018 8.999980 -3.000008
v -14.000013 8.999980 -3.000008
v -14.000013 6.999971 -1.000001
v -15.000018 7.999975 -1.000001
v -15.000018 6.999971 -1.000001
v -15.000018 8.999979 -2.000004
v -14.000013 8.999979 -2.000004
v -14.000013 8.999979 -1.000000
v -14.000013 13.999999 -5.000015
v -15.000018 13.999999 -5.000015
v -14.000013 14.999961 -3.000007
v -15.000018 9.999983 -1.000000
v -14.000013 9.999983 -1.000000
v -15.000018 13.999998 -2.000003
v -15.000018 14.999961 -3.000007
v -14.000013 13.999998 -2.000003
v -9.000036 -0.000012 -20.000034
v -9.000036 4.999966 -20.000034
v -9.000036 -0.000012 -18.000027
v 0.999962 -0.000012 -20.000034
v -2.707176 -0.000014 -7.034202
v 0.999962 -0.000012 -18.000027
v -2.000008 14.000001 -18.000025
v -2.000008 14.000001 -19.000029
v 13.999973 -0.000016 6.999989
v 5.999983 -0.000018 17.999989
v -15.000018 6.999971 0.999965
v -14.000013 6.999971 0.999965
v -15.000018 9.999983 0.999965
v -15.000018 8.999979 -1.000000
v -14.000013 9.999983 0.999965
v -14.000013 13.999995 17.999990
v -15.000018 13.999995 18.999994
v -8.560080 7.084480 17.999990
v -5.000019 13.999995 17.999990
v -5.289714 7.475257 17.999990
v -5.000019 13.999995 18.999994
v -5.000019 7.999972 17.999992
v -4.301211 7.999972 17.999990
v -4.000015 8.999976 17.999990
v -5.000019 7.999972 18.999994
v -4.000015 8.999976 18.999994
v 5.999983 7.999972 17.999990
v 10.531342 8.999976 17.999990
v -4.000015 11.999988 18.999994
v -4.000015 12.999992 17.999990
v -4.000015 14.999957 17.999994
v -2.412110 14.267249 17.999990
v -4.000015 12.999992 18.999994
v 8.558110 12.999992 17.999990
v -1.000004 13.999995 17.999992
v -0.172031 13.999995 17.999990
v 9.999998 11.999988 18.999994
v -1.000004 13.999995 18.999994
v -14.000013 17.999975 -16.000015
v -11.000002 14.999963 -19.000029
v -11.000002 14.999963 -18.000025
v -12.000006 17.999977 -18.000023
v -11.000002 16.999971 -19.000029
v -14.000013 19.999985 -18.000023
v -15.000018 14.999963 -15.000012
v -15.000018 17.999975 -16.000015
v -15.000018 16.999969 -15.000012
v -14.000013 14.999963 -15.000012
v -14.000013 16.999969 -15.000012
v -7.000027 19.999983 -9.000031
v -15.000018 14.999961 -6.000019
v -15.000018 16.999969 -6.000018
v -14.000013 14.999961 -6.000019
v -14.000013 16.999969 -6.000018
v -15.000018 17.999973 -5.000014
v -14.000013 17.999973 -5.000014
v -7.000027 19.999981 -5.000014
v -14.000013 19.999977 17.999992
v -11.000002 16.999971 -18.000025
v -3.000011 14.999963 -19.000029
v -12.000006 17.999977 -19.000027
v -3.000011 16.999971 -18.000025
v -2.000008 17.999977 -19.000027
v -6.000023 19.999983 -10.000034
v -3.000011 14.999963 -18.000025
v -3.000011 16.999971 -19.000029
v -2.000008 17.999977 -18.000023
v 0.999962 19.999983 -14.000008
v -3.000011 19.999983 -10.000034
v -3.000011 19.999983 -9.000031
v -7.000027 27.999971 -9.000029
v -6.000023 19.999983 -9.000031
v -6.000023 20.999987 -9.000030
v -6.000023 21.609377 -9.000030
v -6.000023 22.286461 -9.000030
v -7.000027 23.999996 -5.000013
v -6.000023 23.999998 -6.000017
v -6.000023 22.963545 -9.000030
v -6.000023 23.640627 -9.000030
v -6.000023 24.317711 -9.000030
v -6.000023 24.994795 -9.000030
v 0.999962 19.999981 -5.000014
v -7.000027 23.999996 -3.000006
v -7.000027 25.000000 -3.000005
v -5.924479 23.640625 -5.000013
v -6.000023 23.999992 -5.000015
v -6.000023 25.000000 -5.000013
v -5.839844 23.999996 -4.223955
v -7.000027 25.000000 -2.000002
v -6.000023 25.000000 -3.000005
v -6.000023 25.000000 -2.000002
v -4.570312 20.999987 -9.000030
v -3.000011 27.999971 -10.000032
v -3.000011 20.999987 -9.000030
v -3.000011 21.609377 -9.000030
v -3.000011 22.286461 -9.000030
v -6.000023 20.999987 -6.000018
v -3.000011 20.999987 -8.000025
v -3.000011 22.963545 -9.000030
v -3.000011 23.640627 -9.000030
v -3.000011 24.317711 -9.000030
v -3.000011 24.994795 -9.000030
v -3.000011 23.999998 -6.000018
v -3.000011 26.999968 -6.000017
v 0.999962 19.999983 -9.000031
v -1.000004 25.000002 -8.000025
v 0.999962 20.999987 -8.000025
v 0.999962 20.999987 -6.000018
v -2.000008 25.999964 -9.000030
v -1.861979 24.783205 -6.000017
v -1.000004 25.000002 -6.000016
v -5.078125 23.999996 -5.000013
v -4.401041 23.999996 -5.000013
v -2.000008 23.999996 -3.000006
v -3.000011 25.000000 -5.000013
v -3.000012 25.000000 -3.000005
v -2.708333 23.555990 -5.000013
v -3.723959 23.999996 -5.000013
v -3.000011 23.999992 -5.000015
v -3.000011 25.000000 -2.000002
v -2.000008 23.999996 -5.000015
v -2.000008 25.000000 -3.000005
v 0.999962 25.000000 -5.000013
v -2.000008 25.000000 -2.000002
v -6.000023 27.999971 -10.000032
v -6.000023 25.671877 -9.000030
v -6.000023 26.348963 -9.000029
v -6.000023 27.026045 -9.000029
v -6.000023 27.999975 -9.000029
v -6.000023 27.999971 -8.434312
v -7.000027 25.999962 -2.000001
v -6.000023 26.729820 -2.446610
v -7.000027 27.999969 -0.000035
v -7.000027 25.999962 -0.999998
v -7.000027 26.999966 -0.999997
v -6.000025 25.999962 -2.000001
v -6.000022 25.999962 -0.999998
v -6.000023 27.999969 -0.000035
v -6.000025 26.999966 -0.999997
v -3.000011 25.671877 -9.000030
v -3.000011 26.348963 -9.000029
v -4.141724 27.999971 -9.000029
v -3.000011 27.026045 -9.000029
v -3.000013 27.999975 -9.000029
v -3.000011 27.999971 -7.947912
v -3.000011 27.999969 -5.660918
v -2.000008 27.999971 -9.000029
v -2.000008 25.999964 -8.000025
v -2.000008 25.999964 -7.270829
v -2.000008 26.348963 -8.000024
v -2.000008 26.348963 -7.270829
v -2.000008 25.999964 -6.000017
v -2.000008 26.348963 -6.000017
v -3.000010 26.999968 -8.000024
v -2.000008 26.999968 -8.000024
v -2.000008 26.999968 -7.609371
v -2.000008 26.999968 -6.932288
v -2.000008 26.999968 -6.000017
v -1.000004 25.999964 -8.000025
v -1.000004 25.999964 -7.270829
v 3.999973 26.999968 -8.000024
v 3.999973 25.999964 -8.000025
v -1.000004 25.999964 -6.000015
v -0.507812 26.348963 -6.000017
v 3.999973 25.999964 -6.000017
v 3.999973 26.999968 -6.000017
v -3.000010 25.999962 -2.000001
v -3.000011 26.999966 -0.999997
v -3.000012 25.999962 -0.999998
v -3.000011 27.999969 -0.000035
v -2.000007 25.999962 -5.000013
v -2.000008 25.999962 -2.000001
v 3.999973 25.999962 -5.000013
v -2.000008 25.999962 -0.999998
v -2.000008 27.999969 -0.000035
v -2.000008 26.999966 -0.999997
v -15.000018 14.999957 18.999994
v -14.000013 14.999957 17.999990
v -0.937714 19.999977 17.999992
v 0.999962 19.999981 -0.999999
v 2.999969 19.999979 7.999996
v -5.032114 14.999957 17.999990
v -4.000015 14.999957 18.999994
v 2.999969 19.999979 11.999969
v -3.618164 15.642575 17.999990
v -1.000004 16.108068 17.999990
v 0.000000 14.999957 17.999990
v 0.000000 16.999966 16.999987
v 0.000000 16.999964 17.999990
v 0.000000 14.999957 18.999994
v -1.000004 17.999969 18.999996
v 0.000000 16.999964 18.999994
v -1.000004 17.999969 17.999994
v 0.000000 17.999971 16.999989
v 0.000000 17.546871 17.999990
v 0.000000 17.999968 17.999992
v -7.000027 26.999966 -0.000036
v -6.000023 26.999966 -0.000036
v -3.000011 26.999966 -0.000036
v -2.000008 26.999966 -0.000036
v 0.999962 4.999966 -20.000034
v 7.999990 -0.000012 -18.000027
v 7.999990 -0.000012 -19.000031
v 7.999990 4.999966 -19.000031
v 11.000000 -0.000012 -19.000031
v 11.000000 -0.000012 -18.000027
v 11.000000 4.999966 -19.000031
v 10.535788 -0.000014 -5.704417
v 7.999990 4.999966 -18.000027
v 0.999962 4.999966 -18.000027
v 1.999966 14.000001 -19.000029
v 1.999966 14.000001 -18.000025
v 11.999966 14.000001 -19.000029
v 11.000000 4.999966 -18.000027
v 13.999973 -0.000012 -18.000027
v 14.999977 -0.000013 -8.000029
v 14.999977 -0.000014 -7.000025
v 13.999973 6.999972 -7.000024
v 14.999977 7.999977 -8.000028
v 13.999973 -0.000014 -7.000025
v 13.999973 -0.000016 5.999985
v 11.999966 14.000001 -18.000025
v 13.999973 19.999985 -18.000023
v 13.999973 -0.000013 -8.000029
v 13.999973 13.484377 -13.872395
v 13.999971 14.000000 -14.000009
v 14.999977 14.000000 -14.000009
v 13.999973 7.723142 -8.000028
v 13.999973 14.000000 -12.937934
v 13.999971 7.999977 -8.000028
v 13.999973 7.999977 -7.617772
v 14.999977 7.999975 3.999976
v 14.999977 6.999972 -7.000024
v 13.999973 7.999975 3.999976
v 14.999977 6.999970 5.999986
v 13.999973 13.999999 -3.000007
v 13.999973 13.012268 -2.615222
v 14.999977 13.999999 -3.000007
v 11.000000 -0.000018 17.999989
v 5.321452 -0.000018 16.786785
v 6.999987 -0.000018 17.999989
v 5.999983 -0.000018 18.999992
v 6.999987 -0.000018 18.999992
v 5.999983 7.999972 18.999994
v 6.999987 6.999969 18.999994
v 14.999977 8.999976 18.999994
v -4.000015 11.999988 17.999990
v 8.374135 13.999995 17.999990
v 8.999994 13.999995 18.999994
v 9.999998 12.999992 18.999994
v 6.999987 6.999969 17.999990
v 11.000000 6.999969 17.999990
v 11.000000 6.999969 18.999994
v 8.971354 11.135739 17.999990
v 11.817222 9.908526 17.999990
v 9.999998 10.999984 17.999994
v 9.999998 11.999988 17.999989
v 10.833334 10.999984 17.999990
v 9.999998 10.999985 18.999994
v 9.999998 12.999992 17.999990
v 8.999994 13.999995 17.999994
v 9.999998 13.999995 17.999994
v 11.999966 13.999995 17.999992
v 9.999998 13.999995 18.999994
v 13.999973 6.999970 5.999986
v 14.999977 -0.000016 5.999985
v 14.999977 -0.000016 6.999989
v 13.999973 3.857095 8.513673
v 13.999971 3.999957 10.999963
v 13.999973 2.904945 12.385742
v 13.999973 -0.000018 17.999989
v 13.999973 3.328122 11.010419
v 13.999972 3.999957 12.999970
v 11.999966 -0.000018 17.999989
v 11.000000 -0.000018 18.999992
v 11.999966 -0.000018 18.999992
v 11.999966 7.999972 17.999990
v 13.999971 8.999978 3.999977
v 14.999977 8.999978 3.999977
v 13.999972 5.142907 6.999990
v 14.999977 7.999974 6.999990
v 13.999973 7.999974 6.999990
v 13.999970 4.999961 7.999993
v 14.999977 4.999961 7.999993
v 13.999973 4.999961 10.999963
v 13.999973 7.999974 7.999994
v 13.999973 5.999966 8.999997
v 13.999973 5.999965 10.999963
v 14.999977 5.999966 8.999997
v 14.999977 4.999961 10.999963
v 14.999977 5.999965 10.999963
v 13.999971 6.999969 10.999963
v 13.999973 7.999974 8.999997
v 14.999977 7.999974 7.999994
v 13.999973 8.999978 4.413999
v 13.999973 13.999996 13.042781
v 13.999973 13.874492 2.622256
v 13.999972 13.999997 2.999974
v 14.999977 13.999997 2.999974
v 14.999977 3.999957 10.999963
v 13.999973 5.528644 12.999970
v 14.999977 3.999957 12.999970
v 14.999977 6.999969 12.999970
v 13.999973 6.882810 13.380212
v 14.999977 6.999969 10.999963
v 13.999971 6.999969 12.999970
v 14.999977 7.999974 8.999997
v 11.999966 7.999973 18.999994
v 13.999973 7.999972 17.999990
v 13.999973 8.999976 17.999990
v 14.999977 7.999972 18.999994
v 14.999977 13.999996 13.999975
v 13.999972 13.999996 13.999975
v 11.999966 10.999985 17.999994
v 12.695313 11.283851 17.999990
v 11.999966 10.999985 18.999994
v 11.999966 13.999995 18.999994
v 2.999969 14.999963 -19.000029
v 1.999966 17.999977 -18.000023
v 2.999969 16.999971 -19.000029
v 1.999966 17.999977 -19.000027
v 2.999969 14.999963 -18.000025
v 2.999969 16.999971 -18.000025
v 11.999966 17.999977 -18.000023
v 0.999962 25.000002 -14.000007
v 0.999962 25.000002 -9.000030
v 11.000000 14.999963 -18.000025
v 11.999966 17.999977 -19.000027
v 11.000000 16.999971 -18.000025
v 11.000000 16.999971 -19.000029
v 11.000000 14.999963 -19.000029
v 9.999998 25.000002 -14.000007
v 0.999962 25.000002 -8.000025
v 0.999962 25.000002 -6.000017
v 3.999973 25.000004 -9.000030
v 3.999973 25.000002 -8.000025
v 3.999973 25.000002 -6.000017
v 4.999977 25.000002 -8.000025
v 4.999977 25.000004 -6.000017
v 0.999962 25.000000 -0.999998
v 2.999969 23.999996 -0.999998
v 2.999969 19.999981 -0.999999
v 3.999973 25.000002 -5.000013
v 6.753642 25.000000 -3.144853
v 9.999998 19.999981 -0.999999
v 9.999998 25.000000 -0.999998
v 5.999983 21.999990 -0.999998
v 8.999994 21.999990 -0.999998
v 5.999983 23.999996 -0.999998
v 13.999973 19.999981 4.082454
v 8.999994 19.999981 -0.999999
v 3.999973 25.999964 -9.000030
v 4.999977 25.999964 -8.000025
v 4.999977 25.999964 -6.000017
v 13.999973 17.999975 -14.000008
v 13.999973 14.999962 -13.000004
v 14.999977 14.999962 -13.000004
v 14.999977 16.999969 -13.000004
v 13.999973 18.625978 -14.158038
v 14.999977 17.999975 -14.000008
v 9.999998 19.999983 -14.000008
v 13.999973 16.999969 -13.000004
v 14.999977 14.999961 -4.000011
v 14.999977 16.999968 -4.000010
v 13.999973 14.999961 -4.000011
v 14.999977 17.999973 -3.000007
v 13.999973 19.239584 -9.598305
v 13.999973 16.999968 -4.000010
v 13.999973 17.999973 2.999974
v 13.999972 17.999973 -3.000007
v 13.999973 19.059732 -3.134274
v 2.999969 19.999981 0.999967
v 2.999969 22.999992 -0.000036
v 2.999969 22.999992 0.999968
v 5.999983 22.999992 0.999968
v 5.999983 19.999981 0.999967
v 2.999969 23.999996 -0.000036
v 5.999983 22.999992 -0.000036
v 5.999983 23.999996 -0.000036
v 0.999962 21.999989 6.999992
v 1.999966 20.999983 6.999992
v 1.999966 21.999989 5.999989
v 1.999966 21.999989 6.999992
v 1.999966 20.999983 12.999973
v 2.999969 22.999990 5.999989
v 2.999969 23.999994 5.999989
v 1.999966 24.999998 5.999989
v 1.999966 24.999998 6.999993
v 0.999962 22.999990 7.999996
v 0.999962 23.999994 7.999996
v 0.999962 22.999990 11.999969
v 0.999962 24.999998 6.999993
v 0.999962 23.999994 9.825525
v 1.999966 22.999990 9.000000
v 1.999966 22.999990 10.999966
v 1.999966 23.999996 9.000000
v 1.999966 24.999998 12.999973
v 2.877604 23.999994 8.640629
v 1.999966 23.999994 10.999966
v 5.999983 19.999979 7.999996
v 6.999987 21.999989 5.999989
v 2.999969 20.999983 7.999996
v 2.999969 20.999983 8.640629
v 3.723959 20.999983 7.999996
v 3.999973 20.999983 9.000000
v 2.999969 20.999983 9.317713
v 2.999969 20.999983 9.994797
v 2.999969 22.999990 7.999996
v 2.999969 22.999990 9.000000
v 4.443359 22.117186 7.999996
v 2.999969 22.999990 10.999966
v 3.999973 20.999983 10.999966
v 4.401041 20.999983 7.999996
v 5.078125 20.999983 7.999996
v 4.999977 20.999983 9.000000
v 4.999977 20.999983 10.999966
v 3.999973 22.999990 6.999992
v 3.999973 23.999996 6.999992
v 6.999987 24.999998 6.999993
v 5.999983 22.999990 5.999989
v 4.999977 22.999990 6.999992
v 5.999983 23.999994 5.999989
v 6.999987 24.999998 5.999989
v 4.999977 23.999996 6.999992
v 2.999969 23.999996 7.999996
v 3.999973 22.999990 7.999998
v 3.999973 23.999996 7.999996
v 2.999969 23.999996 9.000000
v 2.999969 23.999994 10.999966
v 3.999973 23.999996 10.999966
v 4.999977 22.999990 7.999998
v 4.999977 23.999996 7.999996
v 3.999973 23.999996 9.000000
v 5.924480 23.999994 8.640629
v 4.999977 23.999996 9.000000
v 4.999977 23.999994 10.999966
v 5.999983 19.999981 -0.000037
v 8.999994 21.999990 -0.000036
v 5.999983 21.999990 -0.000036
v 8.999994 19.999981 -0.000037
v 6.999987 20.999983 6.999992
v 6.999987 21.999989 6.999992
v 7.999991 21.999989 6.999992
v 5.999983 20.999983 7.999996
v 5.999983 20.999983 8.640629
v 6.999987 20.999983 12.999973
v 5.999983 19.999979 11.999969
v 5.999983 20.999983 9.317713
v 5.999983 20.999983 9.994797
v 5.999983 22.999990 7.999996
v 5.999983 22.999990 9.000000
v 5.999983 22.999990 10.999966
v 7.999990 21.999989 12.999973
v 5.999983 23.999996 7.999996
v 7.999990 23.302082 6.999992
v 7.999991 24.999998 6.999993
v 7.999992 23.999994 7.999996
v 6.999987 22.999990 9.000000
v 5.999983 23.999996 9.000000
v 7.999992 22.999990 7.999996
v 6.999987 22.999990 10.999966
v 7.999991 22.999990 11.999969
v 7.999990 23.999994 9.360030
v 6.999987 23.999996 9.000000
v 6.999987 23.999994 10.999966
v 0.338541 16.999964 17.999990
v 1.015625 16.999964 17.999990
v 7.999990 16.999966 16.999987
v 1.692709 16.999964 17.999990
v 2.369791 16.999964 17.999990
v 3.681641 17.546871 17.999990
v 0.338541 17.999968 17.999992
v 1.015625 17.999968 17.999992
v 1.692709 17.999968 17.999992
v 2.369791 17.999968 17.999992
v 8.999994 17.999969 18.999996
v 3.046875 16.999964 17.999990
v 7.999990 14.999957 17.999990
v 3.723959 16.999964 17.999990
v 4.401041 16.999964 17.999990
v 5.078125 16.999964 17.999990
v 7.999990 16.999964 18.999994
v 7.999990 14.999957 18.999994
v 7.999990 17.999971 16.999989
v 3.046875 17.999968 17.999992
v 3.723959 17.999968 17.999992
v 4.401041 17.999968 17.999992
v 5.078125 17.999968 17.999992
v 0.999962 21.999989 12.999973
v 1.999966 21.999989 12.999973
v 1.999966 21.999989 13.999977
v 0.999962 23.999994 11.999969
v 0.999962 24.999998 12.999973
v 2.999969 22.999990 13.999977
v 1.999966 24.999998 13.999977
v 2.999969 20.999983 10.671879
v 2.999969 20.999983 11.348965
v 2.999969 20.999983 11.999969
v 3.723959 20.999983 11.999969
v 2.999969 22.999990 11.999969
v 4.570312 21.947916 11.999969
v 4.401041 20.999983 11.999969
v 5.078125 20.999983 11.999969
v 6.999987 21.999989 12.999973
v 2.999969 23.999994 13.999977
v 3.999973 22.999990 12.999973
v 4.654948 23.999994 11.348965
v 2.999969 23.999996 11.999969
v 6.999987 24.999998 12.999973
v 3.999973 23.999996 11.999969
v 3.999973 23.999994 12.999973
v 3.999973 22.999990 11.999969
v 4.999977 22.999990 11.999969
v 4.999977 22.999990 12.999973
v 4.999977 23.999996 11.999969
v 4.999977 23.999994 12.999973
v 5.999983 23.999994 13.999977
v 6.999987 24.999998 13.999977
v 5.755209 16.999964 17.999990
v 6.432293 16.999964 17.999990
v 7.109375 16.999964 17.999990
v 7.999990 16.999964 17.999990
v 5.755209 17.999968 17.999992
v 6.432293 17.999968 17.999992
v 7.109375 17.999968 17.999992
v 7.999990 17.546871 17.999990
v 7.999990 17.999968 17.999992
v 8.999994 15.343530 17.999990
v 9.817709 16.785152 17.999990
v 13.999973 19.999977 17.999992
v 8.999994 17.999969 17.999996
v 9.182943 18.985672 17.999992
v 5.999983 20.999983 10.671879
v 5.999983 20.999983 11.348965
v 5.999983 20.999983 11.999969
v 5.999983 22.999990 11.999969
v 5.999983 22.999990 13.999977
v 5.999983 23.999996 10.999966
v 5.999983 23.999996 11.999969
v 7.999992 23.999994 11.999969
v 7.999990 24.999998 12.999973
v 6.999987 21.999989 13.999977
v 1.999966 25.999960 6.999993
v 6.999987 25.999960 6.999993
v 6.999987 25.999960 12.999973
v 1.999966 25.999960 12.999973
v 13.999973 14.999959 3.999978
v 13.999973 16.999968 3.999978
v 14.999977 16.999968 3.999978
v 13.999973 17.561617 2.999974
v 14.999977 14.999959 3.999978
v 14.999977 16.999966 12.999972
v 14.999977 14.999958 12.999972
v 13.999973 14.999958 12.999972
v 14.999977 17.999973 2.999974
v 14.999977 17.999971 13.999976
v 13.999973 16.999966 12.999972
v 13.999973 16.382084 13.999976
v 13.999972 17.999971 13.999976
v 13.999973 18.477861 14.226566
v 12.510174 14.595212 17.999990
vt 0.1912 0.9300
vt 0.2013 1.0000
vt 0.1912 1.0000
vt 0.9899 0.3200
vt 0.9799 0.2400
vt 0.9899 0.2400
vt 0.2803 0.2720
vt 0.2919 0.2800
vt 0.2919 0.3200
vt 0.2919 0.2700
vt 0.8691 0.2600
vt 0.8469 0.1226
vt 0.8691 0.0000
vt 0.1782 0.2603
vt 0.2919 0.0100
vt 0.0000 0.3900
vt 0.0503 0.4400
vt 0.0000 0.4400
vt 0.4228 0.4000
vt 0.3624 0.3800
vt 0.5033 0.3600
vt 0.7298 0.4011
vt 0.7162 0.3968
vt 0.7877 0.3600
vt 0.9866 0.5300
vt 0.9967 0.6100
vt 0.9866 0.6100
vt 0.2013 0.9300
vt 0.1107 0.9900
vt 0.1208 0.9500
vt 0.1208 0.9900
vt 0.4832 0.9500
vt 0.4731 0.9900
vt 0.4731 0.9500
vt 0.7347 0.4323
vt 0.4127 0.4400
vt 0.3624 0.4900
vt 0.9564 0.4700
vt 0.9665 0.4700
vt 0.9665 0.5800
vt 0.9799 0.3200
vt 0.7440 0.4501
vt 0.7258 0.4369
vt 0.9463 0.8500
vt 0.9564 0.8600
vt 0.9463 0.8600
vt 0.7987 0.0700
vt 0.7886 0.0700
vt 0.7886 0.0000
vt 0.7764 0.5122
vt 0.7582 0.4991
vt 0.9899 0.1600
vt 1.0000 0.1600
vt 1.0000 0.2300
vt 0.7383 0.3500
vt 0.7484 0.3500
vt 0.7383 0.3600
vt 0.9094 0.3500
vt 0.9094 0.3600
vt 0.8993 0.3600
vt 0.8893 0.3500
vt 0.8993 0.3600
vt 0.8893 0.3600
vt 0.7182 0.5310
vt 0.7046 0.5267
vt 0.2718 0.9900
vt 0.2617 0.9900
vt 0.2718 0.9400
vt 0.4127 0.5100
vt 0.7786 0.0700
vt 0.7685 0.0700
vt 0.7786 0.0600
vt 0.1007 0.9200
vt 0.0805 0.9700
vt 0.0805 0.9200
vt 0.1409 0.3900
vt 0.2416 0.3900
vt 0.1007 0.9700
vt 0.9463 0.3600
vt 0.9463 0.4600
vt 0.9262 0.4600
vt 0.8053 0.8220
vt 0.7549 0.8220
vt 0.8053 0.7220
vt 0.2919 0.8700
vt 0.3020 0.9700
vt 0.2919 0.9700
vt 0.3020 0.8700
vt 0.9262 0.3600
vt 0.1409 0.4100
vt 0.1409 0.5100
vt 0.2919 0.3300
vt 0.2919 0.3700
vt 0.1510 0.8700
vt 0.1912 0.8700
vt 0.1510 0.9400
vt 0.1912 0.9400
vt 0.8155 0.4133
vt 0.7483 0.4366
vt 0.8108 0.4044
vt 0.7685 0.0900
vt 0.7987 0.0900
vt 0.7946 0.5254
vt 0.7854 0.5076
vt 0.7675 0.5168
vt 0.7678 0.5392
vt 0.7585 0.5214
vt 0.7282 0.2600
vt 0.7282 0.0600
vt 0.0000 0.9600
vt 0.0101 0.9600
vt 0.0000 0.9900
vt 0.3926 0.9300
vt 0.3926 0.7300
vt 0.4026 0.7200
vt 0.2919 0.7800
vt 0.2223 0.8156
vt 0.2262 0.7829
vt 0.3020 0.7300
vt 0.3020 0.7200
vt 0.1510 0.6700
vt 0.2315 0.7730
vt 0.2315 0.6700
vt 0.6981 0.1921
vt 0.6573 0.1996
vt 0.6679 0.1903
vt 0.7081 0.1927
vt 0.7282 0.1940
vt 0.7176 0.2034
vt 0.8658 0.5100
vt 0.8557 0.5400
vt 0.8557 0.4144
vt 0.7069 0.0524
vt 0.9564 0.7500
vt 0.9665 0.6900
vt 0.9665 0.7500
vt 0.2315 0.7800
vt 0.8457 0.5400
vt 0.8155 0.5400
vt 0.8155 0.3947
vt 0.1510 0.8700
vt 0.2919 0.8700
vt 0.3221 0.3800
vt 0.3020 0.3600
vt 0.2013 0.3900
vt 0.1812 0.4100
vt 0.9497 0.3600
vt 0.9396 0.3600
vt 0.9497 0.3400
vt 0.8893 0.2500
vt 0.8792 0.2400
vt 0.9195 0.2400
vt 0.4832 0.9500
vt 0.4932 0.9500
vt 0.4832 0.9900
vt 0.9463 0.4600
vt 0.9463 0.5500
vt 0.9262 0.5500
vt 0.9665 0.8600
vt 0.9765 0.8600
vt 0.9765 0.9500
vt 0.7449 0.9620
vt 0.7549 0.9820
vt 0.7449 0.9820
vt 0.3221 0.4900
vt 0.8893 0.3400
vt 0.9195 0.3500
vt 0.8792 0.3500
vt 0.9094 0.3400
vt 0.9866 0.9800
vt 0.9765 0.9400
vt 0.9866 0.9400
vt 0.3523 0.5100
vt 0.9161 0.6400
vt 0.9262 0.6400
vt 0.9262 0.8600
vt 0.9799 0.0800
vt 0.9899 0.0000
vt 0.9899 0.0800
vt 0.9597 0.0800
vt 0.9396 0.0800
vt 0.9396 0.0000
vt 0.3825 0.2800
vt 0.3724 0.2700
vt 0.1510 0.9900
vt 0.1611 0.9700
vt 0.1611 0.9900
vt 0.9765 0.4600
vt 0.9665 0.4600
vt 0.9765 0.3600
vt 0.1812 0.5100
vt 0.7348 0.9420
vt 0.7449 0.9520
vt 0.7147 0.9420
vt 0.4530 0.3200
vt 0.5838 0.3600
vt 0.4127 0.2800
vt 0.4127 0.2700
vt 0.9866 0.6900
vt 0.9765 0.6900
vt 0.9866 0.6100
vt 0.7449 0.8520
vt 0.7348 0.8620
vt 0.2013 0.6700
vt 0.1812 0.5500
vt 0.9967 0.6900
vt 0.9866 0.6100
vt 0.9967 0.6100
vt 0.7282 0.3100
vt 0.7685 0.3100
vt 0.7282 0.3500
vt 0.6039 0.8900
vt 0.6280 0.9200
vt 0.6212 0.9200
vt 0.6144 0.9200
vt 0.6076 0.9200
vt 0.6007 0.9200
vt 0.5939 0.9200
vt 0.4530 0.2300
vt 0.3724 0.2300
vt 0.4530 0.1900
vt 0.5939 0.8800
vt 0.6039 0.8800
vt 0.6680 0.7308
vt 0.6643 0.7200
vt 0.7046 0.8000
vt 0.7169 0.3154
vt 0.7046 0.3038
vt 0.7247 0.3038
vt 0.7247 0.3138
vt 0.2617 0.8829
vt 0.2502 0.9400
vt 0.2617 0.8761
vt 0.2617 0.8964
vt 0.2617 0.8896
vt 0.2617 0.9099
vt 0.2617 0.9032
vt 0.2617 0.8700
vt 0.2818 0.9100
vt 0.2617 0.9400
vt 0.2114 0.8900
vt 0.2315 0.9300
vt 0.1912 0.9300
vt 0.5112 0.8914
vt 0.4731 0.9200
vt 0.5033 0.8800
vt 0.9195 0.3600
vt 0.9396 0.3400
vt 0.9396 0.3600
vt 0.6341 0.8871
vt 0.6744 0.9100
vt 0.6341 0.8939
vt 0.6341 0.8736
vt 0.6442 0.8500
vt 0.6341 0.8804
vt 0.6341 0.8601
vt 0.6341 0.8668
vt 0.5335 0.8800
vt 0.8088 0.3400
vt 0.8217 0.3500
vt 0.8149 0.3500
vt 0.8088 0.3500
vt 0.8353 0.3500
vt 0.8285 0.3500
vt 0.8490 0.3500
vt 0.8421 0.3500
vt 0.5939 0.9500
vt 0.5838 0.9660
vt 0.5838 0.9592
vt 0.8389 0.3100
vt 0.8490 0.3100
vt 0.8389 0.3200
vt 0.7650 0.9820
vt 0.7549 0.9820
vt 0.7650 0.9748
vt 0.7650 0.9680
vt 0.5838 0.9728
vt 0.7247 0.3298
vt 0.7247 0.3230
vt 0.9161 0.9800
vt 0.9061 0.9900
vt 0.9061 0.9400
vt 0.0705 0.8900
vt 0.0805 0.8900
vt 0.0604 0.9100
vt 0.6543 0.8000
vt 0.6688 0.7629
vt 0.5838 0.9500
vt 0.5871 0.9200
vt 0.5803 0.9200
vt 0.5735 0.9200
vt 0.7886 0.2800
vt 0.8088 0.3500
vt 0.9698 0.2757
vt 0.9799 0.2700
vt 0.9799 0.3600
vt 0.5637 0.8300
vt 0.5737 0.8400
vt 0.5765 0.8545
vt 0.5838 0.8400
vt 0.5838 0.8500
vt 0.5637 0.9143
vt 0.2617 0.9235
vt 0.2617 0.9167
vt 0.2617 0.9303
vt 0.4026 0.9900
vt 0.4026 0.9600
vt 0.4127 0.9786
vt 0.5234 0.8900
vt 0.1409 0.9500
vt 0.1510 1.0000
vt 0.1409 1.0000
vt 0.4464 0.9751
vt 0.4429 0.9800
vt 0.4429 0.9300
vt 0.9665 0.7600
vt 0.9665 0.8200
vt 0.9625 0.8200
vt 0.9557 0.8200
vt 0.1510 0.9400
vt 0.1444 0.9400
vt 0.6341 0.8465
vt 0.6341 0.8533
vt 0.6341 0.8397
vt 0.9765 0.7500
vt 0.9665 0.7395
vt 0.9665 0.7166
vt 0.8626 0.3500
vt 0.8691 0.3400
vt 0.8694 0.3500
vt 0.9665 0.7500
vt 0.8591 0.2700
vt 0.8691 0.2700
vt 0.8591 0.2800
vt 0.9564 0.8600
vt 0.9564 0.8500
vt 0.9665 0.8500
vt 0.9765 0.6600
vt 0.9665 0.6600
vt 0.8792 0.3166
vt 0.9061 0.8600
vt 0.9363 0.8600
vt 0.9061 0.9400
vt 0.4127 0.9600
vt 0.0604 0.9200
vt 0.0569 0.9200
vt 0.2919 0.6400
vt 0.3020 0.6527
vt 0.2919 0.6600
vt 0.8558 0.3500
vt 0.6442 0.7700
vt 0.6643 0.7700
vt 0.8490 0.2800
vt 0.8490 0.2900
vt 0.9564 0.5800
vt 0.9665 0.5800
vt 0.9665 0.6900
vt 0.3020 0.7200
vt 0.9161 0.8500
vt 0.4335 0.0000
vt 0.4731 0.0600
vt 0.3020 0.0000
vt 0.8685 0.5241
vt 0.8823 0.5362
vt 0.8759 0.5400
vt 0.8759 0.5503
vt 0.8759 0.6400
vt 0.9262 0.5094
vt 0.9061 0.5100
vt 0.9061 0.5000
vt 0.8155 0.8600
vt 0.8155 0.8500
vt 0.8259 0.8500
vt 0.0906 0.9900
vt 0.1007 0.9700
vt 0.1007 0.9900
vt 0.5737 0.9500
vt 0.5838 0.9500
vt 0.5838 0.9689
vt 0.0403 0.3700
vt 0.0705 0.3700
vt 0.0705 0.3800
vt 0.1409 0.5500
vt 0.0503 0.5400
vt 0.7348 0.9820
vt 0.7247 0.9820
vt 0.7348 0.9520
vt 0.1409 0.6500
vt 0.0503 0.6400
vt 0.0503 0.6100
vt 0.8155 0.8620
vt 0.8155 0.9620
vt 0.8054 0.9620
vt 0.8054 0.8620
vt 0.0101 0.3700
vt 0.0101 0.2700
vt 0.0000 0.2700
vt 0.0000 0.2600
vt 0.2114 1.0000
vt 0.2114 0.9300
vt 0.2214 0.9300
vt 0.0000 0.6700
vt 0.6442 0.4106
vt 0.6390 0.4013
vt 0.6442 0.4000
vt 0.9564 0.4700
vt 0.9665 0.4594
vt 0.9665 0.4700
vt 0.5033 0.4600
vt 0.2214 1.0000
vt 0.5810 0.4600
vt 0.9497 0.2062
vt 0.9597 0.2100
vt 0.9497 0.2100
vt 0.9597 0.0900
vt 0.9497 0.0900
vt 0.6945 0.9100
vt 0.6945 0.9600
vt 0.6643 0.9600
vt 0.0000 0.6100
vt 0.0000 0.5400
vt 0.9363 0.9400
vt 0.9262 0.9900
vt 0.9262 0.9400
vt 0.4932 0.8500
vt 0.4932 0.7200
vt 0.5637 0.7200
vt 0.9665 0.3600
vt 0.0974 0.0221
vt 0.0101 0.1200
vt 0.0403 0.0100
vt 0.0805 0.0100
vt 0.0906 0.0100
vt 0.9799 0.1600
vt 0.9899 0.0800
vt 0.9899 0.1600
vt 0.6799 0.0006
vt 0.6642 0.0898
vt 0.9698 0.3300
vt 0.9597 0.2200
vt 0.9698 0.2270
vt 0.0000 0.6700
vt 0.0101 0.7147
vt 0.0000 0.8600
vt 0.9765 0.5537
vt 0.9665 0.5600
vt 0.9765 0.4683
vt 0.8155 0.8620
vt 0.8054 0.8476
vt 0.8155 0.7220
vt 0.6548 0.0792
vt 0.8370 0.4103
vt 0.7383 0.3500
vt 0.7383 0.3600
vt 0.7282 0.3500
vt 0.9765 0.5600
vt 0.9564 0.5000
vt 0.9463 0.5000
vt 0.9564 0.3600
vt 0.5637 0.8500
vt 0.2013 0.9300
vt 0.2114 1.0000
vt 0.2013 1.0000
vt 0.0302 0.0100
vt 0.5637 0.8300
vt 0.5637 0.7200
vt 0.5929 0.7739
vt 0.3020 1.0000
vt 0.3120 0.9300
vt 0.3120 1.0000
vt 0.9967 0.7700
vt 0.9866 0.7700
vt 0.9866 0.6900
vt 0.1468 0.6800
vt 0.1510 0.6700
vt 0.1510 0.6800
vt 0.9463 0.5000
vt 0.9564 0.5000
vt 0.9463 0.6300
vt 0.8792 0.3500
vt 0.8792 0.3600
vt 0.8691 0.3600
vt 0.9866 0.4400
vt 0.9866 0.4114
vt 0.9967 0.4400
vt 0.9597 0.3300
vt 0.9698 0.3600
vt 0.9597 0.3600
vt 0.2416 0.4700
vt 0.2416 0.5000
vt 0.2315 0.4900
vt 0.6140 0.7600
vt 0.6025 0.7351
vt 0.6140 0.7300
vt 0.9497 0.2400
vt 0.9597 0.2100
vt 0.9597 0.2400
vt 0.2114 0.4900
vt 0.2114 0.5000
vt 0.2013 0.5400
vt 0.8155 0.9820
vt 0.8054 0.9820
vt 0.8155 0.9620
vt 0.0101 0.6800
vt 0.2114 0.5100
vt 0.6442 0.6704
vt 0.6343 0.5138
vt 0.6429 0.5662
vt 0.7449 0.9620
vt 0.7549 0.8616
vt 0.7549 0.9620
vt 0.5939 0.7200
vt 0.5939 0.5841
vt 0.8389 0.3500
vt 0.8490 0.3600
vt 0.8389 0.3600
vt 0.2214 0.4500
vt 0.2516 0.4500
vt 0.9262 0.8600
vt 0.9363 0.8400
vt 0.9363 0.8600
vt 0.6442 0.8300
vt 0.6341 0.7600
vt 0.6442 0.7400
vt 0.9597 0.3600
vt 0.9497 0.3600
vt 0.9497 0.3400
vt 0.2315 0.4700
vt 0.2214 0.4700
vt 0.7484 0.3500
vt 0.7584 0.3500
vt 0.7584 0.3600
vt 0.2013 0.3900
vt 0.6330 0.7838
vt 0.6193 0.7800
vt 0.6341 0.7800
vt 0.6679 0.0299
vt 0.6698 0.0000
vt 0.5435 0.8600
vt 0.5637 0.8500
vt 0.5637 0.8600
vt 0.5335 0.8500
vt 0.7449 0.8520
vt 0.7549 0.8520
vt 0.6442 0.6800
vt 0.9262 0.3600
vt 0.8718 0.3749
vt 0.8155 0.3600
vt 0.6543 1.0000
vt 0.6442 1.0000
vt 0.6543 0.9883
vt 0.5134 0.9900
vt 0.5033 0.9900
vt 0.5033 0.9600
vt 0.8246 0.3818
vt 0.6968 0.0518
vt 0.6981 0.0318
vt 0.7270 0.0536
vt 0.7169 0.0530
vt 0.6945 1.0000
vt 0.6845 1.0000
vt 0.6945 0.9800
vt 0.6039 0.7600
vt 0.6154 0.7200
vt 0.9061 0.8600
vt 0.9061 0.9300
vt 0.8658 0.9300
vt 0.5870 0.0349
vt 0.5876 0.0250
vt 0.5972 0.7601
vt 0.8356 0.9800
vt 0.8255 1.0000
vt 0.8255 0.9800
vt 0.6140 0.9800
vt 0.6241 0.9800
vt 0.6241 1.0000
vt 0.9665 0.9600
vt 0.9564 0.8600
vt 0.9665 0.8600
vt 0.0000 0.9600
vt 0.0101 0.9500
vt 0.0403 0.9600
vt 0.5536 0.9500
vt 0.5637 0.9500
vt 0.5637 0.9900
vt 0.9765 0.4500
vt 0.9866 0.5300
vt 0.9765 0.5300
vt 0.1309 0.9400
vt 0.1510 0.8600
vt 0.1510 0.9400
vt 0.0101 0.8700
vt 0.9195 0.0000
vt 0.8691 0.0900
vt 0.8691 0.0000
vt 0.5838 0.3538
vt 0.6341 0.3038
vt 0.6341 0.3538
vt 0.1912 0.8900
vt 0.6744 0.8600
vt 0.4932 0.8500
vt 0.4026 0.8000
vt 0.4328 0.8000
vt 0.5033 0.9600
vt 0.5033 0.9200
vt 0.5234 0.9600
vt 0.6341 0.3538
vt 0.6341 0.3038
vt 0.6744 0.3538
vt 0.6744 0.3038
vt 0.4605 0.7414
vt 0.4328 0.7600
vt 0.4026 0.7200
vt 0.7549 0.9120
vt 0.7650 0.8420
vt 0.7650 0.8720
vt 0.7851 0.9020
vt 0.8053 0.9020
vt 0.8053 0.9120
vt 0.4932 0.7200
vt 0.4530 0.9300
vt 0.0906 0.9900
vt 0.0805 0.9900
vt 0.0805 0.9700
vt 0.9866 0.9400
vt 0.9967 0.9600
vt 0.9866 0.9600
vt 0.2919 0.9900
vt 0.3020 0.9700
vt 0.3020 0.9900
vt 0.1812 0.6500
vt 0.6908 0.3984
vt 0.6845 0.4000
vt 0.7046 0.3600
vt 0.9799 0.0900
vt 0.9799 0.1800
vt 0.9698 0.0900
vt 0.9698 0.1800
vt 0.9799 0.1800
vt 0.9799 0.2700
vt 0.9262 0.6400
vt 0.9262 0.5500
vt 0.9463 0.5500
vt 0.8691 0.0900
vt 0.8792 0.1000
vt 0.8691 0.2000
vt 0.6442 0.9600
vt 0.6543 0.9600
vt 0.6442 0.9800
vt 0.6845 0.5700
vt 0.6442 0.5100
vt 0.6845 0.5100
vt 0.9597 0.1100
vt 0.9698 0.0000
vt 0.9698 0.1100
vt 0.5435 0.9900
vt 0.5335 0.9900
vt 0.5435 0.9500
vt 0.8993 0.1000
vt 0.5435 0.3200
vt 0.5838 0.1392
vt 0.9463 0.6400
vt 0.6951 0.5087
vt 0.6969 0.4440
vt 0.2919 0.7200
vt 0.3020 0.7200
vt 0.3020 0.7400
vt 0.2919 0.7400
vt 0.6442 0.8300
vt 0.6543 0.8300
vt 0.4530 0.2700
vt 0.6140 0.9600
vt 0.6241 0.9300
vt 0.6341 0.9600
vt 0.5939 0.9500
vt 0.5637 0.9200
vt 0.5939 0.9200
vt 0.4731 0.1700
vt 0.4731 0.1000
vt 0.5033 0.1700
vt 0.7046 0.3038
vt 0.6945 0.3138
vt 0.6744 0.3038
vt 0.3221 0.9900
vt 0.3322 0.9600
vt 0.3322 0.9900
vt 0.8255 0.9500
vt 0.8155 0.9600
vt 0.8155 0.9200
vt 0.7685 0.3600
vt 0.7685 0.3500
vt 0.7786 0.3600
vt 0.9463 0.7317
vt 0.9564 0.7600
vt 0.9463 0.7500
vt 0.4630 0.9000
vt 0.4731 0.8917
vt 0.4731 0.9100
vt 0.5033 0.1000
vt 0.5335 0.1800
vt 0.2516 0.9400
vt 0.2617 0.9900
vt 0.2516 0.9900
vt 0.8893 0.2100
vt 0.8993 0.2132
vt 0.8993 0.2199
vt 0.4843 0.9356
vt 0.4731 0.9360
vt 0.4731 0.9292
vt 0.8993 0.2064
vt 0.4731 0.9428
vt 0.4429 0.9200
vt 0.4530 0.9100
vt 0.4530 0.9300
vt 0.8255 0.9600
vt 0.8356 0.9800
vt 0.8255 0.9800
vt 0.7886 0.3500
vt 0.7886 0.3600
vt 0.7786 0.3600
vt 0.4228 0.9300
vt 0.1912 0.9400
vt 0.1912 0.9900
vt 0.1812 0.9900
vt 0.4429 0.9100
vt 0.4429 0.9000
vt 0.4542 0.9036
vt 0.5033 0.9300
vt 0.5033 0.9400
vt 0.4932 0.9400
vt 0.7851 0.9420
vt 0.7751 0.9220
vt 0.7851 0.9220
vt 0.8356 0.9500
vt 0.8356 0.9600
vt 0.4530 0.9000
vt 0.6543 0.9800
vt 0.6543 0.9600
vt 0.6643 0.9800
vt 0.9262 0.7600
vt 0.8658 0.9200
vt 0.8484 0.9100
vt 0.8557 0.9100
vt 0.8490 0.3500
vt 0.8591 0.3500
vt 0.8591 0.3600
vt 0.7584 0.3600
vt 0.7685 0.3500
vt 0.7685 0.3600
vt 0.5033 0.1800
vt 0.8356 0.9500
vt 0.8356 0.9200
vt 0.8457 0.9400
vt 0.3624 0.9600
vt 0.3825 0.9300
vt 0.3825 0.9600
vt 0.2617 0.9400
vt 0.0604 0.9836
vt 0.0705 0.9900
vt 0.0604 0.9900
vt 0.8255 0.9100
vt 0.8155 0.8600
vt 0.8255 0.9036
vt 0.8255 0.8901
vt 0.8255 0.8968
vt 0.0604 0.9768
vt 0.9195 0.2268
vt 0.9396 0.2300
vt 0.9195 0.2336
vt 0.6945 0.3438
vt 0.6744 0.3538
vt 0.6845 0.3438
vt 0.9665 0.9800
vt 0.9765 0.9500
vt 0.9765 0.9800
vt 0.5939 0.9200
vt 0.6140 0.9200
vt 0.6140 0.9300
vt 0.6241 0.9600
vt 0.6140 0.9800
vt 0.6140 0.9600
vt 0.4026 0.8964
vt 0.4127 0.8800
vt 0.4127 0.9000
vt 0.4530 0.9900
vt 0.4630 0.9300
vt 0.4630 0.9900
vt 0.4026 0.9100
vt 0.4235 0.9036
vt 0.4228 0.9100
vt 0.6241 0.9800
vt 0.6543 0.9800
vt 0.6643 1.0000
vt 0.6543 1.0000
vt 0.6039 0.9300
vt 0.9262 0.6400
vt 0.9363 0.6764
vt 0.9262 0.7000
vt 0.9463 0.6500
vt 0.9564 0.6400
vt 0.9463 0.6900
vt 0.8155 0.9200
vt 0.9564 0.9600
vt 0.9665 0.9600
vt 0.9564 0.9800
vt 0.9363 0.6900
vt 0.9433 0.7000
vt 0.4328 0.9200
vt 0.4228 0.9000
vt 0.4328 0.8800
vt 0.4328 0.9000
vt 0.4328 0.9100
vt 1.0000 0.0902
vt 0.9899 0.0800
vt 1.0000 0.0834
vt 1.0000 0.1037
vt 0.9899 0.1600
vt 1.0000 0.0969
vt 0.9061 0.4966
vt 0.9061 0.4898
vt 0.9061 0.4831
vt 0.9061 0.4763
vt 0.9195 0.2400
vt 0.9295 0.2500
vt 0.9295 0.3300
vt 1.0000 0.1172
vt 1.0000 0.1105
vt 1.0000 0.1308
vt 1.0000 0.1240
vt 0.9061 0.4695
vt 0.9061 0.4628
vt 0.9061 0.4560
vt 0.9061 0.4492
vt 0.9954 0.0368
vt 0.9899 0.0102
vt 0.9899 0.0034
vt 0.9899 0.0237
vt 0.9899 0.0169
vt 0.9899 0.0372
vt 0.9899 0.0305
vt 0.9899 0.0508
vt 0.9899 0.0440
vt 0.9866 0.9298
vt 0.9967 0.9400
vt 0.9866 0.9366
vt 0.9866 0.9163
vt 0.9866 0.9231
vt 0.9866 0.9028
vt 0.9967 0.8600
vt 0.9866 0.9095
vt 0.9866 0.8892
vt 0.9866 0.8960
vt 0.4429 0.9900
vt 0.4328 0.9300
vt 0.4429 0.9300
vt 0.9363 0.7100
vt 0.9262 0.7000
vt 0.9463 0.7100
vt 0.6744 0.9600
vt 0.6643 0.9800
vt 0.6643 0.9600
vt 0.4630 0.8800
vt 0.4731 0.8700
vt 0.8859 0.9900
vt 0.8960 0.9300
vt 0.8960 0.9900
vt 0.6543 0.9500
vt 0.6341 0.9600
vt 0.6442 0.9500
vt 0.8893 0.2300
vt 0.8993 0.2267
vt 0.8993 0.2335
vt 0.8484 0.8700
vt 0.8658 0.8600
vt 0.8557 0.8700
vt 0.2315 0.9400
vt 0.2416 0.9400
vt 0.2416 0.9900
vt 0.8416 0.8700
vt 0.1165 0.9405
vt 0.1216 0.9500
vt 0.1148 0.9500
vt 0.8852 0.2400
vt 0.8921 0.2400
vt 0.1079 0.9500
vt 0.4363 0.8765
vt 0.4429 0.8800
vt 0.4328 0.8700
vt 0.4429 0.8700
vt 0.6643 0.9600
vt 0.6543 0.9200
vt 0.4127 0.9900
vt 0.4228 0.9600
vt 0.4228 0.9900
vt 0.2718 0.9400
vt 0.2818 0.9900
vt 0.2718 0.9900
vt 0.4530 0.8700
vt 0.4429 0.8600
vt 0.4530 0.8500
vt 1.0000 0.1443
vt 1.0000 0.1376
vt 1.0000 0.1600
vt 1.0000 0.1511
vt 0.9061 0.4424
vt 0.9061 0.4357
vt 0.9061 0.4289
vt 0.9061 0.4200
vt 0.8938 0.4018
vt 0.9195 0.3400
vt 0.9497 0.3300
vt 0.9597 0.3400
vt 0.9899 0.1600
vt 0.9799 0.2400
vt 0.9799 0.1600
vt 0.9899 0.0643
vt 0.9899 0.0576
vt 0.9899 0.0711
vt 0.9866 0.8757
vt 0.9866 0.8824
vt 0.6845 0.9600
vt 0.6945 0.9600
vt 0.6945 0.9800
vt 0.9866 0.8600
vt 0.9866 0.8689
vt 0.1309 0.9900
vt 0.1208 0.9900
vt 0.1309 0.9634
vt 0.0604 0.9565
vt 0.0705 0.9500
vt 0.0604 0.9633
vt 0.8255 0.8765
vt 0.8255 0.8833
vt 0.3926 0.9900
vt 0.3825 0.9300
vt 0.3926 0.9300
vt 1.0000 0.3600
vt 0.9899 0.3600
vt 0.9899 0.3000
vt 0.9195 0.2065
vt 0.9396 0.2100
vt 0.9195 0.2133
vt 0.3825 0.9900
vt 0.0604 0.9500
vt 0.8255 0.8700
vt 0.5234 0.9900
vt 0.5134 0.9600
vt 0.5234 0.9600
vt 0.9363 0.6500
vt 0.4026 0.8700
vt 0.5939 0.9600
vt 0.6039 0.9500
vt 0.6140 0.9600
vt 0.4228 0.8800
vt 0.6039 0.9900
vt 0.6039 0.9600
vt 0.6140 0.9900
vt 0.6643 0.9100
vt 0.6341 0.9100
vt 0.6140 0.9600
vt 0.5838 0.0000
vt 0.5033 0.0600
vt 0.4228 0.9300
vt 0.4228 0.9400
vt 0.4127 0.9400
vt 0.9160 0.4082
vt 0.9967 0.9800
vt 0.9866 0.9600
vt 0.9967 0.9600
vt 0.9698 0.0900
vt 0.9698 0.0000
vt 0.9799 0.0900
vt 0.9866 0.3600
vt 0.9866 0.4500
vt 0.9765 0.3600
vt 0.9765 0.4500
vt 0.9094 0.0900
vt 0.9195 0.1900
vt 0.9094 0.2000
vt 0.7046 0.5808
vt 0.9195 0.0000
vt 0.9396 0.0000
vt 0.9396 0.0900
vt 0.9799 0.0000
vt 0.6341 0.9600
vt 0.6442 0.9600
vt 0.6341 0.9800
vt 0.9698 0.1100
vt 0.9597 0.2200
vt 0.9597 0.1100
vt 0.6845 0.6800
vt 0.6893 0.6823
vt 0.6682 0.6800
vt 0.1107 0.9900
vt 0.1007 0.9738
vt 0.1107 0.9500
vt 0.7046 0.7200
vt 0.2919 0.6100
vt 0.3020 0.5600
vt 0.3020 0.6100
vt 0.3020 0.5100
vt 0.2919 0.4500
vt 0.3020 0.4500
vt 0.2919 0.5100
vt 0.3020 0.5600
vt 0.2919 0.3900
vt 0.3020 0.3900
vt 0.2919 0.4500
vt 0.8759 0.9900
vt 0.8859 0.9300
vt 0.8859 0.9900
vt 0.7751 0.9420
vt 0.0604 0.9701
vt 0.9195 0.2201
vt 0.6643 0.9800
vt 1.0000 0.0800
vt 0.9866 0.9400
vt 0.7046 0.9520
vt 0.7046 0.8520
vt 0.0302 0.9500
vt 0.0403 0.8600
vt 0.9094 0.2000
vt 0.8993 0.1900
vt 0.8155 0.7174
vt 0.8065 0.7220
vt 0.8870 0.5100
vt 0.5838 0.9900
vt 0.5737 0.9900
vt 0.9497 0.2500
vt 0.9597 0.2400
vt 0.8793 0.4100
vt 0.8658 0.4000
vt 0.8658 0.3800
vt 0.8658 0.4100
vt 0.1208 0.9500
vt 0.1309 0.9500
vt 0.1007 0.9500
vt 0.6341 1.0000
vt 0.6442 0.9800
vt 0.6442 1.0000
vt 0.6744 1.0000
vt 0.6643 1.0000
vt 0.6643 0.9800
vt 0.7987 0.2600
vt 0.8088 0.2600
vt 0.7987 0.2700
vt 0.5737 0.8300
vt 0.8691 0.2600
vt 0.8792 0.2600
vt 0.3020 0.7000
vt 0.2919 0.6700
vt 0.3020 0.6700
vt 0.3020 0.7000
vt 0.2919 0.7200
vt 0.2919 0.7000
vt 0.5435 0.1900
vt 0.5335 0.1900
vt 0.3020 0.2700
vt 0.3020 0.2800
vt 0.9899 0.3000
vt 1.0000 0.2300
vt 1.0000 0.3000
vt 0.8759 0.9900
vt 0.8658 0.9900
vt 0.8658 0.9300
vt 0.8759 0.9300
vt 0.9967 0.5300
vt 0.4228 0.4400
vt 0.4832 0.9900
vt 0.9564 0.5800
vt 0.9899 0.2300
vt 0.9564 0.8500
vt 0.8658 0.9200
vt 0.8658 0.9900
vt 0.8557 0.9900
vt 0.9899 0.2300
vt 0.8557 0.9200
vt 0.7628 0.5080
vt 0.7484 0.3600
vt 0.8993 0.3500
vt 0.8993 0.3500
vt 0.4026 0.9300
vt 0.7247 0.9520
vt 0.7247 0.9820
vt 0.7147 0.9820
vt 0.7147 0.9520
vt 0.2617 0.9400
vt 0.7549 0.7220
vt 0.2416 0.3700
vt 0.1409 0.3700
vt 0.5033 0.4000
vt 0.7923 0.3689
vt 0.1107 0.9500
vt 0.6341 0.9800
vt 0.0101 0.9900
vt 0.6744 0.9800
vt 0.9698 0.2200
vt 0.0101 0.8600
vt 0.8658 0.5017
vt 0.8255 0.9800
vt 0.8255 1.0000
vt 0.8155 1.0000
vt 0.8155 0.9800
vt 0.5737 0.9500
vt 0.5737 0.9900
vt 0.5637 0.9900
vt 0.5637 0.9500
vt 0.9564 0.6900
vt 0.9765 0.4600
vt 0.9665 0.4600
vt 0.8054 0.7220
vt 0.9463 0.3600
vt 0.3020 0.3200
vt 0.3020 0.3300
vt 0.5939 0.9800
vt 0.5939 1.0000
vt 0.5838 1.0000
vt 0.5838 0.9800
vt 0.7147 0.8620
vt 0.5536 0.9500
vt 0.5536 0.9900
vt 0.5435 0.9900
vt 0.5435 0.9500
vt 0.9094 0.2500
vt 0.9396 0.3400
vt 0.9262 0.4600
vt 0.7549 0.9620
vt 0.9564 0.6900
vt 0.9765 0.9800
vt 0.9765 0.6100
vt 0.9597 0.0000
vt 0.9665 0.3600
vt 0.1510 0.9700
vt 0.9799 0.0000
vt 0.9967 0.4500
vt 0.9967 0.5300
vt 0.9866 0.5300
vt 0.9866 0.5200
vt 0.6341 0.9200
vt 0.6341 0.8900
vt 0.9866 0.6200
vt 0.9866 0.5139
vt 0.9866 0.5071
vt 0.9866 0.6329
vt 0.9866 0.6261
vt 0.3825 0.2700
vt 0.9866 0.5004
vt 0.9866 0.4936
vt 0.9866 0.6464
vt 0.9866 0.6396
vt 0.9866 0.4868
vt 0.9866 0.4801
vt 0.9866 0.6599
vt 0.9866 0.6532
vt 0.8893 0.3500
vt 0.8893 0.3600
vt 0.8792 0.3600
vt 0.8792 0.3500
vt 0.7046 0.7200
vt 0.7685 0.2900
vt 0.7786 0.2900
vt 0.6643 0.7300
vt 0.9866 0.8500
vt 0.9765 0.8500
vt 0.9765 0.7700
vt 0.9866 0.8400
vt 0.9161 0.9900
vt 0.9363 0.9400
vt 0.2459 0.8700
vt 0.2617 0.8700
vt 0.9866 0.8271
vt 0.9866 0.8339
vt 0.2919 0.9100
vt 0.2919 0.9257
vt 0.9866 0.8136
vt 0.9866 0.8204
vt 0.9866 0.8001
vt 0.9866 0.8068
vt 0.5033 0.8500
vt 0.4731 0.8500
vt 0.2818 0.8700
vt 0.5134 0.9000
vt 0.6341 0.9100
vt 0.6341 0.9000
vt 0.7549 0.9520
vt 0.7650 0.9612
vt 0.5939 0.9800
vt 0.5838 0.9800
vt 0.7046 0.3538
vt 0.3422 0.9300
vt 0.3624 0.9300
vt 0.3624 0.9600
vt 0.6643 0.7460
vt 0.6643 0.7392
vt 0.7247 0.3365
vt 0.6643 0.7600
vt 0.6643 0.7528
vt 0.7247 0.3438
vt 0.8591 0.3500
vt 0.8691 0.3500
vt 0.8691 0.3600
vt 0.8591 0.3600
vt 0.9161 0.9500
vt 0.0805 0.9100
vt 0.7247 0.3538
vt 0.2315 0.8700
vt 0.2315 0.8761
vt 0.9161 0.9400
vt 0.3422 0.9600
vt 0.2315 0.8829
vt 0.5637 0.9200
vt 0.2315 0.8964
vt 0.2315 0.8896
vt 0.2315 0.9099
vt 0.2315 0.9032
vt 0.2919 0.9400
vt 0.7650 0.9520
vt 0.8691 0.3200
vt 0.9866 0.4733
vt 0.9866 0.4665
vt 0.9866 0.6735
vt 0.9866 0.6667
vt 0.9866 0.4597
vt 0.9866 0.4500
vt 0.9866 0.6900
vt 0.9866 0.6803
vt 0.9698 0.2700
vt 0.5939 0.8600
vt 0.7886 0.2700
vt 0.9363 0.9900
vt 0.9363 0.9800
vt 0.9463 0.9800
vt 0.9463 0.9900
vt 0.9396 0.0900
vt 0.9396 0.0800
vt 0.9497 0.0800
vt 0.9497 0.0900
vt 0.8792 0.3395
vt 0.9698 0.3600
vt 0.9866 0.7865
vt 0.9866 0.7933
vt 0.9866 0.7700
vt 0.9866 0.7797
vt 0.4127 0.9900
vt 0.2617 0.9400
vt 0.7987 0.9820
vt 0.7952 0.9820
vt 0.7952 0.9747
vt 0.7987 0.9747
vt 0.7952 0.9620
vt 0.7987 0.9620
vt 0.2214 0.8800
vt 0.2214 0.8765
vt 0.9463 0.8400
vt 0.9463 0.8600
vt 0.9363 0.8493
vt 0.9363 0.8400
vt 0.5269 0.8900
vt 0.0403 0.9500
vt 0.0503 0.9361
vt 0.0503 0.9400
vt 0.9363 0.8600
vt 0.9363 0.8561
vt 0.0503 0.9200
vt 0.0503 0.9293
vt 0.7851 0.9820
vt 0.7851 0.9747
vt 0.1409 0.9400
vt 0.7851 0.9620
vt 0.4429 0.9900
vt 0.4464 0.9900
vt 0.9463 0.8200
vt 0.9463 0.7600
vt 0.8053 0.9820
vt 0.8053 0.9781
vt 0.2214 0.8700
vt 0.2315 0.8700
vt 0.8053 0.9713
vt 0.8053 0.9620
vt 0.4530 0.9900
vt 0.5335 0.8900
vt 0.6442 0.8300
vt 0.6341 0.8300
vt 0.8792 0.3500
vt 0.0604 0.9500
vt 0.0569 0.9400
vt 0.0604 0.9400
vt 0.1309 0.9900
vt 0.1309 0.9400
vt 0.1409 1.0000
vt 0.9463 0.9900
vt 0.9463 0.9800
vt 0.9564 0.9800
vt 0.9564 0.9900
vt 0.1309 1.0000
vt 0.0604 0.8800
vt 0.0503 0.8700
vt 0.0604 0.8700
vt 0.9665 0.8600
vt 0.2315 0.9235
vt 0.2315 0.9167
vt 0.2315 0.9400
vt 0.2315 0.9303
vt 0.4228 0.9900
vt 0.4328 0.9300
vt 0.4328 0.9800
vt 0.5234 0.9000
vt 0.4328 0.9900
vt 0.3020 0.6600
vt 0.3020 0.6400
vt 0.2114 0.8800
vt 0.8792 0.2400
vt 0.8792 0.2500
vt 0.8691 0.2500
vt 0.8691 0.2400
vt 0.7786 0.2800
vt 0.5939 0.8500
vt 0.2919 0.7600
vt 0.3020 0.7600
vt 0.3020 0.7700
vt 0.2919 0.7700
vt 0.0705 0.8800
vt 0.9665 0.8400
vt 0.9665 0.7500
vt 0.9765 0.7500
vt 0.9765 0.8400
vt 0.9665 0.9500
vt 0.3523 0.7200
vt 0.9262 0.6400
vt 0.8188 0.3500
vt 0.8188 0.3600
vt 0.8088 0.3600
vt 0.8088 0.3555
vt 0.8389 0.3600
vt 0.8289 0.3600
vt 0.8289 0.3500
vt 0.8389 0.3500
vt 0.8088 0.3500
vt 0.0906 0.9700
vt 0.9665 0.6600
vt 0.9765 0.6500
vt 0.9765 0.6600
vt 0.9866 0.9800
vt 0.9967 0.9800
vt 0.9967 0.9900
vt 0.9866 0.9900
vt 0.8053 0.9620
vt 0.7851 0.9120
vt 0.8053 0.9120
vt 0.7851 0.9620
vt 0.9262 0.9400
vt 0.9262 0.9900
vt 0.9161 0.9900
vt 0.9161 0.9400
vt 0.0403 0.3800
vt 0.6643 0.9100
vt 0.0449 0.2470
vt 0.9363 0.9900
vt 0.7247 0.9520
vt 0.0000 0.6400
vt 0.9866 0.7700
vt 0.9765 0.7700
vt 0.9765 0.6928
vt 0.9866 0.6900
vt 0.0101 0.2600
vt 0.0805 0.0000
vt 0.0906 0.0000
vt 0.5033 0.3600
vt 0.2214 0.6500
vt 0.2919 0.6600
vt 0.2114 0.6600
vt 0.2919 0.6500
vt 0.9765 0.6900
vt 0.2114 0.5400
vt 0.9564 0.6300
vt 0.2214 0.5200
vt 0.5838 0.4638
vt 0.9564 0.3600
vt 0.5838 0.4600
vt 0.5838 0.0848
vt 0.5844 0.0749
vt 0.9463 0.9800
vt 0.9363 0.9800
vt 0.9363 0.9400
vt 0.9463 0.9400
vt 0.9799 0.0800
vt 0.9597 0.3300
vt 0.8557 0.4000
vt 0.8356 0.4000
vt 0.8457 0.4000
vt 0.8356 0.3917
vt 0.8658 0.4163
vt 0.7886 0.3500
vt 0.7987 0.3500
vt 0.7987 0.3600
vt 0.7886 0.3600
vt 0.6543 0.9800
vt 0.6442 0.9800
vt 0.0000 0.1200
vt 0.0101 0.1300
vt 0.0000 0.1300
vt 0.6845 0.9800
vt 0.7282 0.3600
vt 0.8054 0.8620
vt 0.0403 0.0000
vt 0.0302 0.0000
vt 0.0101 0.0100
vt 0.6039 0.7800
vt 0.9363 0.9400
vt 0.9564 0.8600
vt 0.9564 0.9400
vt 0.5939 0.5800
vt 0.5838 0.5800
vt 0.6442 0.7200
vt 0.6442 0.7300
vt 0.8691 0.3500
vt 0.2919 0.5100
vt 0.2919 0.5200
vt 0.8356 1.0000
vt 0.9698 0.3300
vt 0.2114 0.9300
vt 0.6241 0.7600
vt 0.6241 0.7400
vt 0.8054 0.9620
vt 0.9967 0.4400
vt 0.9967 0.4500
vt 0.9866 0.4500
vt 0.9866 0.4400
vt 0.7147 0.9667
vt 0.7147 0.9820
vt 0.7046 0.9820
vt 0.7046 0.9520
vt 0.6442 0.5700
vt 0.9262 0.8400
vt 0.8356 0.3800
vt 0.8490 0.3500
vt 0.2516 0.4700
vt 0.9597 0.3400
vt 0.5435 0.9500
vt 0.5335 0.9500
vt 0.7484 0.3600
vt 0.7147 0.9520
vt 0.6573 0.0393
vt 0.9363 0.8600
vt 0.2114 0.3900
vt 0.3020 0.9300
vt 0.8385 0.3730
vt 0.7282 0.0337
vt 0.9866 0.3600
vt 0.9967 0.3600
vt 0.5134 0.9600
vt 0.8658 0.8600
vt 0.3221 0.9300
vt 0.3221 1.0000
vt 0.3120 1.0000
vt 0.3120 0.9300
vt 0.4328 0.7900
vt 0.4429 0.7900
vt 0.9967 0.6900
vt 0.9497 0.2100
vt 0.6140 1.0000
vt 0.4026 0.8500
vt 0.1309 0.8600
vt 0.9765 0.6100
vt 0.9866 0.5300
vt 0.9866 0.6100
vt 0.9564 0.9600
vt 0.9866 0.4500
vt 0.9765 0.5300
vt 0.0000 0.8600
vt 0.9195 0.0900
vt 0.5838 0.3038
vt 0.4328 0.7700
vt 0.4429 0.7700
vt 0.5234 0.9200
vt 0.7549 0.8220
vt 0.8053 0.8220
vt 0.0302 0.8700
vt 0.8053 0.8420
vt 0.4026 0.7600
vt 0.7549 0.7220
vt 0.7046 0.8520
vt 0.7046 0.7220
vt 0.7549 0.8520
vt 0.7851 0.8720
vt 0.9967 0.9400
vt 0.0906 0.9700
vt 0.1409 0.9400
vt 0.4228 0.9300
vt 0.2919 0.9700
vt 0.9195 0.2000
vt 0.9195 0.2400
vt 0.9094 0.2400
vt 0.9094 0.2000
vt 0.8792 0.1900
vt 0.8457 0.9800
vt 0.8356 0.9800
vt 0.8457 0.9600
vt 0.8356 0.9600
vt 0.2919 0.7600
vt 0.2919 0.7500
vt 0.3020 0.7500
vt 0.3020 0.7600
vt 0.9799 0.3200
vt 0.9899 0.3200
vt 0.9899 0.3600
vt 0.9698 0.1800
vt 0.9597 0.0000
vt 0.6543 0.9800
vt 0.5335 0.9500
vt 0.9094 0.0900
vt 0.2919 0.7800
vt 0.3020 0.7800
vt 0.3020 0.7900
vt 0.2919 0.7900
vt 0.3020 0.7500
vt 0.2919 0.7500
vt 0.2919 0.7400
vt 0.3020 0.7400
vt 0.7046 0.8600
vt 0.7046 0.8500
vt 0.3020 0.7700
vt 0.2919 0.7700
vt 0.0201 0.9900
vt 0.0101 0.9900
vt 0.0101 0.9600
vt 0.0201 0.9600
vt 0.9698 0.2700
vt 0.5637 0.9500
vt 0.6140 0.9300
vt 0.3724 0.9600
vt 0.3724 0.9900
vt 0.3624 0.9900
vt 0.3624 0.9600
vt 0.3825 0.9900
vt 0.3724 0.9900
vt 0.3724 0.9600
vt 0.3825 0.9600
vt 0.4731 0.1900
vt 0.6845 0.3138
vt 0.3221 0.9600
vt 0.6845 0.9800
vt 0.6845 1.0000
vt 0.6744 1.0000
vt 0.6744 0.9800
vt 0.6643 0.9600
vt 0.8993 0.2000
vt 0.8921 0.2000
vt 0.0403 0.9900
vt 0.0503 0.9836
vt 0.0503 0.9900
vt 0.0503 0.9768
vt 0.0403 0.9500
vt 0.0503 0.9701
vt 0.3322 0.9900
vt 0.3322 0.9828
vt 0.3422 0.9900
vt 0.8852 0.2000
vt 0.8792 0.2100
vt 0.8784 0.2000
vt 0.3422 0.9600
vt 0.3322 0.9760
vt 0.3322 0.9692
vt 0.7549 0.9120
vt 0.7751 0.9120
vt 0.7549 0.9184
vt 0.4731 0.9500
vt 0.4932 0.9500
vt 0.7549 0.9252
vt 0.7549 0.9320
vt 0.7046 0.3538
vt 0.9665 0.8500
vt 0.9463 0.8500
vt 0.9665 0.8200
vt 0.0201 0.9600
vt 0.0302 0.9900
vt 0.0201 0.9900
vt 0.3422 0.9600
vt 0.3322 0.9500
vt 0.3322 0.9400
vt 0.3422 0.9300
vt 0.1812 0.9400
vt 0.4530 0.8800
vt 0.7786 0.3500
vt 0.4932 0.9300
vt 0.1711 0.9400
vt 0.1711 0.9700
vt 0.1510 0.9700
vt 0.1510 0.9400
vt 0.9463 0.8200
vt 0.0302 0.9600
vt 0.8557 0.9036
vt 0.8557 0.8968
vt 0.8557 0.8901
vt 0.7786 0.3500
vt 0.3221 0.9600
vt 0.3221 0.9500
vt 0.9363 0.7500
vt 0.8859 0.9300
vt 0.8348 0.9100
vt 0.8416 0.9100
vt 0.8490 0.3600
vt 0.7584 0.3500
vt 0.8457 0.9200
vt 0.3624 0.9300
vt 0.8457 0.9500
vt 0.2516 0.9400
vt 0.2516 0.9900
vt 0.2416 0.9900
vt 0.9396 0.2400
vt 0.9195 0.2400
vt 0.3523 0.9770
vt 0.3422 0.9900
vt 0.3422 0.9600
vt 0.3523 0.9600
vt 1.0000 0.3000
vt 0.9665 0.9800
vt 0.4530 0.9300
vt 0.8289 0.3600
vt 0.8188 0.3600
vt 0.8188 0.3500
vt 0.8289 0.3500
vt 0.8691 0.2064
vt 0.8691 0.2000
vt 0.3523 0.9900
vt 0.9665 0.9500
vt 0.9564 0.7000
vt 0.2416 0.9400
vt 0.4731 0.9200
vt 0.4932 0.9200
vt 0.3322 0.9600
vt 0.8691 0.2199
vt 0.8691 0.2132
vt 0.3221 0.9400
vt 0.3221 0.9300
vt 0.9463 0.8298
vt 0.9463 0.8366
vt 0.9262 0.8400
vt 0.9463 0.8163
vt 0.9463 0.8231
vt 0.9262 0.7600
vt 0.9463 0.8028
vt 0.9463 0.8095
vt 0.9866 0.8500
vt 0.9967 0.8398
vt 0.9967 0.8466
vt 1.0000 0.0034
vt 1.0000 0.0102
vt 0.9967 0.8263
vt 0.9967 0.8331
vt 1.0000 0.0169
vt 1.0000 0.0237
vt 0.9967 0.8128
vt 0.9866 0.7700
vt 0.9967 0.8060
vt 0.9463 0.7892
vt 0.9463 0.7960
vt 0.9967 0.8195
vt 1.0000 0.0305
vt 1.0000 0.0372
vt 0.9967 0.7992
vt 1.0000 0.0440
vt 1.0000 0.0508
vt 0.9765 0.6398
vt 0.9665 0.5600
vt 0.9765 0.6331
vt 0.9899 0.2400
vt 0.9765 0.6466
vt 0.9765 0.6263
vt 0.9765 0.8600
vt 0.9866 0.8600
vt 0.9866 0.9400
vt 0.9765 0.9400
vt 0.9765 0.6128
vt 0.9765 0.6195
vt 0.9765 0.5992
vt 0.9765 0.6060
vt 0.9564 0.7000
vt 0.4328 0.9900
vt 0.8759 0.9300
vt 0.5939 0.9600
vt 0.6039 0.9600
vt 0.6039 0.9900
vt 0.5939 0.9900
vt 0.8356 0.9200
vt 0.8255 0.9300
vt 0.8348 0.8700
vt 0.4127 0.9600
vt 0.0503 0.9565
vt 0.0503 0.9633
vt 0.3523 0.9672
vt 0.3523 0.9600
vt 0.3624 0.9600
vt 0.3624 0.9900
vt 0.3523 0.9808
vt 0.3523 0.9740
vt 0.1007 0.9500
vt 0.1007 0.9300
vt 0.2315 0.9900
vt 0.7549 0.9455
vt 0.7549 0.9387
vt 0.8993 0.2400
vt 0.0503 0.9500
vt 0.8784 0.2400
vt 0.8792 0.2300
vt 0.7751 0.9520
vt 0.7549 0.9520
vt 0.7751 0.9520
vt 0.7751 0.9820
vt 0.7650 0.9820
vt 0.7650 0.9520
vt 0.4228 0.9600
vt 0.4127 0.9500
vt 0.4228 0.9500
vt 0.9765 0.9800
vt 0.9765 0.9900
vt 0.9665 0.9900
vt 0.9665 0.9800
vt 0.8155 0.9800
vt 0.8155 0.9600
vt 0.8255 0.9800
vt 0.9866 0.9800
vt 0.9866 0.9900
vt 0.9765 0.9900
vt 0.9765 0.9800
vt 0.1208 0.9300
vt 0.1107 0.9300
vt 0.1107 0.9200
vt 0.1208 0.9200
vt 0.8356 0.9900
vt 0.8356 0.9800
vt 0.8457 0.9800
vt 0.8457 0.9900
vt 0.4026 0.9600
vt 0.4026 0.9300
vt 0.8255 0.9600
vt 0.1812 0.9400
vt 0.1711 0.9900
vt 0.1711 0.9400
vt 0.4328 0.8600
vt 0.4228 0.8500
vt 0.1812 0.9900
vt 0.8557 0.8833
vt 0.8557 0.8765
vt 0.8356 0.9300
vt 0.9564 0.9900
vt 0.9564 0.9800
vt 0.9665 0.9800
vt 0.9665 0.9900
vt 0.6442 0.9200
vt 0.6744 0.9800
vt 0.9954 0.0800
vt 1.0000 0.0711
vt 1.0000 0.0800
vt 0.9463 0.7757
vt 0.9463 0.7824
vt 0.9463 0.7600
vt 0.9463 0.7689
vt 0.9967 0.7857
vt 0.9967 0.7924
vt 1.0000 0.0576
vt 1.0000 0.0643
vt 0.9463 0.9445
vt 0.9463 0.9400
vt 0.9564 0.9400
vt 0.9967 0.7700
vt 0.9967 0.7789
vt 0.9061 0.4100
vt 0.9564 0.9500
vt 0.9463 0.9500
vt 0.9899 0.0800
vt 0.9195 0.2000
vt 0.9396 0.2000
vt 0.6845 0.9800
vt 0.9765 0.5857
vt 0.9765 0.5924
vt 0.9765 0.5700
vt 0.9765 0.5789
vt 0.9765 0.5600
vt 0.6845 0.9600
vt 0.6845 0.9800
vt 0.6744 0.9800
vt 0.6744 0.9600
vt 0.9765 0.8600
vt 0.9665 0.8600
vt 0.9665 0.8400
vt 0.9765 0.8400
vt 0.4228 0.8700
vt 0.5134 0.9900
vt 0.6140 0.9500
vt 0.8088 0.3500
vt 0.8088 0.3600
vt 0.7987 0.3600
vt 0.7987 0.3500
vt 0.8691 0.2400
vt 0.8691 0.2335
vt 0.8691 0.2267
vt 0.3523 0.9900
vt 0.1309 0.9500
vt 0.1309 0.9300
vt 0.9497 0.2000
vt 0.9396 0.1900
vt 0.2818 0.9400
vt 0.0805 0.8600
vt 0.1309 0.8600
vt 0.0805 0.9200
vt 0.1309 0.9200
vt 0.6801 0.5700
vt 0.9866 0.9800
vt 0.9396 0.1000
vt 0.9195 0.1000
vt 0.9497 0.0900
vt 0.0503 0.9544
vt 0.0604 0.9500
vt 0.0604 0.9900
vt 0.0503 0.9500
vt 0.9698 0.2200
vt 0.9195 0.0900
vt 0.6442 0.9800
vt 0.1007 0.9900
vt 0.2919 0.5600
vt 0.3020 0.4500
vt 0.2919 0.5600
vt 0.9497 0.2300
vt 0.9497 0.2100
vt 0.9954 0.0000
vt 1.0000 0.0000
vt 0.9195 0.3400
vt 0.5134 0.9200
vt 0.9463 0.8400
vt 0.9967 0.8500
vt 0.9899 0.0000
vt 0.4932 0.9900
vt 0.7113 0.3032
vt 0.7213 0.3038
vt 0.5536 0.9900
vt 0.9799 0.3600
vt 0.0503 0.9900
vt 0.3020 0.8100
vt 0.2919 0.8100
vt 0.2919 0.8000
vt 0.3020 0.8000
vt 0.0503 0.8600
vt 0.0403 0.8600
vt 0.2919 0.8000
vt 0.2919 0.7900
vt 0.3020 0.7900
vt 0.3020 0.8000
vt 0.6341 0.9200
vt 0.6241 0.9200
vt 0.2919 0.6100
vt 0.3020 0.6100
vt 0.3020 0.6400
vt 0.2919 0.6400
vt 0.2919 0.7000
vt 0.8557 0.9400
vt 0.8557 0.9600
vt 0.8457 0.9600
vt 0.3020 0.7200
vn 0.0000 -0.0000 1.0000
vn 0.0000 -1.0000 -0.0000
vn -1.0000 -0.0000 0.0000
vn 0.0000 0.0000 -1.0000
vn 0.0000 1.0000 0.0000
vn 1.0000 0.0000 0.0000
usemtl palette.012
s off
f 6/1/1 4/2/1 5/3/1
f 10/4/1 8/5/1 9/6/1
f 13/7/2 11/8/2 5/9/2
f 11/8/2 13/7/2 9/10/2
f 15/11/3 14/12/3 9/13/3
f 51/14/2 15/15/2 9/10/2
f 1/16/4 17/17/4 49/18/4
f 18/19/3 16/20/3 1/21/3
f 19/22/3 20/23/3 3/24/3
f 20/25/4 2/26/4 3/27/4
f 6/1/1 19/28/1 4/2/1
f 6/29/2 27/30/2 19/31/2
f 22/32/5 20/33/5 21/34/5
f 21/35/3 20/23/3 19/22/3
f 26/36/3 16/20/3 18/19/3
f 26/36/3 39/37/3 16/20/3
f 39/38/2 40/39/2 25/40/2
f 10/4/1 28/41/1 8/5/1
f 28/42/3 30/43/3 21/35/3
f 30/44/4 22/45/4 21/46/4
f 33/47/3 29/48/3 10/49/3
f 34/50/3 31/51/3 28/42/3
f 29/52/2 34/53/2 28/54/2
f 38/55/5 37/56/5 60/57/5
f 29/58/4 33/59/4 35/60/4
f 42/61/4 38/62/4 60/63/4
f 44/64/3 45/65/3 31/51/3
f 46/66/1 44/67/1 37/68/1
f 32/69/3 39/37/3 26/36/3
f 38/70/3 43/71/3 37/72/3
f 49/73/3 48/74/3 47/75/3
f 50/76/2 51/14/2 47/77/2
f 17/78/3 48/74/3 49/73/3
f 247/79/5 48/80/5 17/81/5
f 247/82/4 50/83/4 48/84/4
f 54/85/2 23/86/2 24/87/2
f 54/85/2 53/88/2 23/86/2
f 256/89/5 247/79/5 17/81/5
f 23/90/4 53/91/4 17/17/4
f 51/14/2 2/92/2 1/93/2
f 12/94/3 6/95/3 11/96/3
f 11/96/3 6/95/3 5/97/3
f 8/98/3 27/99/3 7/100/3
f 61/101/3 58/102/3 14/12/3
f 57/103/3 34/50/3 35/104/3
f 57/103/3 60/105/3 34/50/3
f 14/12/3 58/102/3 33/47/3
f 59/106/3 42/107/3 60/105/3
f 62/108/3 46/109/3 61/101/3
f 61/110/1 59/111/1 58/112/1
f 46/113/2 62/114/2 63/115/2
f 65/116/1 64/117/1 66/118/1
f 65/119/2 67/120/2 62/114/2
f 66/118/1 64/117/1 56/121/1
f 69/122/1 66/118/1 73/123/1
f 75/124/1 71/125/1 72/126/1
f 79/127/1 71/125/1 75/124/1
f 229/128/1 67/129/1 79/127/1
f 67/129/1 71/125/1 79/127/1
f 81/130/1 76/131/1 80/132/1
f 79/127/1 75/124/1 83/133/1
f 71/134/3 65/135/3 68/136/3
f 65/116/1 66/118/1 68/137/1
f 293/138/1 70/139/1 74/140/1
f 65/116/1 15/141/1 64/117/1
f 62/142/1 15/141/1 65/116/1
f 85/143/3 90/144/3 1/21/3
f 90/145/4 88/146/4 1/16/4
f 95/147/1 93/148/1 94/149/1
f 93/150/3 92/151/3 25/152/3
f 92/153/4 85/154/4 25/155/4
f 100/156/3 95/157/3 94/158/3
f 100/159/2 98/160/2 93/161/2
f 98/162/4 99/163/4 97/164/4
f 102/165/3 90/144/3 85/143/3
f 98/166/3 92/151/3 93/150/3
f 40/167/3 101/168/3 97/169/3
f 102/170/1 40/171/1 39/172/1
f 41/173/3 102/165/3 39/37/3
f 41/174/5 45/175/5 223/176/5
f 89/177/2 108/178/2 105/179/2
f 108/180/4 111/181/4 87/182/4
f 110/183/5 90/144/5 96/184/5
f 111/185/3 112/186/3 106/187/3
f 113/188/5 109/189/5 88/190/5
f 90/145/4 113/191/4 88/146/4
f 112/192/4 109/193/4 106/194/4
f 114/195/5 269/196/5 90/144/5
f 115/197/5 90/144/5 110/183/5
f 116/198/5 114/195/5 115/197/5
f 111/199/5 106/200/5 87/201/5
f 107/202/4 112/192/4 89/203/4
f 269/204/4 365/205/4 113/191/4
f 269/204/4 113/191/4 90/145/4
f 117/206/4 118/207/4 96/208/4
f 103/209/3 122/210/3 96/211/3
f 123/212/6 120/213/6 121/214/6
f 123/212/6 124/215/6 125/216/6
f 123/212/6 126/217/6 127/218/6
f 123/212/6 125/216/6 126/217/6
f 123/212/6 121/214/6 124/215/6
f 128/219/5 103/220/5 226/221/5
f 133/222/6 132/223/6 123/212/6
f 131/224/1 122/225/1 128/226/1
f 134/227/2 129/228/2 122/229/2
f 132/230/2 134/227/2 122/229/2
f 142/231/1 188/232/1 141/233/1
f 146/234/1 188/232/1 145/235/1
f 148/236/1 188/232/1 147/237/1
f 147/237/1 188/232/1 146/234/1
f 154/238/5 144/239/5 143/240/5
f 152/241/1 144/242/1 153/243/1
f 156/244/4 154/245/4 149/246/4
f 379/247/2 157/248/2 152/249/2
f 142/250/4 151/251/4 141/252/4
f 146/253/4 155/254/4 145/255/4
f 148/256/4 155/254/4 147/257/4
f 147/257/4 155/254/4 146/253/4
f 150/258/4 156/244/4 149/246/4
f 145/235/1 188/232/1 142/231/1
f 144/259/3 142/260/3 141/261/3
f 144/259/3 141/261/3 140/262/3
f 144/259/3 146/263/3 145/264/3
f 144/259/3 148/265/3 147/266/3
f 144/259/3 147/266/3 146/263/3
f 144/259/3 145/264/3 142/260/3
f 133/267/4 159/268/4 158/269/4
f 165/270/3 161/271/3 149/272/3
f 165/273/5 149/274/5 164/275/5
f 164/275/5 149/274/5 159/276/5
f 133/267/4 164/277/4 159/268/4
f 159/278/2 134/227/2 158/279/2
f 136/280/1 129/281/1 160/282/1
f 168/283/6 160/284/6 217/285/6
f 169/286/1 163/287/1 128/226/1
f 133/267/4 158/269/4 132/288/4
f 158/279/2 134/227/2 132/230/2
f 123/212/6 172/289/6 173/290/6
f 123/212/6 173/290/6 174/291/6
f 177/292/3 117/293/3 122/210/3
f 176/294/5 117/295/5 179/296/5
f 184/297/6 185/298/6 178/299/6
f 185/298/6 183/300/6 178/299/6
f 183/300/6 182/301/6 178/299/6
f 184/297/6 178/299/6 176/302/6
f 187/303/1 188/232/1 186/304/1
f 189/305/1 188/232/1 187/303/1
f 139/306/5 171/307/5 188/308/5
f 150/258/4 198/309/4 156/244/4
f 205/310/4 207/311/4 208/312/4
f 210/313/1 209/314/1 211/315/1
f 207/316/5 201/317/5 202/318/5
f 207/316/5 202/318/5 203/319/5
f 201/320/4 207/311/4 196/321/4
f 187/322/4 155/254/4 186/323/4
f 189/324/4 155/254/4 187/322/4
f 193/325/5 191/326/5 192/327/5
f 187/328/3 200/329/3 189/330/3
f 191/326/5 193/325/5 190/331/5
f 215/332/3 214/333/3 213/334/3
f 220/335/2 215/336/2 213/337/2
f 221/338/5 192/327/5 216/339/5
f 214/333/3 192/340/3 161/271/3
f 193/325/5 192/327/5 221/338/5
f 171/341/4 139/342/4 110/343/4
f 188/308/5 171/307/5 175/344/5
f 217/285/6 198/345/6 199/346/6
f 123/212/6 127/218/6 172/289/6
f 186/304/1 188/232/1 148/236/1
f 157/347/3 206/348/3 152/349/3
f 144/259/3 186/350/3 148/265/3
f 186/323/4 155/254/4 148/256/4
f 169/286/1 217/351/1 167/352/1
f 166/353/3 213/334/3 162/354/3
f 85/355/5 92/356/5 101/357/5
f 104/358/3 90/144/3 102/165/3
f 41/174/5 223/176/5 224/359/5
f 225/360/5 230/361/5 104/362/5
f 230/361/5 226/221/5 104/362/5
f 78/363/1 231/364/1 77/365/1
f 77/365/1 231/364/1 228/366/1
f 224/367/1 228/366/1 231/364/1
f 225/368/1 224/367/1 239/369/1
f 225/368/1 239/369/1 242/370/1
f 229/371/5 77/372/5 228/373/5
f 238/374/6 233/375/6 235/376/6
f 237/377/3 239/378/3 232/379/3
f 252/380/2 248/381/2 249/382/2
f 53/91/4 258/383/4 256/384/4
f 260/385/5 253/386/5 255/387/5
f 268/388/4 260/389/4 255/390/4
f 268/391/2 258/392/2 257/393/2
f 259/394/2 268/391/2 257/393/2
f 258/383/4 268/388/4 255/390/4
f 261/395/2 270/396/2 252/380/2
f 262/397/2 263/398/2 270/396/2
f 264/399/1 266/400/1 263/401/1
f 268/388/4 261/402/4 260/389/4
f 275/403/6 271/404/6 272/405/6
f 273/406/2 275/407/2 272/408/2
f 275/403/6 270/409/6 271/404/6
f 279/410/1 264/399/1 263/401/1
f 274/411/6 270/409/6 275/403/6
f 277/412/5 265/413/5 276/414/5
f 278/415/5 277/412/5 280/416/5
f 253/417/4 251/418/4 249/419/4
f 255/390/4 248/420/4 52/421/4
f 248/422/3 250/423/3 249/424/3
f 267/425/6 266/426/6 264/427/6
f 273/406/2 282/428/2 275/407/2
f 286/429/2 15/15/2 55/430/2
f 285/431/2 286/429/2 55/430/2
f 286/429/2 287/432/2 56/433/2
f 285/431/2 287/432/2 286/429/2
f 288/434/3 73/435/3 56/436/3
f 292/437/1 71/125/1 290/438/1
f 73/439/2 71/440/2 69/441/2
f 292/442/5 74/443/5 72/444/5
f 294/445/2 295/446/2 82/447/2
f 296/448/5 80/449/5 79/450/5
f 292/437/1 290/438/1 291/451/1
f 300/452/1 293/138/1 74/140/1
f 302/453/3 305/454/3 303/455/3
f 307/456/2 295/446/2 294/445/2
f 303/457/2 83/458/2 293/459/2
f 311/460/6 267/425/6 264/427/6
f 311/461/4 312/462/4 267/463/4
f 55/430/2 320/464/2 285/431/2
f 317/465/6 55/466/6 316/467/6
f 321/468/3 298/469/3 285/470/3
f 322/471/6 320/472/6 323/473/6
f 341/474/5 325/475/5 324/476/5
f 281/477/2 311/478/2 279/479/2
f 325/480/4 278/481/4 280/482/4
f 328/483/1 326/484/1 327/485/1
f 332/486/4 330/487/4 329/488/4
f 336/489/6 330/490/6 335/491/6
f 331/492/6 314/493/6 329/494/6
f 330/495/2 331/496/2 329/497/2
f 353/498/6 330/490/6 340/499/6
f 325/500/6 353/498/6 340/499/6
f 353/501/1 339/502/1 335/503/1
f 292/442/5 341/474/5 356/504/5
f 325/500/6 340/499/6 327/505/6
f 342/506/6 283/507/6 343/508/6
f 345/509/2 342/510/2 344/511/2
f 356/512/6 341/513/6 342/506/6
f 331/514/4 346/515/4 315/516/4
f 349/517/6 348/518/6 336/489/6
f 346/519/2 319/520/2 315/521/2
f 355/522/6 338/523/6 339/524/6
f 351/525/5 338/526/5 352/527/5
f 349/517/6 337/528/6 351/529/6
f 351/530/4 337/531/4 334/532/4
f 292/533/6 353/498/6 325/500/6
f 350/534/6 347/535/6 352/536/6
f 292/437/1 291/451/1 354/537/1
f 292/437/1 354/537/1 357/538/1
f 355/539/2 354/540/2 323/541/2
f 355/539/2 357/542/2 354/540/2
f 342/510/2 358/543/2 359/544/2
f 359/545/6 356/512/6 342/506/6
f 576/546/1 607/547/1 356/548/1
f 360/549/2 362/550/2 304/551/2
f 362/552/6 360/553/6 309/554/6
f 301/555/1 74/140/1 356/548/1
f 83/133/1 305/556/1 362/557/1
f 310/558/1 296/559/1 362/557/1
f 363/560/5 309/561/5 310/562/5
f 315/563/6 55/466/6 314/493/6
f 314/493/6 55/466/6 326/564/6
f 297/565/1 287/566/1 285/567/1
f 354/537/1 321/568/1 322/569/1
f 318/570/6 55/466/6 315/563/6
f 337/571/5 333/572/5 334/573/5
f 365/205/4 258/383/4 113/191/4
f 368/574/6 364/575/6 366/576/6
f 370/577/5 367/578/5 365/579/5
f 367/580/4 366/581/4 257/582/4
f 365/583/3 367/584/3 257/585/3
f 373/586/5 364/587/5 368/588/5
f 369/589/4 373/590/4 368/591/4
f 367/580/4 376/592/4 366/581/4
f 371/593/4 407/594/4 114/595/4
f 151/596/3 371/597/3 114/598/3
f 379/599/1 152/241/1 153/243/1
f 372/600/4 151/251/4 155/254/4
f 378/601/5 372/602/5 381/603/5
f 154/604/3 380/605/3 153/606/3
f 226/607/3 386/608/3 128/609/3
f 386/608/3 169/610/3 128/609/3
f 390/611/5 389/612/5 386/613/5
f 392/614/1 387/615/1 395/616/1
f 392/614/1 395/616/1 394/617/1
f 392/614/1 397/618/1 391/619/1
f 392/620/5 378/601/5 390/611/5
f 212/621/1 210/313/1 211/315/1
f 399/622/5 208/623/5 211/624/5
f 212/625/6 208/626/6 207/627/6
f 373/628/3 376/629/3 377/630/3
f 370/631/4 269/204/4 268/388/4
f 405/632/6 401/633/6 269/634/6
f 401/633/6 272/405/6 269/634/6
f 409/635/5 403/636/5 411/637/5
f 410/638/2 414/639/2 408/640/2
f 411/641/6 402/642/6 408/643/6
f 412/644/6 410/645/6 406/646/6
f 414/647/4 410/648/4 411/649/4
f 415/650/6 282/651/6 416/652/6
f 412/653/5 401/654/5 416/655/5
f 412/656/1 416/657/1 284/658/1
f 412/644/6 409/659/6 410/645/6
f 269/196/5 407/660/5 396/661/5
f 414/662/6 411/641/6 408/643/6
f 417/663/6 401/633/6 413/664/6
f 400/665/6 385/666/6 384/667/6
f 400/665/6 384/667/6 399/668/6
f 219/669/1 169/286/1 389/670/1
f 114/195/5 116/198/5 151/671/5
f 413/664/6 401/633/6 405/632/6
f 418/672/3 419/673/3 388/674/3
f 421/675/1 418/676/1 422/677/1
f 418/678/5 226/221/5 227/679/5
f 422/680/5 418/678/5 227/679/5
f 433/681/4 432/682/4 428/683/4
f 429/684/3 433/685/3 428/686/3
f 440/687/5 435/688/5 437/689/5
f 440/690/4 442/691/4 455/692/4
f 439/693/3 438/694/3 436/695/3
f 442/696/2 439/697/2 436/698/2
f 446/699/5 486/700/5 227/679/5
f 447/701/2 429/702/2 428/703/2
f 451/704/5 452/705/5 453/706/5
f 456/707/1 459/708/1 460/709/1
f 452/705/5 451/704/5 449/710/5
f 456/707/1 450/711/1 459/708/1
f 464/712/2 471/713/2 432/714/2
f 471/715/6 431/716/6 432/717/6
f 470/718/4 467/719/4 463/720/4
f 468/721/2 464/712/2 432/714/2
f 469/722/5 433/723/5 434/724/5
f 473/725/2 479/726/2 444/727/2
f 478/728/1 473/729/1 472/730/1
f 475/731/6 455/732/6 474/733/6
f 455/734/5 454/735/5 440/687/5
f 471/713/2 444/727/2 436/698/2
f 444/727/2 474/736/2 442/696/2
f 471/737/1 436/738/1 454/739/1
f 426/740/3 436/695/3 438/694/3
f 427/741/2 450/742/2 448/743/2
f 473/744/3 464/745/3 463/746/3
f 478/747/6 467/748/6 470/749/6
f 486/700/5 483/750/5 422/680/5
f 421/751/6 422/752/6 485/753/6
f 484/754/1 483/755/1 486/756/1
f 488/757/2 429/702/2 447/701/2
f 491/758/6 446/759/6 490/760/6
f 490/761/2 492/762/2 491/763/2
f 492/762/2 495/764/2 494/765/2
f 494/766/6 446/759/6 491/758/6
f 492/762/2 494/765/2 491/763/2
f 494/767/3 497/768/3 491/769/3
f 468/770/4 447/771/4 466/772/4
f 465/773/6 447/774/6 469/775/6
f 506/776/5 496/777/5 497/778/5
f 503/779/1 496/780/1 506/781/1
f 509/782/2 511/783/2 510/784/2
f 587/785/5 465/786/5 555/787/5
f 503/788/2 480/789/2 500/790/2
f 500/791/1 496/780/1 503/779/1
f 511/792/6 504/793/6 510/794/6
f 504/795/5 506/776/5 497/778/5
f 587/796/6 509/797/6 502/798/6
f 509/782/2 510/784/2 503/788/2
f 508/799/6 499/800/6 506/801/6
f 487/802/2 490/761/2 427/741/2
f 496/803/3 500/804/3 466/805/3
f 503/806/6 501/807/6 502/798/6
f 500/790/2 470/808/2 468/721/2
f 505/809/2 482/810/2 481/811/2
f 500/790/2 478/812/2 470/808/2
f 513/813/5 234/814/5 512/815/5
f 516/816/5 514/817/5 515/818/5
f 225/368/1 518/819/1 519/820/1
f 225/368/1 520/821/1 521/822/1
f 225/368/1 519/820/1 520/821/1
f 237/823/1 238/824/1 528/825/1
f 525/826/5 514/817/5 523/827/5
f 527/828/5 514/817/5 526/829/5
f 526/829/5 514/817/5 525/826/5
f 225/368/1 531/830/1 532/831/1
f 225/368/1 533/832/1 534/833/1
f 225/368/1 532/831/1 533/832/1
f 523/827/5 514/817/5 516/816/5
f 225/368/1 521/822/1 531/830/1
f 517/834/4 513/835/4 512/836/4
f 517/834/4 516/837/4 515/838/4
f 517/834/4 515/838/4 513/835/4
f 517/834/4 525/839/4 523/840/4
f 517/834/4 527/841/4 526/842/4
f 517/834/4 526/842/4 525/839/4
f 513/843/2 238/844/2 512/845/2
f 516/846/2 238/844/2 515/847/2
f 515/847/2 238/844/2 513/843/2
f 525/848/2 528/849/2 523/850/2
f 527/851/2 528/849/2 526/852/2
f 526/852/2 528/849/2 525/848/2
f 517/834/4 523/840/4 516/837/4
f 430/853/3 429/854/3 427/855/3
f 437/856/3 535/857/3 538/858/3
f 538/859/4 546/860/4 437/861/4
f 439/697/2 445/862/2 538/863/2
f 443/864/5 438/865/5 539/866/5
f 551/867/1 537/868/1 540/869/1
f 458/870/5 542/871/5 543/872/5
f 545/873/2 430/874/2 544/875/2
f 536/876/1 430/877/1 492/878/1
f 548/879/2 430/874/2 545/873/2
f 547/880/4 549/881/4 548/882/4
f 548/883/5 458/870/5 545/884/5
f 547/880/4 548/882/4 545/885/4
f 482/810/2 553/886/2 476/887/2
f 553/886/2 561/888/2 556/889/2
f 541/890/1 551/867/1 563/891/1
f 544/875/2 430/874/2 427/741/2
f 537/892/3 443/893/3 536/894/3
f 550/895/2 537/896/2 536/897/2
f 554/898/2 557/899/2 551/900/2
f 566/901/5 514/817/5 565/902/5
f 568/903/5 514/817/5 567/904/5
f 567/904/5 514/817/5 566/901/5
f 225/368/1 569/905/1 570/906/1
f 225/368/1 571/907/1 573/908/1
f 225/368/1 570/906/1 571/907/1
f 576/546/1 575/909/1 607/547/1
f 522/910/1 529/911/1 295/912/1
f 530/913/1 234/914/1 514/915/1
f 517/834/4 566/916/4 565/917/4
f 517/834/4 567/918/4 566/916/4
f 566/919/2 528/849/2 565/920/2
f 528/921/3 568/922/3 524/923/3
f 568/924/2 528/849/2 567/925/2
f 567/925/2 528/849/2 566/919/2
f 577/926/6 522/927/6 574/928/6
f 580/929/6 493/930/6 579/931/6
f 492/762/2 580/932/2 579/933/2
f 550/934/6 487/935/6 488/936/6
f 499/937/2 550/938/2 488/939/2
f 580/940/3 498/941/3 579/942/3
f 550/934/6 492/943/6 487/935/6
f 581/944/6 493/930/6 580/929/6
f 492/762/2 581/945/2 580/932/2
f 587/946/1 550/947/1 499/948/1
f 587/796/6 586/949/6 509/797/6
f 509/782/2 586/950/2 511/783/2
f 508/951/5 507/952/5 582/953/5
f 511/783/2 586/950/2 584/954/2
f 564/955/6 588/956/6 555/957/6
f 564/958/1 563/891/1 588/959/1
f 588/956/6 550/960/6 555/957/6
f 576/961/5 493/962/5 225/360/5
f 565/902/5 514/817/5 527/828/5
f 225/368/1 534/833/1 569/905/1
f 565/920/2 528/849/2 527/851/2
f 517/834/4 565/917/4 527/841/4
f 582/963/5 559/964/5 560/965/5
f 576/546/1 225/368/1 578/966/1
f 343/508/6 283/507/6 415/650/6
f 595/967/1 593/968/1 597/969/1
f 595/970/2 598/971/2 594/972/2
f 599/973/5 597/974/5 600/975/5
f 597/974/5 593/976/5 600/975/5
f 602/977/6 595/978/6 601/979/6
f 396/980/6 417/663/6 269/634/6
f 603/981/6 600/982/6 593/983/6
f 598/971/2 603/984/2 594/972/2
f 603/985/4 598/986/4 600/987/4
f 602/988/5 415/989/5 605/990/5
f 605/991/6 606/992/6 604/993/6
f 602/994/1 604/995/1 358/996/1
f 576/997/6 604/993/6 606/992/6
f 606/992/6 605/991/6 415/650/6
f 576/997/6 356/512/6 604/993/6
f 396/661/5 493/962/5 576/961/5
f 396/661/5 446/699/5 493/962/5
f 589/998/4 465/999/4 434/1000/4
f 443/1001/3 589/1002/3 434/1003/3
f 592/1004/1 443/1001/1 555/1005/1
f 591/1006/6 555/1007/6 590/1008/6
f 429/1009/2 535/1010/2 426/1011/2
f 475/731/6 457/1012/6 455/732/6
f 535/857/3 437/856/3 426/740/3
f 579/931/6 493/930/6 495/1013/6
f 492/762/2 579/933/2 495/764/2
f 579/942/3 498/941/3 495/1014/3
f 511/792/6 507/1015/6 504/793/6
f 512/815/5 234/814/5 235/1016/5
f 225/368/1 242/370/1 518/819/1
f 512/845/2 238/844/2 235/1017/2
f 106/194/4 54/1018/4 24/1019/4
f 113/191/4 258/383/4 53/91/4
f 364/1020/4 259/1021/4 257/582/4
f 409/659/6 273/1022/6 403/1023/6
f 63/1024/3 223/1025/3 44/64/3
f 232/1026/1 78/363/1 81/130/1
f 81/1027/3 84/1028/3 232/379/3
f 236/1029/1 84/1030/1 295/912/1
f 574/1031/1 308/1032/1 309/1033/1
f 574/1031/1 307/1034/1 308/1032/1
f 295/1035/6 307/1036/6 574/928/6
f 358/996/1 604/995/1 359/1037/1
f 33/1038/2 57/1039/2 35/1040/2
f 43/1041/5 42/1042/5 59/1043/5
f 243/1044/3 179/1045/3 181/1046/3
f 184/297/6 244/1047/6 185/298/6
f 245/1048/3 216/1049/3 214/333/3
f 425/1050/5 387/1051/5 423/1052/5
f 484/1053/6 397/1054/6 394/1055/6
f 391/1056/5 397/1057/5 486/700/5
f 8/1058/2 7/1059/2 11/8/2 9/10/2
f 7/1060/4 12/1061/4 11/1062/4
f 2/92/2 51/14/2 13/7/2
f 2/92/2 13/7/2 5/9/2
f 32/1063/4 31/1064/4 45/1065/4 41/1066/4
f 9/13/3 14/12/3 10/49/3
f 13/7/2 51/14/2 9/10/2
f 27/99/3 21/35/3 19/22/3
f 20/25/4 18/1067/4 2/26/4
f 22/1068/3 26/36/3 18/19/3
f 22/32/5 18/1069/5 20/33/5
f 1/16/4 23/90/4 17/17/4
f 16/1070/2 39/38/2 25/40/2
f 27/1071/4 12/1061/4 7/1060/4
f 30/44/4 26/1072/4 22/45/4
f 27/99/3 28/42/3 21/35/3
f 28/42/3 31/51/3 30/43/3
f 32/1073/5 26/1074/5 30/1075/5
f 10/1076/2 29/52/2 28/54/2
f 8/98/3 28/42/3 27/99/3
f 14/12/3 33/47/3 10/49/3
f 32/1073/5 30/1075/5 31/1077/5
f 34/50/3 36/1078/3 31/51/3
f 34/50/3 60/105/3 36/1078/3
f 60/57/5 37/56/5 36/1079/5
f 34/1080/4 29/58/4 35/60/4
f 32/69/3 41/173/3 39/37/3
f 42/61/4 43/1081/4 38/62/4
f 46/113/2 63/115/2 44/1082/2
f 70/1083/6 293/1084/6 75/1085/6 72/1086/6
f 36/1078/3 44/64/3 31/51/3
f 43/71/3 46/109/3 37/72/3
f 37/68/1 44/67/1 36/1087/1
f 47/1088/4 48/84/4 50/83/4
f 47/77/2 51/14/2 49/1089/2
f 50/76/2 52/1090/2 51/14/2
f 17/17/4 53/91/4 256/384/4
f 49/1089/2 51/14/2 1/93/2
f 2/1091/3 18/19/3 1/21/3
f 4/1092/3 19/22/3 3/24/3
f 6/29/2 12/1093/2 27/30/2
f 51/14/2 55/430/2 15/15/2
f 15/11/3 61/101/3 14/12/3
f 33/1038/2 58/1094/2 57/1039/2
f 58/112/1 59/111/1 57/1095/1
f 57/103/3 59/106/3 60/105/3
f 61/1096/5 43/1041/5 59/1043/5
f 61/101/3 46/109/3 43/71/3
f 61/101/3 15/11/3 62/108/3
f 66/118/1 69/122/1 68/137/1
f 73/123/1 66/118/1 56/121/1
f 68/1097/2 69/441/2 71/440/2
f 72/444/5 74/443/5 70/1098/5
f 78/363/1 77/365/1 76/131/1
f 82/1099/1 81/130/1 80/132/1
f 81/130/1 78/363/1 76/131/1
f 76/1100/6 77/1101/6 229/1102/6 79/1103/6
f 107/1104/3 24/1105/3 23/1106/3 88/1107/3
f 71/134/3 67/1108/3 65/135/3
f 81/1109/2 82/447/2 84/1110/2
f 79/450/5 80/449/5 76/1111/5
f 293/459/2 83/458/2 75/1112/2
f 4/1113/2 3/1114/2 2/92/2 5/9/2
f 62/114/2 67/120/2 63/115/2
f 64/117/1 15/141/1 56/121/1
f 16/20/3 85/143/3 1/21/3
f 86/1115/6 89/1116/6 105/1117/6 87/1118/6
f 86/1119/4 24/1019/4 107/202/4 89/203/4
f 54/1120/6 109/1121/6 113/1122/6 53/1123/6
f 1/16/4 88/146/4 23/90/4
f 91/1124/3 93/150/3 25/152/3
f 94/149/1 93/148/1 91/1125/1
f 99/1126/3 100/156/3 94/158/3
f 98/162/4 100/1127/4 99/163/4
f 102/1128/5 85/355/5 101/357/5
f 98/166/3 101/168/3 92/151/3
f 41/173/3 104/358/3 102/165/3
f 102/170/1 101/1129/1 40/171/1
f 104/362/5 103/220/5 90/144/5
f 97/169/3 101/168/3 98/166/3
f 87/201/5 106/200/5 86/1130/5
f 105/1131/4 108/180/4 87/182/4
f 88/190/5 109/189/5 107/1132/5
f 111/185/3 108/1133/3 112/186/3
f 112/1134/2 108/178/2 89/177/2
f 106/194/4 109/193/4 54/1018/4
f 171/1135/3 110/1136/3 118/1137/3 119/1138/3
f 115/197/5 114/195/5 90/144/5
f 107/202/4 109/193/4 112/192/4
f 119/1139/6 120/213/6 123/212/6 143/1140/6
f 117/206/4 119/1141/4 118/207/4
f 120/1142/3 121/1143/3 171/1135/3
f 117/206/4 121/1144/4 120/1145/4
f 96/184/5 118/1146/5 110/183/5
f 119/1138/3 120/1142/3 171/1135/3
f 117/206/4 120/1145/4 119/1141/4
f 103/220/5 96/184/5 90/144/5
f 124/1147/3 125/1148/3 171/1135/3
f 117/206/4 125/1149/4 124/1150/4
f 126/1151/3 127/1152/3 171/1135/3
f 117/206/4 127/1153/4 126/1154/4
f 125/1148/3 126/1151/3 171/1135/3
f 117/206/4 126/1154/4 125/1149/4
f 121/1143/3 124/1147/3 171/1135/3
f 117/206/4 124/1150/4 121/1144/4
f 96/211/3 122/210/3 117/293/3
f 135/1155/2 130/1156/2 136/1157/2 137/1158/2
f 128/226/1 122/225/1 103/1159/1
f 129/1160/3 130/1161/3 122/210/3
f 132/1162/1 122/225/1 131/224/1
f 116/1163/6 115/1164/6 139/1165/6 140/1166/6
f 136/280/1 130/1167/1 129/281/1
f 110/343/4 139/342/4 115/1168/4
f 138/1169/1 140/1170/1 141/233/1 188/232/1
f 142/1171/6 141/1172/6 139/1165/6
f 139/1165/6 141/1172/6 140/1166/6
f 140/1173/5 138/1174/5 143/240/5 144/239/5
f 146/1175/6 145/1176/6 139/1165/6
f 148/1177/6 147/1178/6 139/1165/6
f 147/1178/6 146/1175/6 139/1165/6
f 123/1179/4 149/246/4 143/1180/4
f 154/238/5 153/1181/5 144/239/5
f 156/244/4 157/1182/4 154/245/4
f 116/1183/4 140/1184/4 151/251/4
f 140/1184/4 141/252/4 151/251/4
f 145/1176/6 142/1171/6 139/1165/6
f 151/251/4 142/250/4 145/255/4 155/254/4
f 123/1185/5 158/1186/5 159/276/5 149/274/5
f 143/1180/4 149/246/4 154/245/4
f 161/1187/4 165/1188/4 164/277/4 133/267/4
f 134/227/2 160/1189/2 129/228/2
f 162/1190/5 161/1191/5 133/1192/5
f 131/224/1 128/226/1 159/1193/1 158/1194/1
f 134/227/2 159/278/2 164/1195/2 160/1189/2
f 163/287/1 165/1196/1 164/1197/1
f 164/1195/2 165/1198/2 160/1189/2
f 128/226/1 163/287/1 164/1197/1 159/1193/1
f 166/1199/2 162/1200/2 168/1201/2 170/1202/2
f 160/282/1 162/1203/1 136/280/1
f 167/1204/6 217/285/6 160/284/6
f 169/286/1 167/352/1 163/287/1
f 165/1198/2 167/1205/2 160/1189/2
f 163/287/1 167/352/1 165/1196/1
f 119/1206/1 138/1169/1 188/232/1 120/1207/1
f 160/282/1 168/1208/1 162/1203/1
f 136/1209/5 162/1190/5 133/1192/5
f 188/232/1 121/1210/1 120/1207/1
f 174/291/6 175/1211/6 176/302/6 123/212/6
f 188/232/1 125/1212/1 124/1213/1
f 188/232/1 127/1214/1 126/1215/1
f 188/232/1 126/1215/1 125/1212/1
f 143/240/5 138/1174/5 119/1216/5
f 188/232/1 124/1213/1 121/1210/1
f 132/1217/5 158/1186/5 123/1185/5
f 158/1194/1 132/1162/1 131/224/1
f 149/272/3 161/271/3 150/1218/3
f 172/1219/3 173/1220/3 171/1135/3
f 117/206/4 173/1221/4 172/1222/4
f 174/1223/3 175/1224/3 171/1135/3
f 117/206/4 175/1225/4 174/1226/4
f 173/1220/3 174/1223/3 171/1135/3
f 117/206/4 174/1226/4 173/1221/4
f 117/293/3 177/292/3 181/1046/3 179/1045/3
f 176/294/5 175/1227/5 117/295/5
f 130/1161/3 177/292/3 122/210/3
f 178/299/6 136/1228/6 133/222/6
f 176/302/6 178/299/6 133/222/6
f 178/299/6 182/301/6 136/1228/6
f 177/292/3 180/1229/3 181/1046/3
f 180/1230/1 183/1231/1 185/1232/1 181/1233/1
f 182/1234/2 183/1235/2 180/1236/2
f 182/1234/2 180/1236/2 177/1237/2
f 191/1238/3 200/329/3 150/1218/3 192/340/3
f 184/1239/5 176/294/5 179/296/5
f 187/1240/6 186/1241/6 139/1165/6
f 139/1165/6 190/1242/6 189/1243/6
f 190/1244/5 139/306/5 188/308/5
f 189/305/1 190/1245/1 188/232/1
f 189/1243/6 187/1240/6 139/1165/6
f 196/1246/3 194/1247/3 195/1248/3 197/1249/3
f 197/1249/3 195/1248/3 198/1250/3 199/1251/3
f 194/1252/1 196/1253/1 144/242/1
f 150/1254/2 200/1255/2 203/1256/2 204/1257/2
f 150/258/4 199/1258/4 198/309/4
f 193/1259/6 202/1260/6 201/1261/6
f 201/1262/2 202/1263/2 200/1255/2
f 193/1259/6 204/1264/6 203/1265/6
f 195/1248/2 194/1247/2 205/1266/2 206/1267/2
f 207/311/4 205/310/4 194/1268/4 196/321/4
f 198/1250/2 195/1248/2 206/1267/2 209/1269/2
f 198/1270/1 209/314/1 210/313/1 199/1271/1
f 203/319/5 204/1272/5 212/1273/5 207/316/5
f 201/1274/3 196/1246/3 197/1249/3 202/1275/3
f 144/242/1 196/1253/1 201/1276/1 200/1277/1
f 203/1278/3 197/1249/3 199/1251/3 204/1279/3
f 199/1271/1 210/313/1 212/621/1 204/1280/1
f 150/258/4 204/1281/4 199/1258/4
f 193/1259/6 203/1265/6 202/1260/6
f 202/1263/2 203/1256/2 200/1255/2
f 197/1249/3 203/1278/3 202/1275/3
f 193/1282/4 155/254/4 189/324/4 190/1283/4
f 187/328/3 186/350/3 144/259/3 200/329/3
f 191/1238/3 190/1284/3 189/330/3 200/329/3
f 155/1285/6 193/1259/6 201/1261/6 196/1286/6
f 196/1286/6 194/1287/6 155/1285/6
f 205/1288/5 208/1289/5 155/1290/5
f 214/1291/1 215/1292/1 220/1293/1 222/1294/1
f 194/1295/5 205/1288/5 155/1290/5
f 214/333/3 216/1049/3 192/340/3
f 218/1296/6 168/283/6 217/285/6
f 222/1297/6 220/1298/6 218/1296/6
f 193/1259/6 222/1297/6 218/1296/6
f 213/337/2 218/1299/2 220/335/2
f 217/285/6 199/346/6 204/1264/6 218/1296/6
f 213/334/3 214/333/3 161/271/3
f 188/232/1 173/1300/1 172/1301/1
f 188/232/1 175/1302/1 174/1303/1
f 188/232/1 174/1303/1 173/1300/1
f 176/302/6 133/222/6 123/212/6
f 161/271/3 192/340/3 150/1218/3
f 193/1259/6 218/1296/6 204/1264/6
f 217/1304/5 211/1305/5 209/1306/5
f 209/1307/4 157/1182/4 156/244/4 198/309/4
f 217/1304/5 209/1306/5 198/1308/5
f 127/1152/3 172/1219/3 171/1135/3
f 117/206/4 172/1222/4 127/1153/4
f 186/1241/6 148/1177/6 139/1165/6
f 152/241/1 194/1252/1 144/242/1
f 152/349/3 206/348/3 205/1309/3
f 157/347/3 209/1310/3 206/348/3
f 205/1311/1 194/1252/1 152/241/1
f 135/1312/1 137/1313/1 182/1314/1 177/1315/1
f 135/1316/3 177/292/3 130/1161/3
f 136/1228/6 182/301/6 137/1317/6
f 213/1318/1 166/1319/1 170/1320/1 218/1321/1
f 219/669/1 217/351/1 169/286/1
f 168/283/6 218/1296/6 170/1322/6
f 162/354/3 213/334/3 161/271/3
f 91/1323/5 97/1324/5 99/1325/5 94/1326/5
f 188/232/1 172/1301/1 127/1214/1
f 84/1030/1 236/1029/1 238/824/1 237/823/1
f 95/1327/2 100/159/2 93/161/2
f 41/173/3 224/1328/3 104/358/3
f 225/368/1 104/1329/1 224/367/1
f 230/361/5 227/679/5 226/221/5
f 232/1026/1 231/364/1 78/363/1
f 234/1330/6 240/1331/6 242/1332/6 241/1333/6
f 243/1334/1 244/1335/1 184/1336/1 179/1337/1
f 239/369/1 224/367/1 231/364/1
f 241/1333/6 235/1338/6 234/1330/6
f 232/1026/1 239/369/1 231/364/1
f 84/1028/3 237/377/3 232/379/3
f 238/374/6 236/1339/6 233/375/6
f 237/1340/5 242/1341/5 239/1342/5
f 245/1343/1 246/1344/1 221/1345/1 216/1346/1
f 224/359/5 223/176/5 229/371/5 228/373/5
f 226/221/5 103/220/5 104/362/5
f 51/14/2 52/1090/2 248/381/2 270/396/2
f 247/1347/6 52/1348/6 50/1349/6
f 256/1350/6 52/1348/6 247/1347/6
f 251/1351/6 253/1352/6 260/1353/6 252/1354/6
f 251/1355/2 252/380/2 249/382/2
f 250/1356/4 253/417/4 249/419/4
f 252/380/2 270/396/2 248/381/2
f 254/1357/2 55/430/2 51/14/2
f 256/384/4 258/383/4 255/390/4
f 248/422/3 255/1358/3 250/423/3
f 255/387/5 253/386/5 250/1359/5
f 260/389/4 261/402/4 252/1360/4
f 262/1361/4 270/1362/4 274/1363/4 265/1364/4
f 270/396/2 263/398/2 266/1365/2
f 289/1366/2 288/1367/2 56/433/2 287/432/2
f 270/396/2 266/1365/2 254/1357/2
f 270/409/6 261/1368/6 269/634/6
f 268/388/4 269/204/4 261/402/4
f 272/405/6 271/404/6 269/634/6
f 271/404/6 270/409/6 269/634/6
f 279/1369/6 262/1370/6 265/1371/6
f 279/1369/6 263/1372/6 262/1370/6
f 274/1363/4 276/1373/4 265/1364/4
f 265/1371/6 278/1374/6 279/1369/6
f 264/1375/2 279/479/2 311/478/2
f 278/415/5 265/413/5 277/412/5
f 278/1374/6 281/1376/6 279/1369/6
f 283/507/6 277/1377/6 275/403/6
f 282/651/6 283/507/6 275/403/6
f 273/406/2 284/1378/2 282/428/2
f 275/403/6 277/1377/6 276/1379/6
f 275/403/6 276/1379/6 274/411/6
f 256/384/4 255/390/4 52/421/4
f 270/396/2 254/1357/2 51/14/2
f 286/429/2 56/433/2 15/15/2
f 291/451/1 290/438/1 288/1380/1
f 289/1381/1 291/451/1 288/1380/1
f 291/1382/2 297/1383/2 298/1384/2 299/1385/2
f 288/434/3 290/1386/3 73/435/3
f 292/437/1 72/126/1 71/125/1
f 73/439/2 290/1387/2 71/440/2
f 296/559/1 79/127/1 83/133/1
f 82/447/2 295/446/2 84/1110/2
f 80/132/1 306/1388/1 308/1032/1 307/1034/1
f 302/1389/1 303/1390/1 300/452/1
f 74/140/1 304/1391/1 302/1389/1
f 74/140/1 302/1389/1 300/452/1
f 307/1034/1 294/1392/1 80/132/1
f 308/1393/3 306/1394/3 296/1395/3 310/1396/3
f 303/1390/1 293/138/1 300/452/1
f 302/1397/2 304/551/2 305/1398/2
f 313/1399/2 55/430/2 267/1400/2 312/1401/2
f 310/562/5 309/561/5 308/1402/5
f 305/454/3 83/1403/3 303/455/3
f 296/448/5 306/1404/5 80/449/5
f 254/1357/2 267/1400/2 55/430/2
f 266/1365/2 267/1400/2 254/1357/2
f 321/1405/2 285/431/2 320/464/2 322/1406/2
f 318/570/6 316/467/6 55/466/6
f 55/430/2 317/1407/2 320/464/2
f 319/1408/6 317/465/6 316/467/6
f 317/1409/1 323/1410/1 320/1411/1
f 277/1377/6 283/507/6 324/1412/6 280/1413/6
f 326/564/6 328/1414/6 332/1415/6 329/494/6
f 280/482/4 324/1416/4 325/480/4
f 327/505/6 313/1417/6 312/1418/6
f 281/1376/6 327/505/6 312/1418/6
f 331/492/6 315/563/6 314/493/6
f 337/528/6 336/489/6 335/491/6
f 337/571/5 335/1419/5 333/572/5
f 292/442/5 325/475/5 341/474/5
f 325/500/6 327/505/6 281/1376/6
f 332/486/4 340/1420/4 330/487/4
f 311/461/4 281/1421/4 312/462/4
f 353/498/6 335/491/6 330/490/6
f 338/523/6 334/1422/6 333/1423/6
f 335/503/1 339/502/1 333/1424/1
f 326/564/6 329/494/6 314/493/6
f 332/1425/2 328/1426/2 327/1427/2 340/1428/2
f 347/1429/1 319/1430/1 348/1431/1 349/1432/1
f 342/506/6 341/513/6 283/507/6
f 344/1433/6 342/506/6 343/508/6
f 345/509/2 358/543/2 342/510/2
f 341/513/6 324/1412/6 283/507/6
f 325/500/6 281/1376/6 278/1374/6
f 319/520/2 346/519/2 348/1434/2
f 304/1391/1 74/140/1 301/555/1 360/1435/1
f 331/514/4 336/1436/4 346/515/4
f 336/489/6 348/518/6 346/1437/6
f 349/1438/5 351/525/5 352/527/5
f 339/1439/2 353/1440/2 355/539/2
f 355/522/6 352/536/6 338/523/6
f 334/532/4 338/1441/4 351/530/4
f 349/1432/1 352/1442/1 347/1429/1
f 349/517/6 336/489/6 337/528/6
f 350/534/6 355/522/6 347/535/6
f 355/522/6 319/1408/6 347/535/6
f 355/522/6 350/534/6 352/536/6
f 354/537/1 299/1443/1 321/568/1
f 355/1444/1 323/1410/1 317/1409/1
f 354/537/1 291/451/1 299/1443/1
f 353/1440/2 357/542/2 355/539/2
f 292/533/6 357/1445/6 353/498/6
f 321/468/3 299/1446/3 298/469/3
f 292/442/5 356/504/5 74/443/5
f 360/1435/1 361/1447/1 607/547/1 309/1033/1
f 361/1447/1 360/1435/1 301/555/1
f 363/1448/1 310/558/1 362/557/1
f 356/548/1 361/1447/1 301/555/1
f 55/1449/1 313/1450/1 327/485/1 326/484/1
f 363/1451/6 362/552/6 309/554/6
f 356/548/1 607/547/1 361/1447/1
f 298/1452/1 297/565/1 285/567/1
f 362/557/1 296/559/1 83/133/1
f 304/551/2 362/550/2 305/1398/2
f 287/1453/6 297/1454/6 291/1455/6 289/1456/6
f 318/570/6 315/563/6 319/1408/6 316/467/6
f 381/603/5 382/1457/5 384/1458/5 378/601/5
f 355/522/6 317/465/6 319/1408/6
f 354/1459/6 322/471/6 323/473/6
f 330/495/2 336/1460/2 331/496/2
f 339/524/6 338/523/6 333/1423/6
f 257/582/4 366/581/4 364/1020/4
f 369/1461/6 368/574/6 366/576/6
f 365/205/4 269/204/4 370/631/4
f 372/602/5 378/601/5 371/1462/5
f 369/589/4 375/1463/4 373/590/4
f 366/1464/2 375/1465/2 369/1466/2
f 370/577/5 374/1467/5 367/578/5
f 373/586/5 377/1468/5 364/587/5
f 376/1469/2 375/1465/2 366/1464/2
f 367/580/4 374/1470/4 376/592/4
f 407/660/5 269/196/5 114/195/5
f 371/593/4 378/1471/4 407/594/4
f 151/596/3 372/1472/3 371/597/3
f 383/1473/5 389/612/5 390/611/5 385/1474/5
f 153/606/3 380/605/3 379/1475/3
f 387/615/1 386/1476/1 226/1477/1
f 259/1021/4 377/1478/4 376/592/4 374/1470/4
f 392/620/5 390/611/5 386/613/5
f 387/615/1 392/614/1 386/1476/1
f 388/1479/1 387/615/1 226/1477/1
f 386/613/5 389/612/5 169/1480/5
f 390/611/5 378/601/5 384/1458/5
f 378/1481/6 391/1482/6 407/1483/6
f 392/1484/6 391/1482/6 378/1481/6
f 392/614/1 394/617/1 397/618/1
f 394/617/1 395/616/1 393/1485/1
f 385/1474/5 390/611/5 384/1458/5
f 212/625/6 211/1486/6 208/626/6
f 400/1487/5 399/622/5 211/624/5
f 208/1289/5 398/1488/5 155/1290/5
f 219/1489/5 211/1305/5 217/1304/5
f 373/628/3 375/1490/3 376/629/3
f 259/1491/6 374/1492/6 370/1493/6 268/1494/6
f 273/1022/6 406/646/6 404/1495/6 403/1023/6
f 404/1496/1 408/1497/1 403/1498/1
f 403/1498/1 408/1497/1 402/1499/1
f 384/1500/4 382/1501/4 208/1502/4 399/1503/4
f 401/1504/4 406/1505/4 273/1506/4
f 411/637/5 403/636/5 402/1507/5
f 412/653/5 406/1508/5 401/654/5
f 411/649/4 410/648/4 409/1509/4
f 284/658/1 416/657/1 282/1510/1
f 417/663/6 416/652/6 401/633/6
f 417/663/6 415/650/6 416/652/6
f 412/644/6 284/1511/6 409/659/6
f 269/634/6 417/663/6 413/664/6
f 211/1512/1 383/1513/1 385/1514/1 400/1515/1
f 381/1516/6 398/1517/6 208/1518/6 382/1519/6
f 381/1520/4 372/600/4 155/254/4 398/1521/4
f 389/1522/6 383/1513/6 211/1512/6 219/1523/6
f 419/1524/5 420/1525/5 421/1526/5 424/1527/5
f 404/1528/2 410/638/2 408/640/2
f 406/646/6 410/645/6 404/1495/6
f 396/661/5 407/660/5 391/1056/5
f 269/634/6 413/664/6 405/632/6
f 421/675/1 420/1529/1 418/676/1
f 418/672/3 420/1530/3 419/673/3
f 486/700/5 422/680/5 227/679/5
f 419/1531/1 424/1532/1 425/1533/1 423/1534/1
f 429/1535/4 426/1536/4 438/1537/4 434/1538/4
f 418/678/5 388/1539/5 226/221/5
f 428/683/4 432/682/4 431/1540/4
f 429/684/3 434/1541/3 433/685/3
f 445/1542/3 442/1543/3 440/1544/3 441/1545/3
f 436/698/2 444/727/2 442/696/2
f 440/687/5 454/735/5 435/688/5
f 454/739/1 436/738/1 435/1546/1
f 439/697/2 442/696/2 445/862/2
f 448/1547/5 449/710/5 451/704/5 450/1548/5
f 227/1549/3 449/1550/3 448/1551/3
f 452/1552/3 227/1549/3 230/1553/3 453/1554/3
f 448/1555/4 450/1556/4 227/1557/4
f 459/1558/5 451/704/5 461/1559/5 460/1560/5
f 446/1561/4 227/1557/4 459/1562/4 460/1563/4
f 448/1564/6 454/1565/6 455/732/6 449/1566/6
f 451/704/5 459/1558/5 450/1548/5
f 450/1556/4 459/1562/4 227/1557/4
f 448/1567/1 450/711/1 456/707/1 454/1568/1
f 452/1569/6 455/732/6 457/1012/6 453/1570/6
f 468/770/4 432/682/4 433/681/4 469/1571/4
f 451/1572/3 458/1573/3 479/1574/3
f 227/1549/3 452/1552/3 449/1550/3
f 455/732/6 452/1569/6 449/1566/6
f 479/1575/4 461/1576/4 451/1577/4
f 431/1578/5 463/1579/5 467/1580/5 466/1581/5
f 464/712/2 468/721/2 470/808/2
f 465/1582/5 469/722/5 434/724/5
f 475/1583/2 474/736/2 479/726/2 476/887/2
f 463/720/4 464/1584/4 470/718/4
f 471/713/2 473/725/2 444/727/2
f 479/726/2 473/725/2 478/812/2 480/789/2
f 477/1585/1 478/728/1 472/730/1
f 461/1586/6 481/1587/6 482/1588/6 462/1589/6
f 479/1574/3 458/1573/3 476/1590/3
f 447/771/4 428/683/4 431/1540/4 466/772/4
f 479/1575/4 481/1591/4 461/1576/4
f 444/727/2 479/726/2 474/736/2
f 479/726/2 480/789/2 481/811/2
f 448/743/2 449/1592/2 427/741/2
f 452/1593/2 453/1594/2 427/741/2
f 449/1592/2 452/1593/2 427/741/2
f 442/691/4 474/1595/4 455/692/4
f 431/1578/5 454/1596/5 472/1597/5 463/1579/5
f 426/740/3 437/856/3 435/1598/3
f 456/707/1 472/730/1 454/1568/1
f 477/1585/1 472/730/1 456/707/1
f 435/1598/3 436/695/3 426/740/3
f 443/864/5 434/1599/5 438/865/5
f 427/741/2 460/1600/2 459/1601/2
f 427/741/2 459/1601/2 450/742/2
f 471/715/6 454/735/6 431/716/6
f 463/746/3 472/1602/3 473/744/3
f 446/759/6 494/766/6 495/1013/6 493/930/6
f 471/713/2 464/712/2 473/725/2
f 478/747/6 477/1603/6 467/748/6
f 485/753/6 422/752/6 483/1604/6
f 484/754/1 485/1605/1 483/755/1
f 446/699/5 391/1056/5 486/700/5
f 424/1606/6 421/751/6 485/753/6
f 429/1607/4 488/1608/4 487/1609/4
f 496/1610/3 490/1611/3 491/769/3 497/768/3
f 497/768/3 494/767/3 495/1014/3 498/941/3
f 501/1612/4 488/1613/4 465/1614/4 502/1615/4
f 489/1616/2 499/937/2 488/939/2
f 506/776/5 504/795/5 507/952/5 508/951/5
f 466/805/3 500/804/3 468/1617/3
f 468/770/4 469/1571/4 447/771/4
f 510/784/2 505/809/2 480/789/2 503/788/2
f 502/798/6 509/797/6 503/806/6
f 587/785/5 502/1618/5 465/786/5
f 504/1619/4 497/1620/4 505/1621/4 510/1622/4
f 460/1560/5 461/1559/5 491/1623/5 490/1624/5
f 488/1613/4 501/1612/4 489/1625/4
f 465/773/6 488/1626/6 447/774/6
f 506/801/6 499/800/6 489/1627/6
f 487/802/2 492/762/2 490/761/2
f 501/807/6 503/806/6 506/801/6
f 501/807/6 506/801/6 489/1627/6
f 429/1607/4 487/1609/4 427/1628/4
f 460/709/1 490/1629/1 496/1630/1 456/707/1
f 460/1563/4 490/1631/4 446/1561/4
f 461/1559/5 495/1632/5 494/1633/5
f 461/1559/5 494/1633/5 491/1623/5
f 466/1581/5 467/1580/5 477/1634/5 496/1635/5
f 478/812/2 500/790/2 480/789/2
f 480/789/2 505/809/2 481/811/2
f 427/741/2 490/761/2 460/1600/2
f 234/814/5 513/813/5 515/818/5 514/817/5
f 496/1630/1 477/1585/1 456/707/1
f 513/1636/1 512/1637/1 233/1638/1
f 516/1639/1 515/1640/1 233/1638/1
f 233/1638/1 524/1641/1 525/1642/1 523/1643/1
f 515/1640/1 513/1636/1 233/1638/1
f 240/1644/2 519/1645/2 518/1646/2
f 518/1647/4 519/1648/4 517/834/4
f 240/1644/2 521/1649/2 520/1650/2
f 520/1651/4 521/1652/4 517/834/4
f 240/1644/2 520/1650/2 519/1645/2
f 519/1648/4 520/1651/4 517/834/4
f 522/910/1 237/823/1 528/825/1
f 532/1653/2 240/1644/2 530/1654/2 533/1655/2
f 527/1656/1 526/1657/1 524/1641/1
f 526/1657/1 525/1642/1 524/1641/1
f 240/1644/2 532/1653/2 531/1658/2
f 531/1659/4 532/1660/4 517/834/4
f 530/1654/2 534/1661/2 533/1655/2
f 533/1662/4 534/1663/4 517/834/4
f 519/1664/5 237/1340/5 522/1665/5 520/1666/5
f 532/1660/4 533/1662/4 517/834/4
f 523/1643/1 516/1639/1 233/1638/1
f 530/913/1 240/1667/1 234/914/1
f 240/1644/2 531/1658/2 521/1649/2
f 521/1652/4 531/1659/4 517/834/4
f 237/1340/5 519/1664/5 518/1668/5
f 522/1665/5 521/1669/5 520/1666/5
f 233/1670/5 236/1671/5 529/1672/5 524/1673/5
f 238/844/2 516/846/2 523/850/2 528/849/2
f 522/1665/5 532/1674/5 531/1675/5
f 522/1665/5 534/1676/5 533/1677/5
f 522/1665/5 533/1677/5 532/1674/5
f 438/694/3 439/693/3 538/858/3 539/1678/3
f 522/1665/5 531/1675/5 521/1669/5
f 430/853/3 536/1679/3 429/854/3
f 429/1009/2 536/1680/2 535/1010/2
f 535/1681/1 536/1682/1 443/1683/1 539/1684/1
f 535/857/3 539/1678/3 538/858/3
f 546/1685/5 441/1686/5 437/689/5
f 430/874/2 548/879/2 549/1687/2 492/762/2
f 537/892/3 541/1688/3 443/893/3
f 551/867/1 541/890/1 537/868/1
f 230/1553/3 543/1689/3 542/1690/3
f 545/1691/1 544/1692/1 230/1693/1
f 230/1693/1 493/1694/1 549/1695/1 548/1696/1
f 545/885/4 544/1697/4 546/1698/4 547/880/4
f 550/1699/1 536/876/1 492/878/1
f 548/1696/1 545/1691/1 230/1693/1
f 457/1012/6 543/1700/6 542/1701/6
f 543/872/5 544/1702/5 545/884/5 458/870/5
f 230/1553/3 544/1703/3 543/1689/3
f 458/870/5 548/883/5 549/1704/5 462/1705/5
f 543/1700/6 457/1012/6 546/1706/6 544/1707/6
f 476/1708/1 458/1709/1 462/1710/1 482/1711/1
f 546/1712/5 552/1713/5 558/1714/5
f 475/1583/2 476/887/2 553/886/2
f 556/889/2 557/899/2 554/898/2
f 556/1715/3 558/1716/3 552/1717/3 557/1718/3
f 554/1719/6 551/1720/6 546/1721/6
f 559/1722/6 561/1723/6 562/1724/6 560/1725/6
f 559/1726/4 558/1727/4 556/1728/4 561/1729/4
f 557/1730/1 552/1731/1 560/1732/1 562/1733/1
f 552/1713/5 540/1734/5 583/1735/5 560/965/5
f 553/886/2 556/889/2 554/898/2
f 551/1720/6 540/1736/6 546/1721/6
f 540/1734/5 552/1713/5 546/1712/5
f 541/1737/5 555/1738/5 443/1739/5
f 551/900/2 557/899/2 562/1740/2 563/1741/2
f 554/898/2 538/863/2 445/862/2 553/886/2
f 541/1737/5 564/1742/5 555/1738/5
f 542/1743/2 543/1744/2 427/741/2
f 427/741/2 543/1744/2 544/875/2
f 475/1583/2 553/886/2 445/862/2
f 546/1685/5 457/1745/5 441/1686/5
f 445/1746/1 441/1747/1 457/1748/1 475/1749/1
f 537/868/1 588/959/1 583/1750/1 540/869/1
f 538/859/4 554/1751/4 546/860/4
f 546/1698/4 558/1727/4 547/880/4
f 547/880/4 558/1727/4 559/1726/4
f 572/1752/4 517/834/4 571/1753/4 573/1754/4
f 225/360/5 493/962/5 230/361/5
f 566/1755/1 565/1756/1 524/1641/1
f 568/1757/1 567/1758/1 524/1641/1
f 567/1758/1 566/1755/1 524/1641/1
f 530/1654/2 570/1759/2 569/1760/2
f 569/1761/4 570/1762/4 517/834/4
f 572/1763/3 573/1764/3 530/1765/3
f 530/1654/2 573/1766/2 571/1767/2
f 577/1768/1 574/1031/1 575/909/1 578/966/1
f 530/1654/2 571/1767/2 570/1759/2
f 570/1762/4 571/1753/4 517/834/4
f 607/547/1 575/909/1 574/1031/1
f 522/910/1 528/825/1 529/911/1
f 576/546/1 578/966/1 575/909/1
f 573/908/1 577/1768/1 578/966/1 225/368/1
f 530/1765/3 514/1769/3 568/1770/3 572/1763/3
f 568/1771/4 567/918/4 517/834/4 572/1752/4
f 498/941/3 580/940/3 581/1772/3 582/1773/3
f 529/1774/3 528/921/3 524/923/3
f 522/1665/5 570/1775/5 569/1776/5
f 522/1665/5 573/1777/5 571/1778/5
f 522/1665/5 571/1778/5 570/1775/5
f 522/927/6 295/1035/6 574/928/6
f 522/1665/5 577/1779/5 573/1777/5
f 508/799/6 586/949/6 587/796/6 499/800/6
f 563/1780/3 585/1781/3 582/1782/3 583/1783/3
f 586/1784/4 508/1785/4 582/1786/4 585/1787/4
f 585/1788/2 553/886/2 584/954/2 586/950/2
f 587/946/1 555/1789/1 550/947/1
f 582/953/5 507/952/5 498/1790/5
f 584/1791/1 498/1792/1 507/1793/1 511/1794/1
f 462/1705/5 549/1704/5 581/1795/5 580/1796/5
f 563/891/1 564/958/1 541/890/1
f 588/959/1 563/891/1 583/1750/1
f 565/1756/1 527/1656/1 524/1641/1
f 530/1654/2 569/1760/2 534/1661/2
f 534/1663/4 569/1761/4 517/834/4
f 522/1665/5 569/1776/5 534/1676/5
f 580/1796/5 579/1797/5 462/1705/5
f 549/1687/2 581/945/2 492/762/2
f 581/1798/1 549/1695/1 493/1694/1
f 581/1799/4 549/881/4 547/880/4 582/1800/4
f 563/1741/2 562/1740/2 561/888/2 585/1788/2
f 482/810/2 584/954/2 553/886/2
f 345/1801/6 601/979/6 595/978/6 597/1802/6
f 553/886/2 585/1788/2 561/888/2
f 583/1735/5 582/963/5 560/965/5
f 550/895/2 588/1803/2 537/896/2
f 547/880/4 559/1726/4 582/1800/4
f 592/1804/5 591/1805/5 589/1806/5
f 591/1805/5 590/1807/5 589/1806/5
f 596/1808/6 344/1433/6 343/508/6
f 595/967/1 594/1809/1 593/968/1
f 599/1810/6 598/1811/6 602/977/6 358/1812/6
f 596/1813/4 601/1814/4 345/1815/4
f 596/1813/4 415/1816/4 601/1814/4
f 415/650/6 596/1808/6 343/508/6
f 602/988/5 601/1817/5 415/989/5
f 446/699/5 396/661/5 391/1056/5
f 396/980/6 415/650/6 417/663/6
f 594/1818/6 603/981/6 593/983/6
f 600/987/4 598/986/4 599/1819/4
f 604/993/6 356/512/6 359/545/6
f 451/704/5 453/706/5 542/871/5 458/870/5
f 602/994/1 605/1820/1 604/995/1
f 602/977/6 598/1811/6 595/978/6
f 576/997/6 606/992/6 415/650/6
f 396/980/6 576/997/6 415/650/6
f 589/998/4 590/1821/4 465/999/4
f 590/1008/6 555/1007/6 465/1822/6
f 443/1001/3 592/1004/3 589/1002/3
f 591/1823/1 592/1004/1 555/1005/1
f 437/689/5 441/1686/5 440/687/5
f 230/1553/3 542/1690/3 453/1554/3
f 505/1824/3 497/768/3 498/941/3 584/1825/3
f 457/1012/6 542/1701/6 453/1570/6
f 453/1594/2 542/1743/2 427/741/2
f 461/1559/5 462/1705/5 579/1797/5 495/1632/5
f 517/834/4 241/1826/4 242/1827/4 518/1647/4
f 505/809/2 584/954/2 482/810/2
f 294/1392/1 82/1099/1 80/132/1
f 379/247/2 380/1828/2 157/248/2
f 157/1182/4 380/1829/4 154/245/4
f 512/1637/1 235/1830/1 233/1638/1
f 240/1644/2 518/1646/2 242/1831/2
f 512/836/4 235/1832/4 241/1826/4 517/834/4
f 237/1340/5 518/1668/5 242/1341/5
f 91/1124/3 25/152/3 40/167/3 97/169/3
f 25/155/4 85/154/4 16/1833/4
f 86/1119/4 106/194/4 24/1019/4
f 63/1834/1 67/129/1 229/128/1 223/1835/1
f 258/1836/3 365/583/3 257/585/3
f 364/1020/4 377/1478/4 259/1021/4
f 272/1837/4 401/1504/4 273/1506/4
f 282/651/6 415/650/6 283/507/6
f 409/659/6 284/1511/6 273/1022/6
f 44/64/3 223/1025/3 45/65/3
f 345/1801/6 597/1802/6 599/1810/6 358/1812/6
f 344/1838/4 596/1813/4 345/1815/4
f 243/1839/2 181/1840/2 185/1841/2 244/1842/2
f 529/911/1 236/1029/1 295/912/1
f 607/547/1 574/1031/1 309/1033/1
f 246/1843/6 222/1297/6 193/1259/6 221/1844/6
f 246/1845/2 245/1846/2 214/1847/2 222/1848/2
f 387/1849/3 388/674/3 419/673/3 423/1850/3
f 393/1851/5 485/1852/5 484/1853/5 394/1854/5
f 425/1050/5 395/1855/5 387/1051/5
f 424/1606/6 393/1856/6 395/1857/6 425/1858/6
f 484/1053/6 486/1859/6 397/1054/6
f 393/1856/6 424/1606/6 485/753/6
