# Blender v2.78 (sub 0) OBJ File: ''
# www.blender.org
mtllib propCommercial1.mtl
o propCommercial1.001
v -7.000004 -0.000013 -8.000014
v -7.000004 -0.000013 -3.000014
v -7.000004 3.999994 -6.000010
v -2.974447 3.766603 -8.000013
v -6.000010 -0.000013 -3.000014
v -7.000004 5.999998 -3.000013
v -6.000010 -0.000014 -2.000003
v -5.000000 -0.000014 -2.000003
v -5.000000 -0.000014 1.999987
v -5.000000 4.999986 1.999987
v -5.000000 4.999987 -2.000003
v -6.000010 4.999987 -2.000003
v -6.000010 5.999998 -3.000013
v -7.000004 6.999991 -6.000010
v -8.000014 8.000001 -6.000009
v -7.000004 6.999990 -4.000006
v -7.000004 8.000000 0.364585
v -6.000010 3.999994 -6.000010
v -6.000010 3.999994 -4.000007
v -6.000010 6.999991 -6.000010
v -7.000004 3.999994 -4.000007
v -7.000004 5.999997 2.999998
v -6.000010 6.999990 -4.000006
v -6.000010 4.999986 1.999987
v 7.999996 -0.000013 -8.000014
v -7.000004 -0.000014 2.999997
v -7.000004 3.999992 3.999991
v -6.000010 -0.000014 1.999987
v -6.000010 -0.000014 2.999997
v -6.000010 5.999997 2.999998
v -7.000004 -0.000015 7.999996
v -8.000014 7.999999 5.999995
v -7.000004 6.999990 3.999992
v -6.000010 3.999992 3.999991
v -6.000010 6.999990 3.999992
v -7.000004 3.999992 5.999994
v -7.000004 6.999989 5.999995
v -7.000004 6.402777 7.152779
v -7.000004 6.437499 7.999997
v -6.000010 3.999992 5.999994
v -6.000010 6.999989 5.999995
v -7.000004 11.999991 -8.000012
v -7.000004 8.000001 -6.000009
v -7.000004 9.999988 -6.000009
v -8.000014 9.999988 -6.000009
v -8.000014 9.999986 5.999995
v -7.000004 11.999990 -2.395832
v -4.000007 11.999991 -4.000005
v -7.000004 11.999990 7.999998
v -4.000007 11.999990 -2.000001
v 7.999996 11.999991 -8.000012
v 0.000000 11.999991 -6.000009
v 0.000000 11.999991 -4.000005
v 0.000000 14.999989 -6.000008
v 0.000000 13.486113 -4.999998
v -4.000007 15.999997 -4.000005
v -4.000007 13.999994 -2.000001
v -2.000003 13.999995 -4.000005
v -2.000003 13.999994 -2.000001
v -4.000007 13.999994 -1.000008
v -2.000003 15.999996 -1.000007
v -2.000003 13.999994 -1.000008
v -2.000003 15.999997 -4.000005
v -4.000007 15.999996 -1.000007
v -0.000000 13.999995 -4.000005
v 0.000000 13.999994 -2.000001
v -7.000004 9.999986 5.999995
v -7.000004 7.999999 5.999995
v 1.999987 11.999990 2.999999
v 7.999996 -0.000015 7.999996
v 7.999996 7.171549 -0.187716
v 2.999997 11.999991 -6.000009
v 2.999997 11.999990 -2.000001
v 5.000000 11.999990 2.999999
v 2.999997 14.999989 -6.000008
v 0.000000 14.999988 -2.000001
v 2.999997 14.999988 -2.000001
v 7.999996 11.999990 7.999998
v 2.324219 9.334634 7.999998
v 1.999987 11.999990 5.999996
v 5.000000 11.999990 5.999996
v 1.999987 13.999993 3.000000
v 2.999997 13.999991 3.999993
v 5.000000 13.999993 3.000000
v 3.999990 13.999991 3.999993
v 3.999990 14.999987 3.999993
v 2.999997 14.999986 3.999993
v 1.999987 13.999993 5.999996
v 2.999997 13.999991 5.000002
v 5.000000 13.999993 5.999996
v 3.999990 14.999987 5.000002
v 3.999990 13.999991 5.000002
v 2.999997 14.999986 5.000002
v 5.000000 13.999992 4.444447
vt 0.0000 0.8000
vt 0.0952 0.8000
vt 0.0952 0.9250
vt 0.9286 0.8500
vt 0.9524 0.9750
vt 0.9286 0.9750
vt 0.0000 0.9250
vt 0.9048 1.0000
vt 0.8810 0.8500
vt 0.9048 0.8500
vt 0.8810 1.0000
vt 0.4524 0.7000
vt 0.4762 0.7500
vt 0.4524 0.7500
vt 0.8571 0.8500
vt 0.9048 0.7750
vt 0.9048 0.8500
vt 0.3333 0.9750
vt 0.3095 0.9000
vt 0.3333 0.9000
vt 0.4286 0.6750
vt 0.3810 0.7000
vt 0.4762 0.5909
vt 0.4286 0.5250
vt 0.3571 0.9000
vt 0.3810 0.9000
vt 0.3571 0.9750
vt 0.5952 0.8000
vt 0.7143 0.7750
vt 0.6905 0.8000
vt 0.0000 0.4000
vt 0.3333 0.2750
vt 0.3571 0.4000
vt 0.3095 0.1500
vt 0.3095 0.2500
vt 0.3810 0.5000
vt 0.2857 0.5250
vt 0.9286 0.9750
vt 0.9048 0.9750
vt 0.9286 0.8500
vt 0.5714 0.9250
vt 0.5952 0.9250
vt 0.9286 0.8500
vt 0.9286 0.7000
vt 0.9524 0.7000
vt 0.9524 0.8500
vt 0.2857 0.4000
vt 0.4524 0.5000
vt 0.9048 0.5409
vt 0.9286 0.4000
vt 0.9286 0.7000
vt 0.5714 0.8750
vt 0.5476 0.8000
vt 0.5714 0.8000
vt 0.4390 0.4000
vt 0.4382 0.4212
vt 0.3810 0.4500
vt 0.4762 0.4500
vt 0.4524 0.4500
vt 0.3571 0.0000
vt 0.3333 0.1250
vt 0.0952 0.9750
vt 0.1429 0.9000
vt 0.1429 0.9750
vt 0.4048 0.9000
vt 0.4286 0.9000
vt 0.4048 0.9500
vt 0.8571 0.7000
vt 0.8571 0.4000
vt 0.9048 0.4000
vt 0.4286 0.3000
vt 0.3571 0.4000
vt 0.3571 0.2599
vt 0.9286 0.4000
vt 0.9524 0.4000
vt 0.9524 0.7000
vt 0.5714 0.4000
vt 0.5714 0.6599
vt 0.5238 0.7500
vt 0.5238 0.3500
vt 0.7143 0.4000
vt 0.2381 0.8500
vt 0.2619 0.9000
vt 0.2259 0.8750
vt 0.3095 0.9500
vt 0.2619 0.9000
vt 0.3095 0.9000
vt 0.5714 0.8750
vt 0.5238 0.9500
vt 0.5238 0.8750
vt 0.1905 0.9250
vt 0.1905 0.9750
vt 0.1429 0.9750
vt 0.1429 0.8500
vt 0.1429 0.8000
vt 0.1905 0.8000
vt 0.2143 0.9000
vt 0.2619 0.9000
vt 0.2619 0.9500
vt 0.1429 0.9000
vt 0.2143 0.9500
vt 0.4286 0.9000
vt 0.4286 0.8500
vt 0.4762 0.9000
vt 0.1905 0.9000
vt 0.5238 0.3000
vt 0.1905 0.8500
vt 0.1905 0.9000
vt 0.4286 0.2500
vt 0.3571 0.0000
vt 0.5238 0.4500
vt 0.3810 0.7500
vt 0.2857 0.8000
vt 0.2857 0.6750
vt 0.7143 0.0000
vt 1.0000 0.0000
vt 1.0000 0.3750
vt 0.0000 0.4000
vt 0.2857 0.4000
vt 0.1150 0.6047
vt 0.5952 0.3500
vt 0.3333 0.9000
vt 0.3333 0.8000
vt 0.4048 0.9000
vt 0.2619 0.8000
vt 0.3333 0.9000
vt 0.2619 0.9000
vt 0.0000 0.8000
vt 0.7143 0.0000
vt 0.6429 0.1250
vt 0.3333 0.8000
vt 0.7619 0.8500
vt 0.7143 0.9500
vt 0.7143 0.7750
vt 0.6429 0.0500
vt 0.5714 0.0500
vt 0.5714 0.1250
vt 0.7857 0.3750
vt 0.8095 0.3750
vt 0.7857 0.4000
vt 0.4762 0.8000
vt 0.5000 0.8250
vt 0.5000 0.8500
vt 0.4762 0.9139
vt 0.5238 0.9500
vt 0.4762 0.9500
vt 0.4762 0.8750
vt 0.5132 0.8000
vt 0.5476 0.8000
vt 0.5238 0.8250
vt 0.8810 0.8500
vt 0.8333 0.9250
vt 0.8333 0.8500
vt 0.7857 0.8500
vt 0.8333 0.8500
vt 0.8333 0.9250
vt 0.9048 0.7750
vt 0.8571 0.7000
vt 0.9048 0.7000
vt 0.7143 0.3750
vt 0.9103 0.2744
vt 0.9048 0.7000
vt 0.7937 0.5419
vt 0.7247 0.7750
vt 0.5714 0.7750
vt 0.5952 0.2500
vt 0.7143 0.9250
vt 0.6905 0.9250
vt 0.3571 0.2750
vt 0.4524 0.9000
vt 0.4524 0.9500
vt 0.4286 0.9500
vt 0.4286 0.9000
vt 0.9524 0.8500
vt 0.3333 0.2500
vt 0.9048 0.7000
vt 0.8571 0.7750
vt 0.0238 0.9250
vt 0.0238 0.9750
vt 0.0000 0.9750
vt 0.0000 0.9250
vt 0.3095 0.9750
vt 0.2143 0.9000
vt 0.2143 1.0000
vt 0.1905 1.0000
vt 0.1905 0.9000
vt 0.3571 0.9750
vt 0.3333 0.9750
vt 0.3333 0.9000
vt 0.3571 0.9000
vt 0.3810 0.9750
vt 0.9048 0.8500
vt 0.5714 0.7750
vt 0.3333 0.1500
vt 0.5476 0.8750
vt 0.9048 0.4000
vt 0.0714 0.9750
vt 0.0714 0.9250
vt 0.0952 0.9250
vt 0.0952 0.9750
vt 0.3571 0.1250
vt 0.0952 0.9000
vt 0.0476 0.9250
vt 0.0476 0.9750
vt 0.0238 0.9750
vt 0.0238 0.9250
vt 0.0714 0.9750
vt 0.0476 0.9750
vt 0.0476 0.9250
vt 0.0714 0.9250
vt 0.5714 0.8000
vt 0.4286 0.9500
vt 0.3810 0.9000
vt 0.4048 0.9000
vt 0.4048 0.9500
vt 0.3810 0.9500
vt 0.5714 0.9500
vt 0.0952 0.9000
vt 0.0952 0.8500
vt 0.2619 0.9500
vt 0.4048 0.8000
vt 0.4762 0.8000
vt 0.4048 0.8500
vt 0.2381 0.8000
vt 0.2619 0.8000
vt 0.1905 0.9000
vt 0.7619 0.9000
vt 0.7619 0.9500
vt 0.9286 0.7000
vt 0.5476 0.8750
vt 0.5238 0.8500
vt 0.8571 0.7750
vt 0.2857 0.8000
vt 0.0000 0.0000
vt 0.5714 0.4000
vt 0.8571 0.4000
vt 0.7857 0.7750
vt 0.8571 0.7750
vt 0.8571 0.8500
vt 0.4048 0.8000
vt 0.7857 0.7750
vt 0.7857 0.8500
vt 0.4762 0.8750
vt 0.8095 0.4000
vt 0.8571 0.7750
vt 0.8333 0.3750
vt 0.8333 0.4000
vt 0.8095 0.3750
vt 0.8095 0.4000
vt 0.5238 0.8750
vt 0.7857 0.9250
vt 0.7619 0.4000
vt 0.7619 0.3750
vt 0.7857 0.3750
vt 0.7857 0.4000
vt 0.7381 0.4000
vt 0.7381 0.3750
vt 0.7381 0.4000
vt 0.7143 0.4000
vt 0.7143 0.3750
vt 0.7381 0.3750
vt 0.8810 0.9250
vt 0.7857 0.8500
vt 0.9286 0.7000
vt 0.9286 0.8500
vt 0.9048 0.8500
vt 0.9048 0.7000
vn -1.0000 0.0000 0.0000
vn 0.0000 -0.0000 1.0000
vn 0.0000 0.0000 -1.0000
vn 0.0000 -1.0000 -0.0000
vn -0.0000 1.0000 0.0000
vn 1.0000 0.0000 0.0000
usemtl palette.004
s off
f 10/1/1 11/2/1 8/3/1
f 11/4/2 7/5/2 8/6/2
f 9/7/1 10/1/1 8/3/1
f 13/8/2 2/9/2 5/10/2
f 13/8/2 6/11/2 2/9/2
f 16/12/1 43/13/1 14/14/1
f 19/15/1 20/16/1 18/17/1
f 20/18/2 3/19/2 18/20/2
f 6/21/1 16/12/1 21/22/1
f 6/21/1 17/23/1 16/12/1
f 22/24/1 17/23/1 6/21/1
f 16/25/3 23/26/3 21/27/3
f 24/28/1 13/29/1 12/30/1
f 25/31/4 5/32/4 1/33/4
f 25/31/4 9/34/4 8/35/4
f 27/36/1 22/24/1 26/37/1
f 24/38/3 10/39/3 28/40/3
f 29/41/1 24/28/1 28/42/1
f 30/43/3 29/44/3 26/45/3
f 22/46/3 30/43/3 26/45/3
f 31/47/1 27/36/1 26/37/1
f 27/36/1 33/48/1 22/24/1
f 17/49/4 32/50/4 15/51/4
f 33/48/1 17/23/1 22/24/1
f 35/52/2 27/53/2 34/54/2
f 39/55/1 38/56/1 36/57/1
f 38/56/1 68/58/1 37/59/1
f 25/31/4 31/60/4 9/34/4
f 9/34/4 31/60/4 29/61/4
f 37/59/1 17/23/1 33/48/1
f 40/62/1 35/63/1 34/64/1
f 45/65/3 44/66/3 15/67/3
f 46/68/1 45/69/1 15/70/1
f 48/71/5 42/72/5 47/73/5
f 44/74/5 45/75/5 46/76/5
f 49/77/1 47/78/1 44/79/1
f 52/80/5 51/81/5 42/72/5
f 65/82/1 54/83/1 55/84/1
f 61/85/2 60/86/2 62/87/2
f 61/88/5 56/89/5 64/90/5
f 59/91/6 58/92/6 63/93/6
f 58/94/3 65/95/3 53/96/3
f 66/97/5 65/98/5 58/99/5
f 61/100/6 59/91/6 63/93/6
f 66/97/5 58/99/5 59/101/5
f 50/102/1 57/103/1 48/104/1
f 58/94/3 53/96/3 48/105/3
f 53/106/5 42/72/5 48/71/5
f 53/107/1 55/84/1 52/108/1
f 50/109/5 47/73/5 49/110/5
f 67/111/1 49/77/1 44/79/1
f 3/112/1 1/113/1 2/114/1 21/22/1
f 51/115/3 25/116/3 1/117/3
f 78/118/6 70/119/6 71/120/6
f 72/121/5 51/81/5 52/80/5
f 77/122/5 75/123/5 76/124/5
f 77/125/6 72/126/6 75/127/6
f 78/118/6 71/120/6 51/128/6
f 78/129/5 72/121/5 74/130/5
f 77/125/6 73/131/6 72/126/6
f 66/132/2 50/133/2 73/134/2
f 81/135/5 80/136/5 78/129/5
f 80/136/5 69/137/5 49/110/5
f 87/138/3 86/139/3 83/140/3
f 90/141/5 92/142/5 89/143/5
f 78/129/5 74/130/5 81/135/5
f 94/144/6 74/145/6 84/146/6
f 90/147/6 74/145/6 94/144/6
f 94/148/5 84/149/5 85/150/5
f 90/141/5 94/148/5 92/142/5
f 82/151/3 74/152/3 69/153/3
f 88/154/2 80/155/2 81/156/2
f 80/157/1 82/158/1 69/159/1
f 94/148/5 85/150/5 92/142/5
f 42/160/3 4/161/3 1/117/3
f 32/162/1 46/68/1 15/70/1
f 39/55/1 67/111/1 38/56/1
f 79/163/2 39/164/2 31/165/2
f 74/130/5 73/166/5 69/137/5
f 13/29/1 5/167/1 7/168/1 12/30/1
f 1/33/4 5/32/4 2/169/4
f 2/114/1 6/21/1 21/22/1
f 3/170/5 21/171/5 19/172/5 18/173/5
f 11/4/2 12/174/2 7/5/2
f 5/32/4 8/35/4 7/175/4
f 3/112/1 14/14/1 1/113/1
f 16/12/1 17/23/1 43/13/1
f 43/176/4 17/49/4 15/51/4
f 19/15/1 23/177/1 20/16/1
f 16/178/4 14/179/4 20/180/4 23/181/4
f 20/18/2 14/182/2 3/19/2
f 24/183/4 12/184/4 11/185/4 10/186/4
f 40/187/3 36/188/3 37/189/3 41/190/3
f 21/27/3 23/26/3 19/191/3
f 25/31/4 8/35/4 5/32/4
f 28/40/3 10/39/3 9/192/3
f 29/41/1 30/193/1 24/28/1
f 28/194/4 9/34/4 29/61/4
f 31/47/1 36/57/1 27/36/1
f 35/52/2 33/195/2 27/53/2
f 36/57/1 38/56/1 37/59/1
f 31/47/1 39/55/1 36/57/1
f 37/59/1 68/58/1 17/23/1
f 17/49/4 68/196/4 32/50/4
f 27/197/5 36/198/5 40/199/5 34/200/5
f 29/61/4 31/60/4 26/201/4
f 40/62/1 41/202/1 35/63/1
f 37/203/4 33/204/4 35/205/4 41/206/4
f 60/207/4 57/208/4 59/209/4 62/210/4
f 43/13/1 44/79/1 42/211/1
f 15/67/3 44/66/3 43/212/3
f 44/79/1 47/78/1 42/211/1
f 50/109/5 48/71/5 47/73/5
f 32/213/2 68/214/2 67/215/2 46/216/2
f 61/88/5 63/217/5 56/89/5
f 56/218/3 63/219/3 58/94/3
f 61/85/2 64/220/2 60/86/2
f 57/103/1 64/221/1 56/222/1
f 60/223/1 64/221/1 57/103/1
f 66/224/1 76/225/1 65/82/1
f 61/100/6 62/226/6 59/91/6
f 65/82/1 76/225/1 54/83/1
f 52/108/1 55/84/1 54/83/1
f 48/104/1 57/103/1 56/222/1
f 56/218/3 58/94/3 48/105/3
f 59/227/2 57/228/2 50/133/2
f 66/132/2 59/227/2 50/133/2
f 53/106/5 52/80/5 42/72/5
f 53/107/1 65/82/1 55/84/1
f 67/229/5 44/74/5 46/76/5
f 82/230/5 83/231/5 85/150/5 84/149/5
f 39/55/1 49/77/1 67/111/1
f 79/163/2 49/232/2 39/164/2
f 69/137/5 50/109/5 49/110/5
f 71/120/6 70/119/6 25/233/6
f 71/120/6 25/233/6 51/128/6
f 25/31/4 70/234/4 31/60/4
f 79/163/2 31/165/2 70/235/2
f 78/236/2 79/163/2 70/235/2
f 54/237/3 75/238/3 72/239/3
f 76/124/5 75/123/5 54/240/5
f 77/241/2 76/242/2 66/132/2
f 78/129/5 51/81/5 72/121/5
f 74/130/5 72/121/5 73/166/5
f 77/241/2 66/132/2 73/134/2
f 69/137/5 73/166/5 50/109/5
f 78/236/2 49/232/2 79/163/2
f 49/110/5 78/129/5 80/136/5
f 83/231/5 82/230/5 88/243/5 89/143/5
f 83/140/3 86/139/3 85/244/3
f 80/157/1 88/245/1 82/158/1
f 92/246/2 91/247/2 89/248/2
f 88/243/5 90/141/5 89/143/5
f 91/247/2 93/249/2 89/248/2
f 90/147/6 81/250/6 74/145/6
f 90/251/2 88/154/2 81/156/2
f 87/252/5 93/253/5 91/254/5 86/255/5
f 87/252/1 83/256/1 89/257/1 93/253/1
f 85/258/6 86/259/6 91/260/6 92/261/6
f 42/211/1 1/113/1 14/14/1 43/13/1
f 82/151/3 84/262/3 74/152/3
f 4/161/3 51/115/3 1/117/3
f 54/237/3 72/239/3 52/263/3
f 22/264/4 6/265/4 13/266/4 30/267/4
f 42/160/3 51/115/3 4/161/3
f 38/56/1 67/111/1 68/58/1
f 24/28/1 30/193/1 13/29/1
