# Blender v2.78 (sub 0) OBJ File: ''
# www.blender.org
mtllib propApartment2.mtl
o propApartment2.001
v -8.000003 -0.000021 -8.000003
v -8.000003 0.999982 -8.000003
v -8.000003 -0.000022 -5.000019
v -8.000003 -0.000022 -4.000015
v -8.000003 0.999982 -5.000019
v -8.000003 -0.000022 -2.000008
v -8.000003 0.812500 -3.159722
v -8.000004 0.999981 -2.000007
v -8.000003 2.166667 -2.256944
v -8.000003 0.999981 -0.902778
v -8.000003 2.505208 -1.128472
v -8.000003 4.875000 -2.708333
v -8.000003 3.520833 0.000001
v -8.000004 3.999993 -1.000003
v -8.000003 3.999993 0.000001
v -8.000003 6.454861 -1.000003
v -8.000003 7.809028 -2.708332
v -8.000003 7.131945 -2.256943
v -8.000003 9.388888 -2.708332
v -8.000004 7.999980 -1.000003
v -8.000003 7.999980 0.000001
v -8.000003 9.388888 -1.354165
v -8.000003 9.388888 0.000002
v -8.000003 22.278299 -4.000011
v -8.000003 11.532986 -2.595484
v -8.000004 10.999992 -1.000002
v -8.000003 10.999992 0.000002
v -8.000003 12.097221 -1.000002
v -5.000019 -0.000021 -8.000003
v -5.000019 0.999982 -8.000003
v -4.000015 -0.000021 -8.000003
v -0.916884 2.025608 -8.000003
v -7.000027 -0.000022 -5.000019
v -7.000027 -0.000022 -4.000015
v -7.000027 0.999982 -7.000027
v -7.000027 0.999982 -5.000019
v -7.000027 1.999986 -7.000026
v -7.000027 1.999986 -5.000019
v -5.000019 0.999982 -7.000027
v -5.000019 1.999986 -7.000026
v -5.000019 1.999986 -5.000019
v -5.000019 -0.000022 -7.000027
v -4.000015 -0.000022 -7.000027
v -7.000027 -0.000022 -2.000008
v -7.000027 -0.000023 1.999981
v -7.000027 0.999981 -2.000007
v -7.000027 0.999981 1.999981
v -6.000023 4.999998 -6.000022
v -7.000027 25.999996 -4.000011
v -6.000023 4.999998 -5.000018
v -5.000019 4.999998 -5.000018
v -5.000019 4.999998 -6.000022
v -7.000027 3.999993 -1.000003
v -7.000027 7.999980 0.999977
v -7.000027 25.999996 -5.000015
v -5.000019 25.999998 -7.000022
v -7.000027 7.999980 -1.000003
v -7.000027 10.999992 -1.000002
v -7.000027 14.999981 0.999979
v -7.000027 14.999981 -1.000001
v -8.000003 -0.000023 1.999981
v -8.000003 -0.000023 3.999989
v -8.000003 0.999981 0.902778
v -8.000003 2.166666 1.805556
v -8.000004 0.999981 1.999981
v -8.000003 -0.000023 4.999992
v -8.000003 0.999980 4.999992
v -8.000003 3.520832 1.354168
v -8.000003 3.972221 2.708334
v -8.000004 3.999993 0.999977
v -8.000003 6.454861 0.999977
v -8.000003 6.454860 2.708334
v -8.000003 -0.000024 7.999975
v -8.000003 0.999980 7.999975
v -8.000004 7.999980 0.999977
v -8.000004 10.999992 0.999978
v -8.000003 9.572131 3.999990
v -8.000003 13.000000 0.999978
v -8.000003 13.225695 2.708335
v -4.000015 -0.000024 7.000000
v -7.000027 -0.000023 4.999992
v -7.000027 -0.000023 3.999989
v -5.000019 -0.000024 7.000000
v -7.000027 0.999980 4.999992
v -7.000027 1.999984 4.999993
v -5.000019 1.999984 4.999993
v -7.000027 0.999980 7.000000
v -7.000027 1.999984 7.000000
v -5.000019 1.999984 7.000000
v -5.000019 0.999980 7.000002
v -4.000015 0.812498 7.000000
v -4.000015 1.849927 7.000000
v -7.000027 3.999993 0.999977
v -7.000027 4.874999 4.999993
v -5.868055 4.423610 4.999993
v -6.000023 4.999996 4.999991
v -6.000023 4.999996 5.999997
v -5.000019 4.999996 4.999993
v -5.000019 4.999996 5.999997
v -5.000019 -0.000024 7.999975
v -5.000019 0.999980 7.999975
v -4.000015 -0.000024 7.999975
v -4.000015 11.250867 7.999977
v 7.999975 -0.000024 7.999975
v -7.000027 25.999996 4.999997
v -7.000027 25.999996 3.999993
v -6.000023 6.906249 4.999993
v -6.000023 25.999996 4.999997
v -5.000019 25.999994 7.000004
v -7.000027 10.999992 0.999978
v 2.475586 10.940537 7.999977
v -8.000003 13.902778 -2.708331
v -8.000003 13.902778 -1.000002
v -8.000003 15.595486 -2.482636
v -8.000004 14.999981 -1.000001
v -8.000003 14.999981 0.000002
v -8.000003 17.175346 0.000003
v -8.000003 16.836805 -1.467011
v -8.000003 18.868055 -2.256942
v -8.000003 20.222221 -2.708330
v -8.000004 18.999996 -1.000001
v -8.000003 18.999996 0.000003
v -8.000003 20.222221 -1.000000
v -8.000003 22.027779 -1.000000
v -8.000004 22.999983 -1.000000
v -8.000003 22.999983 0.000004
v -8.000003 25.999996 -4.000011
v -8.000003 24.736111 -1.354163
v -8.000003 24.736111 0.225698
v -8.000003 25.999994 -1.354163
v -8.000003 25.999996 3.999993
v -2.059462 17.852432 -8.000000
v -4.000015 25.999998 -7.000022
v -7.000027 18.999996 -1.000001
v -7.000027 22.999983 0.999980
v -4.000015 25.999998 -7.999999
v -1.043837 23.551218 -7.999999
v -6.000023 25.999998 -6.000019
v -6.000023 25.999996 -5.000015
v -5.000019 25.999998 -6.000019
v -7.000027 22.999983 -1.000000
v -6.000023 24.999990 -4.000011
v -6.000023 25.999994 -4.000011
v -4.000015 24.999992 -6.000019
v -5.000019 24.999990 -5.000015
v -5.000019 24.999990 -4.000011
v -4.000015 24.999990 -5.000015
v -4.000015 25.999996 -6.000019
v -5.000019 25.999994 -5.000015
v -5.000019 25.999994 -4.000011
v -4.000015 25.999994 -5.000015
v -7.000027 24.999990 -3.000007
v -6.000023 24.999990 -3.000007
v -7.000027 24.999990 2.999989
v -5.190972 24.999990 -1.354163
v -7.000027 25.999996 -3.000007
v -6.000023 25.999994 -3.000007
v -3.611111 24.999990 -0.451385
v -3.000011 24.999992 -7.000022
v -3.000011 24.999992 -6.000019
v -3.000011 25.999998 -7.000022
v -3.000011 25.999996 -6.000019
v -1.805556 24.999990 -2.948130
v -0.902778 24.999990 -2.256941
v -1.354167 24.999990 -0.902774
v 0.000000 24.999990 0.225698
v -8.000004 14.999981 0.999979
v -8.000003 16.611111 1.974829
v -8.000003 19.319445 2.708336
v -8.000004 18.999996 0.999979
v -8.000003 21.125000 0.999980
v -8.000004 22.999983 0.999980
v -7.000027 18.999996 0.999979
v -0.211589 16.202038 7.999978
v 2.708333 20.384438 7.999979
v -6.000023 25.999994 6.000000
v -5.000019 25.999994 6.000000
v -4.000015 25.999994 7.000004
v -6.000023 24.999990 2.999989
v -7.000027 25.999996 2.999989
v -6.000023 25.999994 2.999989
v -4.513889 24.999990 1.015629
v -5.000019 24.999990 3.999993
v -6.000023 24.999990 3.999993
v -6.000023 25.999994 3.999993
v -5.000019 24.999990 4.999997
v -4.000015 24.999990 4.999997
v -4.000015 24.999989 6.000000
v -5.000019 25.999994 3.999993
v -5.000019 25.999994 4.999997
v -4.000015 25.999994 4.999997
v -4.000015 25.999992 6.000000
v -3.159722 24.999990 0.902782
v -2.256945 24.999990 0.902782
v -3.159722 24.999990 2.708337
v -2.256945 24.999990 2.708337
v -1.354167 24.999990 0.902782
v -0.451389 24.999990 0.902782
v -1.354167 24.999990 2.708337
v 3.159722 24.999990 3.977869
v -3.159722 24.999990 4.062504
v -3.000011 24.999989 6.000000
v -3.000011 24.999989 7.000004
v -3.000011 25.999992 6.000000
v -3.000011 25.999994 7.000004
v -0.677084 24.999990 4.739588
v 0.451389 24.999989 7.000004
v -0.451389 25.999992 7.000004
v -4.000015 25.999994 7.999979
v 1.974826 4.875000 -8.000002
v 6.093750 5.975261 -8.000002
v 7.999975 -0.000021 -8.000003
v 3.385417 8.486112 -8.000002
v 4.739583 12.887153 -8.000001
v 7.999975 10.064650 -2.011853
v 4.626737 4.409503 7.999976
v 7.999975 15.863498 4.873592
v 1.354167 17.852432 -8.000000
v 4.838325 20.447920 -8.000000
v 0.451389 25.999996 -7.999999
v 1.354167 25.999996 -7.999999
v 2.256945 25.999996 -7.999999
v 3.159721 25.999996 -7.999999
v 7.999975 25.999998 -7.999999
v 0.902778 24.999990 -3.949649
v 0.451389 25.999996 -7.000022
v 1.354167 25.999996 -7.000022
v 2.999985 24.999990 -5.000015
v 2.999985 24.999990 -2.000004
v 2.256945 25.999996 -7.000022
v 7.000000 25.999998 -7.000022
v 2.999985 25.999996 -5.000015
v 1.579861 24.999990 -1.015621
v 0.451389 24.999990 -0.902774
v 3.723958 24.999990 0.451393
v 2.999985 25.999996 -2.000003
v 4.999992 24.999990 -5.000015
v 4.999992 24.999990 -3.611107
v 4.999992 25.999996 -5.000015
v 7.000000 24.999992 -7.000022
v 7.000000 25.999994 -4.965273
v 7.000000 25.999994 -4.062496
v 4.999992 24.999990 -2.000004
v 4.999992 25.999996 -2.000003
v 7.000000 25.999994 -3.159718
v 7.000000 25.999994 -2.256940
v 7.000000 25.999994 -1.354163
v 7.000000 25.999994 -0.451385
v 7.999975 17.231771 -2.539060
v 7.999975 21.661024 -4.852427
v 7.999975 22.309896 2.313372
v 7.999975 25.999994 -3.159718
v 7.999975 25.999994 -2.256940
v 7.999975 25.999994 -1.354163
v 7.999975 25.999994 -0.451385
v 1.354167 24.999990 0.902782
v 2.708333 24.999990 1.354171
v 0.451389 25.999992 7.000004
v 1.354167 25.999992 7.000004
v 2.708333 24.999990 4.739588
v 7.000000 24.999989 7.000004
v 7.000000 25.999994 0.451394
v 7.000000 25.999994 7.000004
v 0.451389 25.999992 7.999979
v 1.354167 25.999992 7.999979
v 7.999975 25.999994 7.999979
v 7.999975 25.999994 0.451394
v 7.999975 25.999994 1.354171
v 7.999975 25.999994 2.256949
vt 0.7731 0.4664
vt 0.7583 0.4414
vt 0.7869 0.4815
vt 0.7657 0.3912
vt 0.7398 0.4351
vt 0.7377 0.3619
vt 0.7583 0.3494
vt 0.8033 0.4630
vt 0.7869 0.4815
vt 0.8033 0.4444
vt 0.8033 0.4815
vt 0.5082 0.7037
vt 0.4590 0.7593
vt 0.5082 0.6667
vt 0.5082 0.5926
vt 0.9180 0.3889
vt 0.9344 0.3889
vt 0.9180 0.4444
vt 0.9016 0.0556
vt 0.8852 0.0556
vt 0.8852 0.0000
vt 0.7869 0.0000
vt 0.8033 0.0000
vt 0.9180 0.4444
vt 0.9180 0.0000
vt 0.9508 0.0000
vt 0.9508 0.4444
vt 0.8525 0.4815
vt 0.8361 0.0000
vt 0.8525 0.0370
vt 0.0000 0.7778
vt 0.0328 0.7778
vt 0.0328 0.8519
vt 0.6721 0.7407
vt 0.7049 0.7407
vt 0.7049 0.8148
vt 0.1803 0.8519
vt 0.1967 0.8315
vt 0.1967 0.8519
vt 0.4426 0.7963
vt 0.4590 0.8148
vt 0.4426 0.8148
vt 0.1803 0.7778
vt 0.1639 0.8232
vt 0.1639 0.7778
vt 0.1803 0.8519
vt 0.4262 0.8148
vt 0.4426 0.7963
vt 0.4426 0.8148
vt 0.9672 0.4126
vt 0.9508 0.4815
vt 0.9672 0.0000
vt 0.3934 0.7963
vt 0.4098 0.8148
vt 0.3934 0.8148
vt 0.2623 0.8519
vt 0.2459 0.7981
vt 0.2623 0.7778
vt 0.2459 0.7778
vt 0.6066 0.7407
vt 0.6230 0.7407
vt 0.6066 0.7778
vt 0.4754 0.7778
vt 0.4754 0.7593
vt 0.5082 0.7222
vt 0.6230 0.7963
vt 0.5738 0.7963
vt 0.6557 0.4815
vt 0.6917 0.4414
vt 0.6885 0.4630
vt 0.6885 0.4815
vt 0.7065 0.4630
vt 0.6991 0.4163
vt 0.6769 0.4079
vt 0.7049 0.4074
vt 0.6769 0.3619
vt 0.7049 0.2778
vt 0.6557 0.3042
vt 0.7049 0.2407
vt 0.5082 0.5556
vt 0.4754 0.5000
vt 0.5082 0.5370
vt 0.4590 0.5000
vt 0.8361 0.5185
vt 0.8033 0.5000
vt 0.8361 0.5000
vt 0.9016 0.5370
vt 0.8852 0.5347
vt 0.9038 0.5264
vt 0.8525 0.9259
vt 0.8689 0.8704
vt 0.8852 0.9259
vt 0.7869 0.4815
vt 0.8033 0.4815
vt 0.8033 0.9630
vt 0.9016 0.9259
vt 0.8852 0.9259
vt 0.9016 0.5723
vt 0.9672 0.3889
vt 0.9836 0.0000
vt 0.9836 0.3536
vt 0.5652 0.2026
vt 0.4590 0.2083
vt 0.4590 0.0000
vt 0.1967 0.7981
vt 0.1803 0.7778
vt 0.1967 0.7778
vt 0.4590 0.7778
vt 0.4426 0.7778
vt 0.2131 0.8064
vt 0.2295 0.8519
vt 0.2131 0.8519
vt 0.4262 0.7778
vt 0.4426 0.7778
vt 0.9672 0.9630
vt 0.9508 0.4815
vt 0.9672 0.4815
vt 0.4098 0.7778
vt 0.3934 0.7778
vt 0.1475 0.8148
vt 0.1639 0.8519
vt 0.1475 0.8519
vt 0.9836 0.3889
vt 0.9344 0.9630
vt 0.9508 0.9287
vt 0.9508 0.9479
vt 0.9508 0.9630
vt 0.6230 0.7407
vt 0.6393 0.7407
vt 0.6393 0.7778
vt 0.6230 0.7963
vt 0.6721 0.7963
vt 0.7583 0.1321
vt 0.7657 0.1070
vt 0.7869 0.0689
vt 0.7454 0.1697
vt 0.3108 0.0453
vt 0.3501 0.1509
vt 0.2941 0.1509
vt 0.2623 0.0000
vt 0.2623 0.4815
vt 0.6097 0.6657
vt 0.5574 0.6852
vt 0.5542 0.6362
vt 0.5738 0.7037
vt 0.5902 0.7407
vt 0.5902 0.7222
vt 0.5410 0.6852
vt 0.5410 0.6667
vt 0.4098 0.8148
vt 0.4262 0.7963
vt 0.4262 0.8148
vt 0.4754 0.7963
vt 0.4918 0.8148
vt 0.4754 0.8148
vt 0.2459 0.7778
vt 0.2295 0.8004
vt 0.2295 0.7778
vt 0.4590 0.8148
vt 0.4754 0.7963
vt 0.4754 0.8148
vt 0.9672 0.4815
vt 0.0164 0.6852
vt 0.0000 0.6547
vt 0.0000 0.5556
vt 0.0000 0.7037
vt 0.7049 0.7407
vt 0.7377 0.7407
vt 0.7377 0.8148
vt 0.9180 0.4815
vt 0.9344 0.4815
vt 0.9344 0.9630
vt 0.2459 0.8519
vt 0.7049 0.1296
vt 0.6769 0.1237
vt 0.7049 0.0903
vt 0.6889 0.1739
vt 0.6769 0.2366
vt 0.6557 0.0000
vt 0.7049 0.0556
vt 0.7176 0.0234
vt 0.7213 0.0556
vt 0.5211 0.3000
vt 0.5690 0.3775
vt 0.8525 0.4815
vt 0.8689 0.4815
vt 0.8525 0.9630
vt 0.8361 0.9630
vt 0.8525 0.5157
vt 0.5574 0.5185
vt 0.5738 0.5185
vt 0.5574 0.5370
vt 0.5902 0.5000
vt 0.5875 0.5359
vt 0.6467 0.4815
vt 0.5902 0.4815
vt 0.5738 0.7407
vt 0.5574 0.8047
vt 0.5574 0.7407
vt 0.5410 0.5370
vt 0.5410 0.5556
vt 0.4098 0.7778
vt 0.4262 0.7778
vt 0.4918 0.7778
vt 0.4754 0.7778
vt 0.1967 0.8125
vt 0.2131 0.8519
vt 0.1967 0.8519
vt 0.4590 0.7778
vt 0.4754 0.7778
vt 0.3602 0.3912
vt 0.4590 0.4815
vt 0.3128 0.4440
vt 0.4278 0.3708
vt 0.3834 0.3243
vt 0.4056 0.2428
vt 0.6004 0.0817
vt 0.0000 0.0000
vt 0.1641 0.1864
vt 0.0513 0.2938
vt 0.6885 0.6481
vt 0.6885 0.7037
vt 0.6541 0.6843
vt 0.2623 0.7778
vt 0.2787 0.8333
vt 0.2623 0.8333
vt 0.6652 0.6299
vt 0.6467 0.6278
vt 0.7213 0.7037
vt 0.7541 0.7407
vt 0.7213 0.6780
vt 0.3770 0.8148
vt 0.3607 0.8148
vt 0.3607 0.7778
vt 0.5574 0.7407
vt 0.5410 0.9259
vt 0.5410 0.7407
vt 0.7541 0.4815
vt 0.7213 0.6481
vt 0.2787 0.7778
vt 0.2951 0.8076
vt 0.2787 0.8333
vt 0.0932 0.4131
vt 0.1728 0.3191
vt 0.2107 0.4011
vt 0.1385 0.4815
vt 0.1533 0.4815
vt 0.1681 0.4815
vt 0.1829 0.4815
vt 0.2623 0.4815
vt 0.4072 0.1028
vt 0.2623 0.7778
vt 0.2459 0.7216
vt 0.2459 0.7049
vt 0.2459 0.7593
vt 0.2623 0.0000
vt 0.7004 0.6028
vt 0.6911 0.5374
vt 0.6837 0.5233
vt 0.5738 0.9259
vt 0.5574 0.9259
vt 0.1089 0.4815
vt 0.1237 0.4815
vt 0.0000 0.4815
vt 0.0941 0.4815
vt 0.6557 0.4815
vt 0.6557 0.0000
vt 0.2623 0.7778
vt 0.6245 0.6529
vt 0.6393 0.6069
vt 0.7213 0.4163
vt 0.0000 0.8519
vt 0.6721 0.8148
vt 0.7049 0.8148
vt 0.7377 0.7407
vt 0.7541 0.7407
vt 0.7377 0.8519
vt 0.5653 0.5923
vt 0.5875 0.5944
vt 0.5801 0.6195
vt 0.6615 0.5944
vt 0.7541 0.4630
vt 0.7361 0.4630
vt 0.7377 0.4074
vt 0.7213 0.4074
vt 0.7213 0.3076
vt 0.7435 0.3076
vt 0.7377 0.3333
vt 0.7213 0.3333
vt 0.7657 0.3369
vt 0.7657 0.3076
vt 0.7377 0.2778
vt 0.7213 0.2778
vt 0.7639 0.2679
vt 0.7377 0.2575
vt 0.8361 0.4444
vt 0.8361 0.4630
vt 0.1311 0.8148
vt 0.0984 0.8148
vt 0.0984 0.7778
vt 0.1311 0.7778
vt 0.8525 0.0185
vt 0.8852 0.0185
vt 0.8852 0.0370
vt 0.1475 0.8519
vt 0.1311 0.8519
vt 0.1311 0.7778
vt 0.1475 0.7778
vt 0.8525 0.0000
vt 0.6557 0.7963
vt 0.6557 0.8148
vt 0.6393 0.8148
vt 0.6393 0.7963
vt 0.3443 0.7778
vt 0.3443 0.8333
vt 0.3279 0.8333
vt 0.3279 0.7778
vt 0.5738 0.8148
vt 0.5902 0.8148
vt 0.5902 0.8333
vt 0.5738 0.8333
vt 0.5738 0.7778
vt 0.5246 0.6667
vt 0.5246 0.7037
vt 0.4426 0.8148
vt 0.4590 0.8148
vt 0.4590 0.8333
vt 0.4426 0.8333
vt 0.3115 0.7778
vt 0.3279 0.7778
vt 0.3279 0.8333
vt 0.3115 0.8333
vt 0.9508 0.0000
vt 0.1639 0.8519
vt 0.5082 0.8148
vt 0.5082 0.8333
vt 0.4918 0.8333
vt 0.4918 0.8148
vt 0.5246 0.7222
vt 0.5246 0.7778
vt 0.7049 0.3619
vt 0.7049 0.3333
vt 0.7869 0.9259
vt 0.7869 0.9444
vt 0.7541 0.9444
vt 0.7541 0.9259
vt 0.0984 0.8148
vt 0.0656 0.8148
vt 0.0656 0.7778
vt 0.0984 0.7778
vt 0.8525 0.4965
vt 0.8033 0.5185
vt 0.8361 0.4815
vt 0.8525 0.4815
vt 0.7869 0.9630
vt 0.8852 0.4815
vt 0.9180 0.4815
vt 0.9180 0.5370
vt 0.7869 0.8727
vt 0.5082 0.7963
vt 0.5082 0.8148
vt 0.4918 0.8148
vt 0.4918 0.7963
vt 0.8852 0.8704
vt 0.5246 0.5556
vt 0.5246 0.5926
vt 0.4754 0.8148
vt 0.4754 0.8333
vt 0.4590 0.8333
vt 0.4590 0.8148
vt 0.5246 0.8333
vt 0.5082 0.8333
vt 0.5082 0.8148
vt 0.5246 0.8148
vt 0.5246 0.5370
vt 0.6721 0.7778
vt 0.3443 0.8333
vt 0.3443 0.7778
vt 0.3607 0.7778
vt 0.3607 0.8333
vt 0.2295 0.7778
vt 0.2131 0.7778
vt 0.1639 0.7778
vt 0.9508 0.6587
vt 0.3115 0.8333
vt 0.2951 0.8333
vt 0.2951 0.7778
vt 0.3115 0.7778
vt 0.5902 0.8148
vt 0.6066 0.8148
vt 0.6066 0.8333
vt 0.5902 0.8333
vt 0.5246 0.4815
vt 0.4754 0.4815
vt 0.9344 0.7546
vt 0.2623 0.4815
vt 0.4590 0.4815
vt 0.7213 0.1634
vt 0.7377 0.2037
vt 0.7213 0.2037
vt 0.7620 0.1927
vt 0.7657 0.2240
vt 0.7377 0.2240
vt 0.7377 0.1296
vt 0.7213 0.1296
vt 0.7377 0.1070
vt 0.7377 0.0736
vt 0.7435 0.0000
vt 0.7435 0.0234
vt 0.7377 0.0556
vt 0.7869 0.0000
vt 0.9836 0.0000
vt 1.0000 0.0000
vt 1.0000 0.3889
vt 0.9836 0.3889
vt 0.8361 0.4815
vt 0.9016 0.4444
vt 0.9344 0.0000
vt 0.9836 0.3889
vt 0.9836 0.7778
vt 0.9672 0.7778
vt 0.9672 0.3889
vt 0.0164 0.7222
vt 0.0164 0.7037
vt 0.0328 0.7037
vt 0.0328 0.7222
vt 0.0492 0.7593
vt 0.0492 0.7407
vt 0.0656 0.7407
vt 0.0656 0.7593
vt 0.5574 0.7037
vt 0.0492 0.7037
vt 0.0492 0.7222
vt 0.3934 0.8148
vt 0.3934 0.8333
vt 0.3770 0.8333
vt 0.3770 0.8148
vt 0.3607 0.8148
vt 0.3770 0.8148
vt 0.3770 0.8333
vt 0.3607 0.8333
vt 0.0656 0.7222
vt 0.4098 0.8148
vt 0.4098 0.8333
vt 0.3934 0.8333
vt 0.3934 0.8148
vt 0.0328 0.7407
vt 0.4098 0.8148
vt 0.4262 0.8148
vt 0.4262 0.8333
vt 0.4098 0.8333
vt 0.5246 0.8148
vt 0.5082 0.8148
vt 0.5082 0.7963
vt 0.5246 0.7963
vt 0.5246 0.6667
vt 0.5246 0.5556
vt 0.5902 0.7963
vt 0.5902 0.8148
vt 0.5738 0.8148
vt 0.5738 0.7963
vt 0.7541 0.8519
vt 0.0820 0.7407
vt 0.0820 0.7593
vt 0.6171 0.6278
vt 0.5902 0.7963
vt 0.6066 0.7963
vt 0.6066 0.8148
vt 0.5902 0.8148
vt 0.5738 0.7222
vt 0.0328 0.6852
vt 0.6393 0.7963
vt 0.6393 0.8148
vt 0.6230 0.8148
vt 0.6230 0.7963
vt 0.7049 0.2037
vt 0.2459 0.8519
vt 0.2459 0.8315
vt 0.2295 0.8338
vt 0.2295 0.8519
vt 0.9180 0.9630
vt 0.0656 0.7778
vt 0.9836 0.3889
vt 1.0000 0.3889
vt 1.0000 0.7778
vt 0.9836 0.7778
vt 0.5246 0.7963
vt 0.5082 0.7963
vt 0.5082 0.7778
vt 0.5246 0.7778
vt 0.9672 0.0000
vt 0.0164 0.5556
vt 0.0164 0.5370
vt 0.0328 0.5370
vt 0.0328 0.5556
vt 0.0492 0.5185
vt 0.0492 0.5000
vt 0.0656 0.5000
vt 0.0656 0.5185
vt 0.0492 0.5370
vt 0.0492 0.5556
vt 0.1311 0.8148
vt 0.1311 0.8333
vt 0.1148 0.8333
vt 0.1148 0.8148
vt 0.0820 0.8333
vt 0.0656 0.8333
vt 0.0656 0.8148
vt 0.0820 0.8148
vt 0.0656 0.5370
vt 0.1148 0.8148
vt 0.1148 0.8333
vt 0.0984 0.8333
vt 0.0984 0.8148
vt 0.0328 0.5185
vt 0.0984 0.8333
vt 0.0820 0.8333
vt 0.0820 0.8148
vt 0.0984 0.8148
vt 0.5875 0.5610
vt 0.6023 0.5610
vt 0.6023 0.5944
vt 0.6171 0.5944
vt 0.6171 0.5610
vt 0.6319 0.5944
vt 0.4918 0.7963
vt 0.4918 0.7778
vt 0.5082 0.7778
vt 0.5082 0.7963
vt 0.6282 0.5233
vt 0.7541 0.4815
vt 0.5738 0.7879
vt 0.0820 0.5000
vt 0.0820 0.5185
vt 0.4426 0.8333
vt 0.4262 0.8333
vt 0.4262 0.8148
vt 0.4426 0.8148
vt 0.5738 0.5000
vt 0.0164 0.5741
vt 0.0328 0.5741
vt 0.6230 0.7963
vt 0.6230 0.8148
vt 0.6066 0.8148
vt 0.6066 0.7963
vt 0.9508 0.4815
vt 0.9344 0.4815
vt 0.4590 0.4815
vt 0.1475 0.7778
vt 0.1967 0.7778
vt 0.2131 0.7778
vt 0.9508 0.9630
vt 0.3501 0.0000
vt 0.3649 0.0000
vt 0.0656 0.4815
vt 0.1237 0.5000
vt 0.4590 0.7778
vt 0.3353 0.0000
vt 0.3797 0.0000
vt 0.3934 0.7778
vt 0.3934 0.8148
vt 0.3770 0.8148
vt 0.3770 0.7778
vt 0.4590 0.0000
vt 0.5574 0.8453
vt 0.5574 0.8620
vt 0.5574 0.8286
vt 0.2951 0.8333
vt 0.5246 0.7951
vt 0.5246 0.7784
vt 0.5246 0.7407
vt 0.2951 0.7778
vt 0.5410 1.0000
vt 0.5246 0.8286
vt 0.5246 0.8119
vt 0.5246 0.8620
vt 0.5246 0.8453
vt 0.3770 0.7778
vt 0.2787 0.7778
vt 0.0656 0.7778
vt 0.0656 0.8333
vt 0.0328 0.8333
vt 0.0328 0.7778
vt 0.2459 0.6881
vt 0.2459 0.6714
vt 0.2623 0.6714
vt 0.2623 0.6881
vt 0.2459 0.6547
vt 0.2459 0.6380
vt 0.2623 0.6380
vt 0.2623 0.6547
vt 0.1385 0.7778
vt 0.1385 0.7593
vt 0.1533 0.7593
vt 0.1533 0.7778
vt 0.1681 0.7778
vt 0.1681 0.7593
vt 0.1829 0.7778
vt 0.2459 0.6213
vt 0.2459 0.5000
vt 0.2623 0.6046
vt 0.2623 0.6213
vt 0.6837 0.5860
vt 0.5738 0.8047
vt 0.5738 0.8214
vt 0.5246 1.0000
vt 0.5246 0.8787
vt 0.5468 0.4815
vt 0.5320 0.4815
vt 0.1385 0.5000
vt 0.1385 0.4815
vt 0.1533 0.4815
vt 0.1533 0.5000
vt 0.2623 0.4815
vt 0.2623 0.5878
vt 0.5574 0.9259
vn -1.0000 0.0000 0.0000
vn 0.0000 -1.0000 -0.0000
vn 0.0000 0.0000 -1.0000
vn -0.0000 1.0000 0.0000
vn 0.0000 -0.0000 1.0000
vn 1.0000 -0.0000 0.0000
usemtl palette.003
s off
f 7/1/1 9/2/1 4/3/1
f 9/2/1 12/4/1 4/3/1
f 11/5/1 12/4/1 9/2/1
f 16/6/1 18/7/1 12/4/1
f 36/8/1 34/9/1 38/10/1
f 33/11/1 34/9/1 36/8/1
f 34/12/2 43/13/2 44/14/2
f 43/13/2 45/15/2 44/14/2
f 51/16/1 52/17/1 41/18/1
f 50/19/3 51/20/3 41/21/3
f 49/22/1 55/23/1 38/10/1
f 55/24/3 50/19/3 38/25/3
f 52/17/1 56/26/1 40/27/1
f 56/28/3 43/29/3 40/30/3
f 54/31/1 57/32/1 53/33/1
f 59/34/1 60/35/1 58/36/1
f 46/37/2 10/38/2 8/39/2
f 15/40/4 53/41/4 14/42/4
f 53/43/5 16/44/5 14/45/5
f 57/46/5 16/44/5 53/43/5
f 57/47/2 21/48/2 20/49/2
f 24/50/3 49/51/3 4/52/3
f 27/53/4 58/54/4 26/55/4
f 60/56/5 28/57/5 58/58/5
f 58/58/5 28/57/5 26/59/5
f 39/60/4 30/61/4 35/62/4
f 29/63/2 42/64/2 33/65/2
f 35/62/4 2/66/4 5/67/4
f 62/68/1 64/69/1 65/70/1
f 61/71/1 62/68/1 65/70/1
f 65/70/1 64/69/1 63/72/1
f 68/73/1 69/74/1 70/75/1
f 62/68/1 69/74/1 64/69/1
f 62/68/1 72/76/1 69/74/1
f 76/77/1 77/78/1 78/79/1
f 62/68/1 77/78/1 72/76/1
f 82/80/2 83/81/2 81/82/2
f 80/83/2 83/81/2 82/80/2
f 89/84/5 87/85/5 90/86/5
f 96/87/5 94/88/5 95/89/5
f 89/90/1 99/91/1 86/92/1
f 80/83/2 82/80/2 45/15/2
f 105/93/1 106/94/1 82/95/1
f 108/96/5 105/97/5 107/98/5
f 97/99/1 108/100/1 107/101/1
f 111/102/5 103/103/5 102/104/5
f 63/105/2 47/106/2 65/107/2
f 93/108/4 15/40/4 70/109/4
f 71/110/3 93/111/3 70/112/3
f 21/48/2 54/113/2 75/114/2
f 106/115/5 62/116/5 82/117/5
f 110/118/4 27/53/4 76/119/4
f 78/120/3 110/121/3 76/122/3
f 97/99/1 107/101/1 96/123/1
f 102/124/1 92/125/1 91/126/1
f 102/124/1 91/126/1 80/127/1
f 101/128/4 90/129/4 87/130/4
f 74/131/4 87/130/4 67/132/4
f 119/133/1 120/134/1 24/135/1
f 118/136/1 119/133/1 24/135/1
f 137/137/3 218/138/3 132/139/3
f 136/140/3 132/139/3 31/141/3
f 163/142/4 146/143/4 155/144/4
f 163/142/4 147/145/4 146/143/4
f 163/142/4 159/146/4 160/147/4
f 146/143/4 142/148/4 153/149/4
f 60/150/2 116/151/2 115/152/2
f 122/153/4 134/154/4 121/155/4
f 134/156/5 123/157/5 121/158/5
f 141/159/2 126/160/2 125/161/2
f 127/162/3 49/51/3 24/50/3
f 156/163/4 130/164/4 131/165/4
f 156/163/4 127/166/4 130/164/4
f 135/167/1 141/168/1 134/169/1
f 133/170/1 136/171/1 31/172/1
f 141/173/5 123/157/5 134/156/5
f 170/174/1 169/175/1 171/176/1
f 168/177/1 169/175/1 170/174/1
f 77/78/1 168/177/1 79/178/1
f 77/78/1 169/175/1 168/177/1
f 131/179/1 172/180/1 171/176/1
f 172/180/1 129/181/1 126/182/1
f 131/179/1 129/181/1 172/180/1
f 77/78/1 131/179/1 169/175/1
f 174/183/5 103/103/5 111/102/5
f 175/184/5 103/103/5 174/183/5
f 109/185/1 177/186/1 99/91/1
f 178/187/5 109/188/5 92/189/5
f 186/190/4 187/191/4 183/192/4
f 202/193/4 201/194/4 187/191/4
f 207/195/4 202/193/4 203/196/4
f 205/197/3 207/198/3 203/199/3
f 184/200/4 183/192/4 179/201/4
f 116/151/2 59/202/2 167/203/2
f 173/204/4 122/153/4 170/205/4
f 171/206/3 173/207/3 170/208/3
f 126/160/2 135/209/2 172/210/2
f 210/211/3 212/212/3 32/213/3
f 210/211/3 211/214/3 212/212/3
f 213/215/3 211/214/3 210/211/3
f 214/216/3 211/214/3 213/215/3
f 214/216/3 212/212/3 211/214/3
f 111/102/5 102/104/5 216/217/5
f 104/218/6 215/219/6 217/220/6
f 218/138/3 214/216/3 31/141/3
f 229/221/4 228/222/4 225/223/4
f 228/222/4 159/146/4 225/223/4
f 229/224/1 232/225/1 228/226/1
f 229/221/4 225/223/4 233/227/4
f 233/227/4 225/223/4 234/228/4
f 237/229/4 240/230/4 228/222/4
f 238/231/4 240/230/4 237/229/4
f 239/232/3 237/233/3 228/234/3
f 231/235/5 159/236/5 240/237/5
f 261/238/4 240/230/4 243/239/4
f 244/240/6 238/241/6 239/242/6
f 251/243/6 249/244/6 250/245/6
f 249/244/6 215/219/6 250/245/6
f 255/246/6 251/243/6 254/247/6
f 254/247/6 251/243/6 253/248/6
f 252/249/6 250/245/6 224/250/6
f 219/251/3 212/212/3 214/216/3
f 224/252/4 241/253/4 242/254/4
f 224/252/4 231/255/4 241/253/4
f 250/245/6 212/256/6 224/250/6
f 261/238/4 235/257/4 200/258/4
f 261/238/4 260/259/4 207/195/4
f 263/260/3 261/261/3 207/198/3
f 268/262/6 251/243/6 267/263/6
f 266/264/6 251/243/6 269/265/6
f 269/265/6 251/243/6 268/262/6
f 266/266/5 175/184/5 104/267/5
f 266/264/6 217/220/6 251/243/6
f 212/268/2 80/83/2 43/13/2
f 225/223/4 159/146/4 163/142/4
f 225/223/4 163/142/4 164/269/4
f 234/228/4 164/269/4 166/270/4
f 64/69/1 13/271/1 11/5/1
f 93/272/1 54/31/1 53/33/1
f 110/273/1 59/34/1 58/36/1
f 47/106/2 63/105/2 10/38/2
f 173/274/1 135/167/1 134/169/1
f 180/275/6 154/276/6 156/277/6
f 182/278/4 155/144/4 179/201/4
f 193/279/4 158/280/4 182/278/4
f 235/257/4 233/227/4 256/281/4
f 261/238/4 243/239/4 235/257/4
f 217/220/6 215/219/6 249/244/6
f 267/263/6 251/243/6 255/246/6
f 7/1/1 8/282/1 9/2/1
f 11/5/1 9/2/1 8/282/1 10/283/1
f 14/284/1 11/5/1 13/271/1 15/285/1
f 23/286/1 22/287/1 20/288/1 21/289/1
f 12/4/1 14/284/1 16/6/1
f 11/5/1 14/284/1 12/4/1
f 12/4/1 18/7/1 17/290/1
f 22/287/1 19/291/1 17/290/1 20/288/1
f 20/288/1 17/290/1 18/7/1 16/6/1
f 26/292/1 22/287/1 23/286/1 27/293/1
f 25/294/1 19/291/1 22/287/1 26/292/1
f 24/135/1 4/3/1 19/291/1 25/294/1
f 26/292/1 28/295/1 25/294/1
f 12/4/1 17/290/1 4/3/1
f 17/290/1 19/291/1 4/3/1
f 37/296/1 35/297/1 36/8/1 38/10/1
f 31/141/3 210/211/3 32/213/3
f 37/298/4 38/299/4 41/300/4 40/301/4
f 39/302/3 35/303/3 37/304/3 40/30/3
f 46/305/1 44/306/1 45/307/1 47/308/1
f 39/302/3 40/30/3 43/29/3
f 42/64/2 43/13/2 33/65/2
f 42/309/3 39/302/3 43/29/3
f 50/310/2 48/311/2 52/312/2 51/313/2
f 41/18/1 52/17/1 40/27/1
f 34/9/1 49/22/1 38/10/1
f 38/25/3 50/19/3 41/21/3
f 29/314/3 1/315/3 2/316/3 30/317/3
f 33/65/2 43/13/2 34/12/2
f 3/318/5 33/319/5 36/320/5 5/321/5
f 36/322/4 35/62/4 5/67/4
f 44/14/2 6/323/2 4/324/2 34/12/2
f 6/325/5 44/326/5 46/327/5 8/328/5
f 46/37/2 47/106/2 10/38/2
f 2/329/1 1/330/1 3/331/1 5/332/1
f 4/52/3 49/51/3 34/333/3
f 57/46/5 20/334/5 16/44/5
f 29/335/6 30/336/6 39/337/6 42/338/6
f 3/339/2 1/340/2 29/63/2 33/65/2
f 70/75/1 15/285/1 13/271/1 68/73/1
f 35/62/4 30/61/4 2/66/4
f 64/69/1 68/73/1 13/271/1
f 71/341/1 70/75/1 69/74/1 72/76/1
f 64/69/1 69/74/1 68/73/1
f 23/286/1 21/289/1 75/342/1 77/78/1
f 75/342/1 71/341/1 72/76/1 77/78/1
f 76/77/1 27/293/1 23/286/1 77/78/1
f 85/343/1 84/344/1 87/345/1 88/346/1
f 77/78/1 79/178/1 78/79/1
f 43/13/2 80/83/2 45/15/2
f 84/344/1 85/343/1 82/95/1
f 85/347/4 88/348/4 89/349/4 86/350/4
f 90/86/5 91/351/5 92/189/5 89/84/5
f 89/84/5 88/352/5 87/85/5
f 83/353/5 80/354/5 91/351/5 90/86/5
f 81/355/1 84/344/1 82/95/1
f 85/356/5 86/357/5 95/89/5 94/88/5
f 98/358/5 96/87/5 95/89/5
f 85/343/1 94/359/1 82/95/1
f 97/360/2 96/361/2 98/362/2 99/363/2
f 86/92/1 99/91/1 98/364/1
f 62/365/2 61/366/2 45/15/2 82/80/2
f 98/358/5 95/89/5 86/357/5
f 89/90/1 109/185/1 99/91/1
f 92/189/5 109/188/5 89/84/5
f 47/367/3 45/368/3 61/369/3 65/370/3
f 81/371/3 66/372/3 67/373/3 84/374/3
f 81/82/2 83/81/2 66/375/2
f 67/132/4 87/130/4 84/376/4
f 73/377/5 100/378/5 101/379/5 74/380/5
f 94/88/5 96/87/5 107/98/5 105/97/5
f 71/110/3 54/381/3 93/111/3
f 71/110/3 75/382/3 54/381/3
f 78/120/3 59/383/3 110/121/3
f 106/115/5 77/384/5 62/116/5
f 94/359/1 105/93/1 82/95/1
f 67/385/1 66/386/1 73/387/1 74/388/1
f 100/389/6 83/390/6 90/391/6 101/392/6
f 73/393/2 66/375/2 83/81/2 100/394/2
f 102/124/1 103/395/1 92/125/1
f 80/83/2 104/396/2 102/397/2
f 117/398/1 118/136/1 115/399/1 116/400/1
f 74/131/4 101/128/4 87/130/4
f 115/399/1 114/401/1 112/402/1 113/403/1
f 114/401/1 115/399/1 118/136/1
f 121/404/1 118/136/1 117/398/1 122/405/1
f 120/134/1 119/133/1 121/404/1 123/406/1
f 24/135/1 120/134/1 123/406/1 124/407/1
f 118/136/1 121/404/1 119/133/1
f 114/401/1 118/136/1 24/135/1
f 112/402/1 114/401/1 24/135/1
f 130/408/1 128/409/1 129/181/1 131/179/1
f 24/135/1 124/407/1 125/410/1
f 129/181/1 128/409/1 125/410/1 126/182/1
f 128/409/1 130/408/1 127/411/1
f 128/409/1 127/411/1 24/135/1 125/410/1
f 52/412/3 48/413/3 138/414/3 140/415/3
f 56/28/3 133/416/3 43/29/3
f 136/140/3 137/137/3 132/139/3
f 55/24/3 139/417/3 50/19/3
f 52/17/1 140/418/1 56/26/1
f 138/419/1 48/420/1 50/421/1 139/422/1
f 55/423/4 49/424/4 143/425/4 139/426/4
f 56/427/4 140/428/4 148/429/4 133/430/4
f 146/143/4 147/145/4 145/431/4
f 139/426/4 143/425/4 150/432/4 149/433/4
f 145/434/6 149/435/6 150/436/6 146/437/6
f 145/438/5 147/439/5 151/440/5 149/441/5
f 140/428/4 149/433/4 151/442/4 148/429/4
f 144/443/6 148/444/6 151/445/6 147/446/6
f 138/447/4 139/426/4 149/433/4 140/428/4
f 142/448/5 146/449/5 150/450/5 143/451/5
f 152/452/5 153/453/5 157/454/5 156/455/5
f 153/149/4 155/144/4 146/143/4
f 152/456/4 154/457/4 155/144/4 153/149/4
f 159/458/6 161/459/6 162/460/6 160/461/6
f 156/277/6 154/276/6 152/462/6
f 133/430/4 148/429/4 162/463/4 161/464/4
f 147/145/4 163/142/4 160/147/4
f 166/270/4 164/269/4 165/465/4
f 165/465/4 164/269/4 163/142/4
f 144/466/5 160/467/5 162/468/5 148/469/5
f 147/145/4 160/147/4 144/470/4
f 49/424/4 156/163/4 157/471/4 143/425/4
f 158/280/4 163/142/4 155/144/4
f 142/472/6 143/473/6 157/474/6 153/475/6
f 117/398/1 116/400/1 167/476/1 168/177/1
f 60/56/5 115/477/5 113/478/5
f 141/173/5 124/479/5 123/157/5
f 141/173/5 125/480/5 124/479/5
f 127/166/4 156/163/4 49/424/4
f 43/481/1 133/170/1 31/172/1
f 133/430/4 161/464/4 136/482/4
f 167/476/1 78/79/1 79/178/1 168/177/1
f 170/174/1 122/405/1 117/398/1 168/177/1
f 97/483/5 99/484/5 177/485/5 176/486/5
f 169/175/1 131/179/1 171/176/1
f 179/487/3 154/488/3 180/489/3 181/490/3
f 97/99/1 176/491/1 108/100/1
f 183/192/4 182/278/4 179/201/4
f 106/492/4 105/493/4 108/494/4 185/495/4
f 177/496/4 109/497/4 178/498/4 192/499/4
f 185/495/4 108/494/4 190/500/4 189/501/4
f 183/502/6 189/503/6 190/504/6 186/505/6
f 187/506/3 186/507/3 190/508/3 191/509/3
f 190/500/4 177/496/4 192/499/4 191/510/4
f 187/511/6 191/512/6 192/513/6 188/514/6
f 108/494/4 176/515/4 177/496/4 190/500/4
f 183/516/3 184/517/3 185/518/3 189/519/3
f 193/279/4 195/520/4 196/521/4 194/522/4
f 197/523/4 199/524/4 200/258/4 198/525/4
f 194/522/4 196/521/4 199/524/4 197/523/4
f 202/526/6 204/527/6 205/528/6 203/529/6
f 207/195/4 206/530/4 202/193/4
f 7/1/1 4/3/1 6/531/1 8/282/1
f 182/278/4 183/192/4 195/520/4 193/279/4
f 205/197/3 208/532/3 207/198/3
f 192/499/4 178/498/4 205/533/4 204/534/4
f 202/535/3 188/536/3 192/537/3 204/538/3
f 188/539/4 202/193/4 187/191/4
f 180/540/4 106/492/4 185/495/4 181/541/4
f 179/542/6 181/543/6 185/544/6 184/545/6
f 195/520/4 201/194/4 202/193/4 196/521/4
f 196/521/4 202/193/4 206/530/4 199/524/4
f 206/530/4 200/258/4 199/524/4
f 183/192/4 187/191/4 201/194/4 195/520/4
f 178/546/1 92/125/1 103/395/1 209/547/1
f 175/184/5 209/548/5 103/103/5
f 78/120/3 167/549/3 59/383/3
f 171/206/3 172/550/3 135/551/3
f 106/115/5 131/552/5 77/384/5
f 106/492/4 180/540/4 131/165/4
f 219/251/3 137/137/3 221/553/3 222/554/3
f 209/555/4 208/556/4 205/533/4
f 209/555/4 205/533/4 178/498/4
f 171/206/3 135/551/3 173/207/3
f 32/213/3 212/212/3 31/141/3
f 31/141/3 213/215/3 210/211/3
f 31/141/3 214/216/3 213/215/3
f 31/557/2 212/268/2 43/13/2
f 212/268/2 104/396/2 80/83/2
f 104/267/5 111/102/5 216/217/5
f 218/138/3 219/251/3 214/216/3
f 220/558/3 221/553/3 137/137/3
f 222/554/3 223/559/3 219/251/3
f 229/560/5 243/561/5 244/562/5 236/563/5
f 223/559/3 224/564/3 219/251/3
f 227/565/5 226/566/5 159/236/5
f 231/235/5 230/567/5 159/236/5
f 230/567/5 227/565/5 159/236/5
f 235/257/4 229/221/4 233/227/4
f 239/242/6 238/241/6 237/568/6
f 240/237/1 242/569/1 241/570/1
f 240/237/1 241/570/1 231/571/1
f 244/240/6 243/572/6 238/241/6
f 261/573/1 246/574/1 245/575/1
f 261/573/1 248/576/1 247/577/1
f 261/573/1 247/577/1 246/574/1
f 228/222/4 240/230/4 159/146/4
f 232/578/3 239/232/3 228/234/3
f 242/569/1 240/237/1 261/573/1 245/575/1
f 229/224/1 236/579/1 232/225/1
f 232/580/4 236/581/4 244/582/4 239/583/4
f 243/239/4 240/230/4 238/231/4
f 250/245/6 252/249/6 253/248/6 251/243/6
f 245/584/4 246/585/4 253/586/4 252/587/4
f 219/251/3 224/564/3 212/212/3
f 247/588/4 248/589/4 255/590/4 254/591/4
f 246/585/4 247/588/4 254/591/4 253/586/4
f 242/254/4 245/584/4 252/587/4 224/252/4
f 220/592/4 226/593/4 227/594/4 221/595/4
f 222/596/4 230/597/4 231/255/4 223/598/4
f 221/595/4 227/594/4 230/597/4 222/596/4
f 262/599/4 263/600/4 268/601/4 267/602/4
f 231/255/4 224/252/4 223/598/4
f 250/245/6 215/219/6 212/256/6
f 175/184/5 174/183/5 111/102/5
f 257/603/4 235/257/4 256/281/4
f 200/258/4 256/281/4 166/270/4
f 200/258/4 257/603/4 256/281/4
f 207/195/4 260/259/4 200/258/4
f 258/604/3 259/605/3 207/198/3
f 259/605/3 263/260/3 207/198/3
f 261/573/1 263/606/1 262/607/1
f 200/258/4 235/257/4 257/603/4
f 261/238/4 200/258/4 260/259/4
f 265/608/5 264/609/5 175/184/5
f 266/266/5 265/608/5 175/184/5
f 104/267/5 175/184/5 111/102/5
f 258/610/4 264/611/4 265/612/4 259/613/4
f 266/614/4 269/615/4 263/600/4
f 269/615/4 268/601/4 263/600/4
f 259/613/4 265/612/4 266/614/4 263/600/4
f 136/482/4 161/464/4 226/593/4 220/592/4
f 266/264/6 104/218/6 217/220/6
f 216/217/5 102/104/5 104/267/5
f 132/139/3 218/138/3 31/141/3
f 137/137/3 219/251/3 218/138/3
f 136/140/3 220/558/3 137/137/3
f 226/566/5 161/616/5 159/236/5
f 234/228/4 225/223/4 164/269/4
f 208/556/4 209/555/4 264/611/4 258/610/4
f 200/258/4 166/270/4 198/525/4
f 207/195/4 200/258/4 206/530/4
f 208/532/3 258/604/3 207/198/3
f 264/609/5 209/548/5 175/184/5
f 112/402/1 25/294/1 28/295/1 113/403/1
f 11/5/1 10/283/1 63/72/1 64/69/1
f 25/294/1 112/402/1 24/135/1
f 60/56/5 113/478/5 28/57/5
f 158/280/4 193/279/4 194/522/4 163/142/4
f 93/108/4 53/41/4 15/40/4
f 57/47/2 54/113/2 21/48/2
f 110/118/4 58/54/4 27/53/4
f 179/201/4 155/144/4 154/457/4
f 182/278/4 158/280/4 155/144/4
f 165/465/4 197/523/4 198/525/4 166/270/4
f 163/142/4 194/522/4 197/523/4 165/465/4
f 234/228/4 166/270/4 256/281/4 233/227/4
f 60/150/2 59/202/2 116/151/2
f 173/204/4 134/154/4 122/153/4
f 141/159/2 135/209/2 126/160/2
f 180/540/4 156/163/4 131/165/4
f 215/219/6 104/218/6 212/256/6
f 248/589/4 262/599/4 267/602/4 255/590/4
f 235/257/4 243/239/4 229/221/4
f 261/573/1 262/607/1 248/576/1
f 251/243/6 217/220/6 249/244/6
